('/home/shivang/example/il6pred/dist/il6pred',
 True,
 False,
 False,
 None,
 None,
 False,
 False,
 None,
 True,
 True,
 False,
 None,
 None,
 None,
 '/home/shivang/example/il6pred/build/il6pred/il6pred.pkg',
 [('PYZ-00.pyz',
   '/home/shivang/example/il6pred/build/il6pred/PYZ-00.pyz',
   'PYZ'),
  ('struct',
   '/home/shivang/example/il6pred/build/il6pred/localpycos/struct.pyo',
   'PYMODULE'),
  ('pyimod01_os_path',
   '/home/shivang/.local/lib/python3.10/site-packages/PyInstaller/loader/pyimod01_os_path.pyc',
   'PYMODULE'),
  ('pyimod02_archive',
   '/home/shivang/.local/lib/python3.10/site-packages/PyInstaller/loader/pyimod02_archive.pyc',
   'PYMODULE'),
  ('pyimod03_importers',
   '/home/shivang/.local/lib/python3.10/site-packages/PyInstaller/loader/pyimod03_importers.pyc',
   'PYMODULE'),
  ('pyimod04_ctypes',
   '/home/shivang/.local/lib/python3.10/site-packages/PyInstaller/loader/pyimod04_ctypes.pyc',
   'PYMODULE'),
  ('pyiboot01_bootstrap',
   '/home/shivang/.local/lib/python3.10/site-packages/PyInstaller/loader/pyiboot01_bootstrap.py',
   'PYSOURCE'),
  ('pyi_rth_pkgutil',
   '/home/shivang/.local/lib/python3.10/site-packages/PyInstaller/hooks/rthooks/pyi_rth_pkgutil.py',
   'PYSOURCE'),
  ('pyi_rth_multiprocessing',
   '/home/shivang/.local/lib/python3.10/site-packages/PyInstaller/hooks/rthooks/pyi_rth_multiprocessing.py',
   'PYSOURCE'),
  ('pyi_rth_inspect',
   '/home/shivang/.local/lib/python3.10/site-packages/PyInstaller/hooks/rthooks/pyi_rth_inspect.py',
   'PYSOURCE'),
  ('pyi_rth_pkgres',
   '/home/shivang/.local/lib/python3.10/site-packages/PyInstaller/hooks/rthooks/pyi_rth_pkgres.py',
   'PYSOURCE'),
  ('pyi_rth_subprocess',
   '/home/shivang/.local/lib/python3.10/site-packages/PyInstaller/hooks/rthooks/pyi_rth_subprocess.py',
   'PYSOURCE'),
  ('il6pred', '/home/shivang/example/il6pred/il6pred.py', 'PYSOURCE'),
  ('libexpat.so.1', '/lib/x86_64-linux-gnu/libexpat.so.1', 'BINARY'),
  ('libz.so.1', '/lib/x86_64-linux-gnu/libz.so.1', 'BINARY'),
  ('lib-dynload/_contextvars',
   '/usr/lib/python3.10/lib-dynload/_contextvars.cpython-310-x86_64-linux-gnu.so',
   'EXTENSION'),
  ('lib-dynload/_decimal',
   '/usr/lib/python3.10/lib-dynload/_decimal.cpython-310-x86_64-linux-gnu.so',
   'EXTENSION'),
  ('lib-dynload/_hashlib',
   '/usr/lib/python3.10/lib-dynload/_hashlib.cpython-310-x86_64-linux-gnu.so',
   'EXTENSION'),
  ('lib-dynload/resource',
   '/usr/lib/python3.10/lib-dynload/resource.cpython-310-x86_64-linux-gnu.so',
   'EXTENSION'),
  ('lib-dynload/_lzma',
   '/usr/lib/python3.10/lib-dynload/_lzma.cpython-310-x86_64-linux-gnu.so',
   'EXTENSION'),
  ('lib-dynload/_bz2',
   '/usr/lib/python3.10/lib-dynload/_bz2.cpython-310-x86_64-linux-gnu.so',
   'EXTENSION'),
  ('lib-dynload/_json',
   '/usr/lib/python3.10/lib-dynload/_json.cpython-310-x86_64-linux-gnu.so',
   'EXTENSION'),
  ('lib-dynload/_queue',
   '/usr/lib/python3.10/lib-dynload/_queue.cpython-310-x86_64-linux-gnu.so',
   'EXTENSION'),
  ('lib-dynload/mmap',
   '/usr/lib/python3.10/lib-dynload/mmap.cpython-310-x86_64-linux-gnu.so',
   'EXTENSION'),
  ('lib-dynload/_posixshmem',
   '/usr/lib/python3.10/lib-dynload/_posixshmem.cpython-310-x86_64-linux-gnu.so',
   'EXTENSION'),
  ('lib-dynload/_ctypes',
   '/usr/lib/python3.10/lib-dynload/_ctypes.cpython-310-x86_64-linux-gnu.so',
   'EXTENSION'),
  ('lib-dynload/_multiprocessing',
   '/usr/lib/python3.10/lib-dynload/_multiprocessing.cpython-310-x86_64-linux-gnu.so',
   'EXTENSION'),
  ('lib-dynload/termios',
   '/usr/lib/python3.10/lib-dynload/termios.cpython-310-x86_64-linux-gnu.so',
   'EXTENSION'),
  ('lib-dynload/_ssl',
   '/usr/lib/python3.10/lib-dynload/_ssl.cpython-310-x86_64-linux-gnu.so',
   'EXTENSION'),
  ('lib-dynload/_opcode',
   '/usr/lib/python3.10/lib-dynload/_opcode.cpython-310-x86_64-linux-gnu.so',
   'EXTENSION'),
  ('lib-dynload/_multibytecodec',
   '/usr/lib/python3.10/lib-dynload/_multibytecodec.cpython-310-x86_64-linux-gnu.so',
   'EXTENSION'),
  ('lib-dynload/_codecs_jp',
   '/usr/lib/python3.10/lib-dynload/_codecs_jp.cpython-310-x86_64-linux-gnu.so',
   'EXTENSION'),
  ('lib-dynload/_codecs_tw',
   '/usr/lib/python3.10/lib-dynload/_codecs_tw.cpython-310-x86_64-linux-gnu.so',
   'EXTENSION'),
  ('lib-dynload/_codecs_cn',
   '/usr/lib/python3.10/lib-dynload/_codecs_cn.cpython-310-x86_64-linux-gnu.so',
   'EXTENSION'),
  ('lib-dynload/_codecs_iso2022',
   '/usr/lib/python3.10/lib-dynload/_codecs_iso2022.cpython-310-x86_64-linux-gnu.so',
   'EXTENSION'),
  ('lib-dynload/_codecs_kr',
   '/usr/lib/python3.10/lib-dynload/_codecs_kr.cpython-310-x86_64-linux-gnu.so',
   'EXTENSION'),
  ('lib-dynload/_codecs_hk',
   '/usr/lib/python3.10/lib-dynload/_codecs_hk.cpython-310-x86_64-linux-gnu.so',
   'EXTENSION'),
  ('lib-dynload/readline',
   '/usr/lib/python3.10/lib-dynload/readline.cpython-310-x86_64-linux-gnu.so',
   'EXTENSION'),
  ('lib-dynload/_curses',
   '/usr/lib/python3.10/lib-dynload/_curses.cpython-310-x86_64-linux-gnu.so',
   'EXTENSION'),
  ('lib-dynload/_asyncio',
   '/usr/lib/python3.10/lib-dynload/_asyncio.cpython-310-x86_64-linux-gnu.so',
   'EXTENSION'),
  ('lib-dynload/_sqlite3',
   '/usr/lib/python3.10/lib-dynload/_sqlite3.cpython-310-x86_64-linux-gnu.so',
   'EXTENSION'),
  ('lib-dynload/_uuid',
   '/usr/lib/python3.10/lib-dynload/_uuid.cpython-310-x86_64-linux-gnu.so',
   'EXTENSION'),
  ('libmpdec.so.3', '/lib/x86_64-linux-gnu/libmpdec.so.3', 'BINARY'),
  ('libcrypto.so.3', '/lib/x86_64-linux-gnu/libcrypto.so.3', 'BINARY'),
  ('liblzma.so.5', '/lib/x86_64-linux-gnu/liblzma.so.5', 'BINARY'),
  ('libbz2.so.1.0', '/lib/x86_64-linux-gnu/libbz2.so.1.0', 'BINARY'),
  ('libffi.so.8', '/lib/x86_64-linux-gnu/libffi.so.8', 'BINARY'),
  ('libssl.so.3', '/lib/x86_64-linux-gnu/libssl.so.3', 'BINARY'),
  ('libreadline.so.8', '/lib/x86_64-linux-gnu/libreadline.so.8', 'BINARY'),
  ('libtinfo.so.6', '/lib/x86_64-linux-gnu/libtinfo.so.6', 'BINARY'),
  ('libncursesw.so.6', '/lib/x86_64-linux-gnu/libncursesw.so.6', 'BINARY'),
  ('libsqlite3.so.0', '/lib/x86_64-linux-gnu/libsqlite3.so.0', 'BINARY'),
  ('libuuid.so.1', '/lib/x86_64-linux-gnu/libuuid.so.1', 'BINARY'),
  ('libpython3.10.so.1.0',
   '/lib/x86_64-linux-gnu/libpython3.10.so.1.0',
   'BINARY'),
  ('base_library.zip',
   '/home/shivang/example/il6pred/build/il6pred/base_library.zip',
   'DATA'),
  ('pytz/zoneinfo/Indian/Chagos',
   '/home/shivang/.local/lib/python3.10/site-packages/pytz/zoneinfo/Indian/Chagos',
   'DATA'),
  ('pytz/zoneinfo/Etc/GMT-9',
   '/home/shivang/.local/lib/python3.10/site-packages/pytz/zoneinfo/Etc/GMT-9',
   'DATA'),
  ('pytz/zoneinfo/Etc/GMT+6',
   '/home/shivang/.local/lib/python3.10/site-packages/pytz/zoneinfo/Etc/GMT+6',
   'DATA'),
  ('pytz/zoneinfo/America/Punta_Arenas',
   '/home/shivang/.local/lib/python3.10/site-packages/pytz/zoneinfo/America/Punta_Arenas',
   'DATA'),
  ('pytz/zoneinfo/Africa/Malabo',
   '/home/shivang/.local/lib/python3.10/site-packages/pytz/zoneinfo/Africa/Malabo',
   'DATA'),
  ('pytz/zoneinfo/Etc/Greenwich',
   '/home/shivang/.local/lib/python3.10/site-packages/pytz/zoneinfo/Etc/Greenwich',
   'DATA'),
  ('pytz/zoneinfo/America/Marigot',
   '/home/shivang/.local/lib/python3.10/site-packages/pytz/zoneinfo/America/Marigot',
   'DATA'),
  ('pytz/zoneinfo/Pacific/Galapagos',
   '/home/shivang/.local/lib/python3.10/site-packages/pytz/zoneinfo/Pacific/Galapagos',
   'DATA'),
  ('pytz/zoneinfo/Asia/Srednekolymsk',
   '/home/shivang/.local/lib/python3.10/site-packages/pytz/zoneinfo/Asia/Srednekolymsk',
   'DATA'),
  ('pytz/zoneinfo/Etc/GMT-8',
   '/home/shivang/.local/lib/python3.10/site-packages/pytz/zoneinfo/Etc/GMT-8',
   'DATA'),
  ('pytz/zoneinfo/Indian/Mayotte',
   '/home/shivang/.local/lib/python3.10/site-packages/pytz/zoneinfo/Indian/Mayotte',
   'DATA'),
  ('pytz/zoneinfo/Africa/Dar_es_Salaam',
   '/home/shivang/.local/lib/python3.10/site-packages/pytz/zoneinfo/Africa/Dar_es_Salaam',
   'DATA'),
  ('pytz/zoneinfo/Kwajalein',
   '/home/shivang/.local/lib/python3.10/site-packages/pytz/zoneinfo/Kwajalein',
   'DATA'),
  ('pytz/zoneinfo/Europe/Zurich',
   '/home/shivang/.local/lib/python3.10/site-packages/pytz/zoneinfo/Europe/Zurich',
   'DATA'),
  ('pytz/zoneinfo/Pacific/Pago_Pago',
   '/home/shivang/.local/lib/python3.10/site-packages/pytz/zoneinfo/Pacific/Pago_Pago',
   'DATA'),
  ('pytz/zoneinfo/Asia/Chungking',
   '/home/shivang/.local/lib/python3.10/site-packages/pytz/zoneinfo/Asia/Chungking',
   'DATA'),
  ('pytz/zoneinfo/America/Santa_Isabel',
   '/home/shivang/.local/lib/python3.10/site-packages/pytz/zoneinfo/America/Santa_Isabel',
   'DATA'),
  ('pytz/zoneinfo/Pacific/Tahiti',
   '/home/shivang/.local/lib/python3.10/site-packages/pytz/zoneinfo/Pacific/Tahiti',
   'DATA'),
  ('pytz/zoneinfo/Etc/GMT-7',
   '/home/shivang/.local/lib/python3.10/site-packages/pytz/zoneinfo/Etc/GMT-7',
   'DATA'),
  ('pytz/zoneinfo/GMT',
   '/home/shivang/.local/lib/python3.10/site-packages/pytz/zoneinfo/GMT',
   'DATA'),
  ('pytz/zoneinfo/HST',
   '/home/shivang/.local/lib/python3.10/site-packages/pytz/zoneinfo/HST',
   'DATA'),
  ('pytz/zoneinfo/Etc/GMT+9',
   '/home/shivang/.local/lib/python3.10/site-packages/pytz/zoneinfo/Etc/GMT+9',
   'DATA'),
  ('pytz/zoneinfo/GB',
   '/home/shivang/.local/lib/python3.10/site-packages/pytz/zoneinfo/GB',
   'DATA'),
  ('pytz/zoneinfo/Asia/Kabul',
   '/home/shivang/.local/lib/python3.10/site-packages/pytz/zoneinfo/Asia/Kabul',
   'DATA'),
  ('pytz/zoneinfo/America/Mazatlan',
   '/home/shivang/.local/lib/python3.10/site-packages/pytz/zoneinfo/America/Mazatlan',
   'DATA'),
  ('pytz/zoneinfo/US/Hawaii',
   '/home/shivang/.local/lib/python3.10/site-packages/pytz/zoneinfo/US/Hawaii',
   'DATA'),
  ('importlib_metadata-4.6.4.egg-info/dependency_links.txt',
   '/usr/lib/python3/dist-packages/importlib_metadata-4.6.4.egg-info/dependency_links.txt',
   'DATA'),
  ('pytz/zoneinfo/America/Recife',
   '/home/shivang/.local/lib/python3.10/site-packages/pytz/zoneinfo/America/Recife',
   'DATA'),
  ('pytz/zoneinfo/Asia/Chita',
   '/home/shivang/.local/lib/python3.10/site-packages/pytz/zoneinfo/Asia/Chita',
   'DATA'),
  ('pytz/zoneinfo/Europe/Tirane',
   '/home/shivang/.local/lib/python3.10/site-packages/pytz/zoneinfo/Europe/Tirane',
   'DATA'),
  ('pytz/zoneinfo/Pacific/Samoa',
   '/home/shivang/.local/lib/python3.10/site-packages/pytz/zoneinfo/Pacific/Samoa',
   'DATA'),
  ('pytz/zoneinfo/Asia/Jerusalem',
   '/home/shivang/.local/lib/python3.10/site-packages/pytz/zoneinfo/Asia/Jerusalem',
   'DATA'),
  ('pytz/zoneinfo/America/Indiana/Vincennes',
   '/home/shivang/.local/lib/python3.10/site-packages/pytz/zoneinfo/America/Indiana/Vincennes',
   'DATA'),
  ('pytz/zoneinfo/Asia/Yekaterinburg',
   '/home/shivang/.local/lib/python3.10/site-packages/pytz/zoneinfo/Asia/Yekaterinburg',
   'DATA'),
  ('pytz/zoneinfo/America/Creston',
   '/home/shivang/.local/lib/python3.10/site-packages/pytz/zoneinfo/America/Creston',
   'DATA'),
  ('pytz/zoneinfo/Antarctica/South_Pole',
   '/home/shivang/.local/lib/python3.10/site-packages/pytz/zoneinfo/Antarctica/South_Pole',
   'DATA'),
  ('pytz/zoneinfo/Asia/Calcutta',
   '/home/shivang/.local/lib/python3.10/site-packages/pytz/zoneinfo/Asia/Calcutta',
   'DATA'),
  ('pytz/zoneinfo/America/Porto_Velho',
   '/home/shivang/.local/lib/python3.10/site-packages/pytz/zoneinfo/America/Porto_Velho',
   'DATA'),
  ('pytz/zoneinfo/Chile/Continental',
   '/home/shivang/.local/lib/python3.10/site-packages/pytz/zoneinfo/Chile/Continental',
   'DATA'),
  ('pytz/zoneinfo/Asia/Qyzylorda',
   '/home/shivang/.local/lib/python3.10/site-packages/pytz/zoneinfo/Asia/Qyzylorda',
   'DATA'),
  ('pytz/zoneinfo/Africa/Maseru',
   '/home/shivang/.local/lib/python3.10/site-packages/pytz/zoneinfo/Africa/Maseru',
   'DATA'),
  ('pytz/zoneinfo/Europe/Chisinau',
   '/home/shivang/.local/lib/python3.10/site-packages/pytz/zoneinfo/Europe/Chisinau',
   'DATA'),
  ('pytz/zoneinfo/America/Barbados',
   '/home/shivang/.local/lib/python3.10/site-packages/pytz/zoneinfo/America/Barbados',
   'DATA'),
  ('pytz/zoneinfo/America/Lima',
   '/home/shivang/.local/lib/python3.10/site-packages/pytz/zoneinfo/America/Lima',
   'DATA'),
  ('pytz/zoneinfo/America/Buenos_Aires',
   '/home/shivang/.local/lib/python3.10/site-packages/pytz/zoneinfo/America/Buenos_Aires',
   'DATA'),
  ('pytz/zoneinfo/Asia/Chongqing',
   '/home/shivang/.local/lib/python3.10/site-packages/pytz/zoneinfo/Asia/Chongqing',
   'DATA'),
  ('pytz/zoneinfo/Indian/Comoro',
   '/home/shivang/.local/lib/python3.10/site-packages/pytz/zoneinfo/Indian/Comoro',
   'DATA'),
  ('pytz/zoneinfo/America/Nuuk',
   '/home/shivang/.local/lib/python3.10/site-packages/pytz/zoneinfo/America/Nuuk',
   'DATA'),
  ('pytz/zoneinfo/America/Grand_Turk',
   '/home/shivang/.local/lib/python3.10/site-packages/pytz/zoneinfo/America/Grand_Turk',
   'DATA'),
  ('pytz/zoneinfo/America/Curacao',
   '/home/shivang/.local/lib/python3.10/site-packages/pytz/zoneinfo/America/Curacao',
   'DATA'),
  ('pytz/zoneinfo/Europe/Isle_of_Man',
   '/home/shivang/.local/lib/python3.10/site-packages/pytz/zoneinfo/Europe/Isle_of_Man',
   'DATA'),
  ('pytz/zoneinfo/America/Dominica',
   '/home/shivang/.local/lib/python3.10/site-packages/pytz/zoneinfo/America/Dominica',
   'DATA'),
  ('pytz/zoneinfo/America/Mexico_City',
   '/home/shivang/.local/lib/python3.10/site-packages/pytz/zoneinfo/America/Mexico_City',
   'DATA'),
  ('pytz/zoneinfo/America/Argentina/Mendoza',
   '/home/shivang/.local/lib/python3.10/site-packages/pytz/zoneinfo/America/Argentina/Mendoza',
   'DATA'),
  ('pytz/zoneinfo/Europe/Stockholm',
   '/home/shivang/.local/lib/python3.10/site-packages/pytz/zoneinfo/Europe/Stockholm',
   'DATA'),
  ('pytz/zoneinfo/Asia/Almaty',
   '/home/shivang/.local/lib/python3.10/site-packages/pytz/zoneinfo/Asia/Almaty',
   'DATA'),
  ('pytz/zoneinfo/Etc/GMT+2',
   '/home/shivang/.local/lib/python3.10/site-packages/pytz/zoneinfo/Etc/GMT+2',
   'DATA'),
  ('pytz/zoneinfo/Europe/Prague',
   '/home/shivang/.local/lib/python3.10/site-packages/pytz/zoneinfo/Europe/Prague',
   'DATA'),
  ('pytz/zoneinfo/Pacific/Noumea',
   '/home/shivang/.local/lib/python3.10/site-packages/pytz/zoneinfo/Pacific/Noumea',
   'DATA'),
  ('pytz/zoneinfo/America/Chihuahua',
   '/home/shivang/.local/lib/python3.10/site-packages/pytz/zoneinfo/America/Chihuahua',
   'DATA'),
  ('pytz/zoneinfo/Asia/Yakutsk',
   '/home/shivang/.local/lib/python3.10/site-packages/pytz/zoneinfo/Asia/Yakutsk',
   'DATA'),
  ('pytz/zoneinfo/Australia/Hobart',
   '/home/shivang/.local/lib/python3.10/site-packages/pytz/zoneinfo/Australia/Hobart',
   'DATA'),
  ('pytz/zoneinfo/America/Sitka',
   '/home/shivang/.local/lib/python3.10/site-packages/pytz/zoneinfo/America/Sitka',
   'DATA'),
  ('pytz/zoneinfo/America/Guayaquil',
   '/home/shivang/.local/lib/python3.10/site-packages/pytz/zoneinfo/America/Guayaquil',
   'DATA'),
  ('pytz/zoneinfo/Europe/Busingen',
   '/home/shivang/.local/lib/python3.10/site-packages/pytz/zoneinfo/Europe/Busingen',
   'DATA'),
  ('pytz/zoneinfo/Canada/Central',
   '/home/shivang/.local/lib/python3.10/site-packages/pytz/zoneinfo/Canada/Central',
   'DATA'),
  ('pytz/zoneinfo/Singapore',
   '/home/shivang/.local/lib/python3.10/site-packages/pytz/zoneinfo/Singapore',
   'DATA'),
  ('pytz/zoneinfo/Pacific/Gambier',
   '/home/shivang/.local/lib/python3.10/site-packages/pytz/zoneinfo/Pacific/Gambier',
   'DATA'),
  ('pytz/zoneinfo/Africa/Gaborone',
   '/home/shivang/.local/lib/python3.10/site-packages/pytz/zoneinfo/Africa/Gaborone',
   'DATA'),
  ('pytz/zoneinfo/Africa/Timbuktu',
   '/home/shivang/.local/lib/python3.10/site-packages/pytz/zoneinfo/Africa/Timbuktu',
   'DATA'),
  ('pytz/zoneinfo/Etc/GMT-2',
   '/home/shivang/.local/lib/python3.10/site-packages/pytz/zoneinfo/Etc/GMT-2',
   'DATA'),
  ('pytz/zoneinfo/leapseconds',
   '/home/shivang/.local/lib/python3.10/site-packages/pytz/zoneinfo/leapseconds',
   'DATA'),
  ('pytz/zoneinfo/UTC',
   '/home/shivang/.local/lib/python3.10/site-packages/pytz/zoneinfo/UTC',
   'DATA'),
  ('pytz/zoneinfo/Asia/Dhaka',
   '/home/shivang/.local/lib/python3.10/site-packages/pytz/zoneinfo/Asia/Dhaka',
   'DATA'),
  ('pytz/zoneinfo/US/Central',
   '/home/shivang/.local/lib/python3.10/site-packages/pytz/zoneinfo/US/Central',
   'DATA'),
  ('pytz/zoneinfo/Etc/UCT',
   '/home/shivang/.local/lib/python3.10/site-packages/pytz/zoneinfo/Etc/UCT',
   'DATA'),
  ('pytz/zoneinfo/Asia/Jakarta',
   '/home/shivang/.local/lib/python3.10/site-packages/pytz/zoneinfo/Asia/Jakarta',
   'DATA'),
  ('pytz/zoneinfo/Asia/Novosibirsk',
   '/home/shivang/.local/lib/python3.10/site-packages/pytz/zoneinfo/Asia/Novosibirsk',
   'DATA'),
  ('pytz/zoneinfo/America/Aruba',
   '/home/shivang/.local/lib/python3.10/site-packages/pytz/zoneinfo/America/Aruba',
   'DATA'),
  ('pytz/zoneinfo/America/Managua',
   '/home/shivang/.local/lib/python3.10/site-packages/pytz/zoneinfo/America/Managua',
   'DATA'),
  ('pytz/zoneinfo/Asia/Manila',
   '/home/shivang/.local/lib/python3.10/site-packages/pytz/zoneinfo/Asia/Manila',
   'DATA'),
  ('pytz/zoneinfo/Africa/Tunis',
   '/home/shivang/.local/lib/python3.10/site-packages/pytz/zoneinfo/Africa/Tunis',
   'DATA'),
  ('pytz/zoneinfo/Africa/Accra',
   '/home/shivang/.local/lib/python3.10/site-packages/pytz/zoneinfo/Africa/Accra',
   'DATA'),
  ('pytz/zoneinfo/Pacific/Ponape',
   '/home/shivang/.local/lib/python3.10/site-packages/pytz/zoneinfo/Pacific/Ponape',
   'DATA'),
  ('pytz/zoneinfo/Etc/GMT-0',
   '/home/shivang/.local/lib/python3.10/site-packages/pytz/zoneinfo/Etc/GMT-0',
   'DATA'),
  ('pytz/zoneinfo/America/Mendoza',
   '/home/shivang/.local/lib/python3.10/site-packages/pytz/zoneinfo/America/Mendoza',
   'DATA'),
  ('pytz/zoneinfo/Etc/GMT',
   '/home/shivang/.local/lib/python3.10/site-packages/pytz/zoneinfo/Etc/GMT',
   'DATA'),
  ('pytz/zoneinfo/Pacific/Wake',
   '/home/shivang/.local/lib/python3.10/site-packages/pytz/zoneinfo/Pacific/Wake',
   'DATA'),
  ('pytz/zoneinfo/America/Rankin_Inlet',
   '/home/shivang/.local/lib/python3.10/site-packages/pytz/zoneinfo/America/Rankin_Inlet',
   'DATA'),
  ('pytz/zoneinfo/Europe/Jersey',
   '/home/shivang/.local/lib/python3.10/site-packages/pytz/zoneinfo/Europe/Jersey',
   'DATA'),
  ('pytz/zoneinfo/America/Argentina/Tucuman',
   '/home/shivang/.local/lib/python3.10/site-packages/pytz/zoneinfo/America/Argentina/Tucuman',
   'DATA'),
  ('pytz/zoneinfo/America/Montreal',
   '/home/shivang/.local/lib/python3.10/site-packages/pytz/zoneinfo/America/Montreal',
   'DATA'),
  ('pytz/zoneinfo/Africa/Conakry',
   '/home/shivang/.local/lib/python3.10/site-packages/pytz/zoneinfo/Africa/Conakry',
   'DATA'),
  ('pytz/zoneinfo/Asia/Kashgar',
   '/home/shivang/.local/lib/python3.10/site-packages/pytz/zoneinfo/Asia/Kashgar',
   'DATA'),
  ('pytz/zoneinfo/America/Bahia_Banderas',
   '/home/shivang/.local/lib/python3.10/site-packages/pytz/zoneinfo/America/Bahia_Banderas',
   'DATA'),
  ('pytz/zoneinfo/Etc/GMT+7',
   '/home/shivang/.local/lib/python3.10/site-packages/pytz/zoneinfo/Etc/GMT+7',
   'DATA'),
  ('pytz/zoneinfo/Europe/Minsk',
   '/home/shivang/.local/lib/python3.10/site-packages/pytz/zoneinfo/Europe/Minsk',
   'DATA'),
  ('pytz/zoneinfo/America/Cayenne',
   '/home/shivang/.local/lib/python3.10/site-packages/pytz/zoneinfo/America/Cayenne',
   'DATA'),
  ('pytz/zoneinfo/EST5EDT',
   '/home/shivang/.local/lib/python3.10/site-packages/pytz/zoneinfo/EST5EDT',
   'DATA'),
  ('pytz/zoneinfo/America/Hermosillo',
   '/home/shivang/.local/lib/python3.10/site-packages/pytz/zoneinfo/America/Hermosillo',
   'DATA'),
  ('pytz/zoneinfo/GMT+0',
   '/home/shivang/.local/lib/python3.10/site-packages/pytz/zoneinfo/GMT+0',
   'DATA'),
  ('pytz/zoneinfo/Pacific/Funafuti',
   '/home/shivang/.local/lib/python3.10/site-packages/pytz/zoneinfo/Pacific/Funafuti',
   'DATA'),
  ('pytz/zoneinfo/Hongkong',
   '/home/shivang/.local/lib/python3.10/site-packages/pytz/zoneinfo/Hongkong',
   'DATA'),
  ('pytz/zoneinfo/Asia/Irkutsk',
   '/home/shivang/.local/lib/python3.10/site-packages/pytz/zoneinfo/Asia/Irkutsk',
   'DATA'),
  ('pytz/zoneinfo/America/Indiana/Petersburg',
   '/home/shivang/.local/lib/python3.10/site-packages/pytz/zoneinfo/America/Indiana/Petersburg',
   'DATA'),
  ('pytz/zoneinfo/Asia/Kuwait',
   '/home/shivang/.local/lib/python3.10/site-packages/pytz/zoneinfo/Asia/Kuwait',
   'DATA'),
  ('pytz/zoneinfo/Europe/Guernsey',
   '/home/shivang/.local/lib/python3.10/site-packages/pytz/zoneinfo/Europe/Guernsey',
   'DATA'),
  ('pytz/zoneinfo/GMT-0',
   '/home/shivang/.local/lib/python3.10/site-packages/pytz/zoneinfo/GMT-0',
   'DATA'),
  ('pytz/zoneinfo/W-SU',
   '/home/shivang/.local/lib/python3.10/site-packages/pytz/zoneinfo/W-SU',
   'DATA'),
  ('pytz/zoneinfo/Africa/Lubumbashi',
   '/home/shivang/.local/lib/python3.10/site-packages/pytz/zoneinfo/Africa/Lubumbashi',
   'DATA'),
  ('pytz/zoneinfo/Indian/Mauritius',
   '/home/shivang/.local/lib/python3.10/site-packages/pytz/zoneinfo/Indian/Mauritius',
   'DATA'),
  ('pytz/zoneinfo/Etc/UTC',
   '/home/shivang/.local/lib/python3.10/site-packages/pytz/zoneinfo/Etc/UTC',
   'DATA'),
  ('pytz/zoneinfo/America/Araguaina',
   '/home/shivang/.local/lib/python3.10/site-packages/pytz/zoneinfo/America/Araguaina',
   'DATA'),
  ('pytz/zoneinfo/America/Argentina/Rio_Gallegos',
   '/home/shivang/.local/lib/python3.10/site-packages/pytz/zoneinfo/America/Argentina/Rio_Gallegos',
   'DATA'),
  ('pytz/zoneinfo/America/Matamoros',
   '/home/shivang/.local/lib/python3.10/site-packages/pytz/zoneinfo/America/Matamoros',
   'DATA'),
  ('pytz/zoneinfo/America/Indiana/Vevay',
   '/home/shivang/.local/lib/python3.10/site-packages/pytz/zoneinfo/America/Indiana/Vevay',
   'DATA'),
  ('pytz/zoneinfo/America/Monterrey',
   '/home/shivang/.local/lib/python3.10/site-packages/pytz/zoneinfo/America/Monterrey',
   'DATA'),
  ('pytz/zoneinfo/Europe/Riga',
   '/home/shivang/.local/lib/python3.10/site-packages/pytz/zoneinfo/Europe/Riga',
   'DATA'),
  ('pytz/zoneinfo/America/Knox_IN',
   '/home/shivang/.local/lib/python3.10/site-packages/pytz/zoneinfo/America/Knox_IN',
   'DATA'),
  ('pytz/zoneinfo/Asia/Tomsk',
   '/home/shivang/.local/lib/python3.10/site-packages/pytz/zoneinfo/Asia/Tomsk',
   'DATA'),
  ('pytz/zoneinfo/America/Port_of_Spain',
   '/home/shivang/.local/lib/python3.10/site-packages/pytz/zoneinfo/America/Port_of_Spain',
   'DATA'),
  ('pytz/zoneinfo/Asia/Ashkhabad',
   '/home/shivang/.local/lib/python3.10/site-packages/pytz/zoneinfo/Asia/Ashkhabad',
   'DATA'),
  ('pytz/zoneinfo/America/Toronto',
   '/home/shivang/.local/lib/python3.10/site-packages/pytz/zoneinfo/America/Toronto',
   'DATA'),
  ('pytz/zoneinfo/Africa/Tripoli',
   '/home/shivang/.local/lib/python3.10/site-packages/pytz/zoneinfo/Africa/Tripoli',
   'DATA'),
  ('pytz/zoneinfo/Europe/Malta',
   '/home/shivang/.local/lib/python3.10/site-packages/pytz/zoneinfo/Europe/Malta',
   'DATA'),
  ('pytz/zoneinfo/Atlantic/Canary',
   '/home/shivang/.local/lib/python3.10/site-packages/pytz/zoneinfo/Atlantic/Canary',
   'DATA'),
  ('pytz/zoneinfo/America/Argentina/Catamarca',
   '/home/shivang/.local/lib/python3.10/site-packages/pytz/zoneinfo/America/Argentina/Catamarca',
   'DATA'),
  ('pytz/zoneinfo/Asia/Aqtau',
   '/home/shivang/.local/lib/python3.10/site-packages/pytz/zoneinfo/Asia/Aqtau',
   'DATA'),
  ('pytz/zoneinfo/America/Belize',
   '/home/shivang/.local/lib/python3.10/site-packages/pytz/zoneinfo/America/Belize',
   'DATA'),
  ('pytz/zoneinfo/America/Guadeloupe',
   '/home/shivang/.local/lib/python3.10/site-packages/pytz/zoneinfo/America/Guadeloupe',
   'DATA'),
  ('pytz/zoneinfo/Asia/Hong_Kong',
   '/home/shivang/.local/lib/python3.10/site-packages/pytz/zoneinfo/Asia/Hong_Kong',
   'DATA'),
  ('pytz/zoneinfo/Canada/Eastern',
   '/home/shivang/.local/lib/python3.10/site-packages/pytz/zoneinfo/Canada/Eastern',
   'DATA'),
  ('pytz/zoneinfo/America/La_Paz',
   '/home/shivang/.local/lib/python3.10/site-packages/pytz/zoneinfo/America/La_Paz',
   'DATA'),
  ('pytz/zoneinfo/Africa/Asmara',
   '/home/shivang/.local/lib/python3.10/site-packages/pytz/zoneinfo/Africa/Asmara',
   'DATA'),
  ('pytz/zoneinfo/Australia/Yancowinna',
   '/home/shivang/.local/lib/python3.10/site-packages/pytz/zoneinfo/Australia/Yancowinna',
   'DATA'),
  ('pytz/zoneinfo/MET',
   '/home/shivang/.local/lib/python3.10/site-packages/pytz/zoneinfo/MET',
   'DATA'),
  ('pytz/zoneinfo/America/Caracas',
   '/home/shivang/.local/lib/python3.10/site-packages/pytz/zoneinfo/America/Caracas',
   'DATA'),
  ('pytz/zoneinfo/US/Alaska',
   '/home/shivang/.local/lib/python3.10/site-packages/pytz/zoneinfo/US/Alaska',
   'DATA'),
  ('pytz/zoneinfo/Australia/Canberra',
   '/home/shivang/.local/lib/python3.10/site-packages/pytz/zoneinfo/Australia/Canberra',
   'DATA'),
  ('pytz/zoneinfo/GMT0',
   '/home/shivang/.local/lib/python3.10/site-packages/pytz/zoneinfo/GMT0',
   'DATA'),
  ('pytz/zoneinfo/Asia/Kathmandu',
   '/home/shivang/.local/lib/python3.10/site-packages/pytz/zoneinfo/Asia/Kathmandu',
   'DATA'),
  ('pytz/zoneinfo/America/Swift_Current',
   '/home/shivang/.local/lib/python3.10/site-packages/pytz/zoneinfo/America/Swift_Current',
   'DATA'),
  ('pytz/zoneinfo/Africa/Casablanca',
   '/home/shivang/.local/lib/python3.10/site-packages/pytz/zoneinfo/Africa/Casablanca',
   'DATA'),
  ('pytz/zoneinfo/America/Indiana/Tell_City',
   '/home/shivang/.local/lib/python3.10/site-packages/pytz/zoneinfo/America/Indiana/Tell_City',
   'DATA'),
  ('pytz/zoneinfo/America/Regina',
   '/home/shivang/.local/lib/python3.10/site-packages/pytz/zoneinfo/America/Regina',
   'DATA'),
  ('pytz/zoneinfo/Pacific/Kanton',
   '/home/shivang/.local/lib/python3.10/site-packages/pytz/zoneinfo/Pacific/Kanton',
   'DATA'),
  ('pytz/zoneinfo/Africa/Addis_Ababa',
   '/home/shivang/.local/lib/python3.10/site-packages/pytz/zoneinfo/Africa/Addis_Ababa',
   'DATA'),
  ('pytz/zoneinfo/America/Dawson',
   '/home/shivang/.local/lib/python3.10/site-packages/pytz/zoneinfo/America/Dawson',
   'DATA'),
  ('pytz/zoneinfo/Etc/GMT+12',
   '/home/shivang/.local/lib/python3.10/site-packages/pytz/zoneinfo/Etc/GMT+12',
   'DATA'),
  ('pytz/zoneinfo/America/Atikokan',
   '/home/shivang/.local/lib/python3.10/site-packages/pytz/zoneinfo/America/Atikokan',
   'DATA'),
  ('pytz/zoneinfo/ROK',
   '/home/shivang/.local/lib/python3.10/site-packages/pytz/zoneinfo/ROK',
   'DATA'),
  ('pytz/zoneinfo/Asia/Sakhalin',
   '/home/shivang/.local/lib/python3.10/site-packages/pytz/zoneinfo/Asia/Sakhalin',
   'DATA'),
  ('pytz/zoneinfo/Pacific/Pohnpei',
   '/home/shivang/.local/lib/python3.10/site-packages/pytz/zoneinfo/Pacific/Pohnpei',
   'DATA'),
  ('pytz/zoneinfo/America/North_Dakota/Beulah',
   '/home/shivang/.local/lib/python3.10/site-packages/pytz/zoneinfo/America/North_Dakota/Beulah',
   'DATA'),
  ('pytz/zoneinfo/America/Denver',
   '/home/shivang/.local/lib/python3.10/site-packages/pytz/zoneinfo/America/Denver',
   'DATA'),
  ('pytz/zoneinfo/Africa/Niamey',
   '/home/shivang/.local/lib/python3.10/site-packages/pytz/zoneinfo/Africa/Niamey',
   'DATA'),
  ('pytz/zoneinfo/Europe/Vilnius',
   '/home/shivang/.local/lib/python3.10/site-packages/pytz/zoneinfo/Europe/Vilnius',
   'DATA'),
  ('importlib_metadata-4.6.4.egg-info/top_level.txt',
   '/usr/lib/python3/dist-packages/importlib_metadata-4.6.4.egg-info/top_level.txt',
   'DATA'),
  ('pytz/zoneinfo/Pacific/Guadalcanal',
   '/home/shivang/.local/lib/python3.10/site-packages/pytz/zoneinfo/Pacific/Guadalcanal',
   'DATA'),
  ('pytz/zoneinfo/America/Kralendijk',
   '/home/shivang/.local/lib/python3.10/site-packages/pytz/zoneinfo/America/Kralendijk',
   'DATA'),
  ('pytz/zoneinfo/America/Kentucky/Louisville',
   '/home/shivang/.local/lib/python3.10/site-packages/pytz/zoneinfo/America/Kentucky/Louisville',
   'DATA'),
  ('pytz/zoneinfo/Libya',
   '/home/shivang/.local/lib/python3.10/site-packages/pytz/zoneinfo/Libya',
   'DATA'),
  ('pytz/zoneinfo/tzdata.zi',
   '/home/shivang/.local/lib/python3.10/site-packages/pytz/zoneinfo/tzdata.zi',
   'DATA'),
  ('pytz/zoneinfo/America/Panama',
   '/home/shivang/.local/lib/python3.10/site-packages/pytz/zoneinfo/America/Panama',
   'DATA'),
  ('pytz/zoneinfo/Europe/Budapest',
   '/home/shivang/.local/lib/python3.10/site-packages/pytz/zoneinfo/Europe/Budapest',
   'DATA'),
  ('pytz/zoneinfo/Etc/Universal',
   '/home/shivang/.local/lib/python3.10/site-packages/pytz/zoneinfo/Etc/Universal',
   'DATA'),
  ('pytz/zoneinfo/Etc/GMT+0',
   '/home/shivang/.local/lib/python3.10/site-packages/pytz/zoneinfo/Etc/GMT+0',
   'DATA'),
  ('pytz/zoneinfo/Etc/GMT+10',
   '/home/shivang/.local/lib/python3.10/site-packages/pytz/zoneinfo/Etc/GMT+10',
   'DATA'),
  ('pytz/zoneinfo/America/Whitehorse',
   '/home/shivang/.local/lib/python3.10/site-packages/pytz/zoneinfo/America/Whitehorse',
   'DATA'),
  ('pytz/zoneinfo/US/East-Indiana',
   '/home/shivang/.local/lib/python3.10/site-packages/pytz/zoneinfo/US/East-Indiana',
   'DATA'),
  ('pytz/zoneinfo/America/Santo_Domingo',
   '/home/shivang/.local/lib/python3.10/site-packages/pytz/zoneinfo/America/Santo_Domingo',
   'DATA'),
  ('pytz/zoneinfo/Etc/GMT-3',
   '/home/shivang/.local/lib/python3.10/site-packages/pytz/zoneinfo/Etc/GMT-3',
   'DATA'),
  ('pytz/zoneinfo/Indian/Christmas',
   '/home/shivang/.local/lib/python3.10/site-packages/pytz/zoneinfo/Indian/Christmas',
   'DATA'),
  ('pytz/zoneinfo/America/Lower_Princes',
   '/home/shivang/.local/lib/python3.10/site-packages/pytz/zoneinfo/America/Lower_Princes',
   'DATA'),
  ('pytz/zoneinfo/Europe/Monaco',
   '/home/shivang/.local/lib/python3.10/site-packages/pytz/zoneinfo/Europe/Monaco',
   'DATA'),
  ('pytz/zoneinfo/Australia/ACT',
   '/home/shivang/.local/lib/python3.10/site-packages/pytz/zoneinfo/Australia/ACT',
   'DATA'),
  ('pytz/zoneinfo/Africa/Cairo',
   '/home/shivang/.local/lib/python3.10/site-packages/pytz/zoneinfo/Africa/Cairo',
   'DATA'),
  ('pytz/zoneinfo/Iran',
   '/home/shivang/.local/lib/python3.10/site-packages/pytz/zoneinfo/Iran',
   'DATA'),
  ('pytz/zoneinfo/America/Virgin',
   '/home/shivang/.local/lib/python3.10/site-packages/pytz/zoneinfo/America/Virgin',
   'DATA'),
  ('pytz/zoneinfo/Africa/Sao_Tome',
   '/home/shivang/.local/lib/python3.10/site-packages/pytz/zoneinfo/Africa/Sao_Tome',
   'DATA'),
  ('pytz/zoneinfo/America/Argentina/Buenos_Aires',
   '/home/shivang/.local/lib/python3.10/site-packages/pytz/zoneinfo/America/Argentina/Buenos_Aires',
   'DATA'),
  ('pytz/zoneinfo/Europe/Brussels',
   '/home/shivang/.local/lib/python3.10/site-packages/pytz/zoneinfo/Europe/Brussels',
   'DATA'),
  ('pytz/zoneinfo/Europe/Moscow',
   '/home/shivang/.local/lib/python3.10/site-packages/pytz/zoneinfo/Europe/Moscow',
   'DATA'),
  ('pytz/zoneinfo/Indian/Mahe',
   '/home/shivang/.local/lib/python3.10/site-packages/pytz/zoneinfo/Indian/Mahe',
   'DATA'),
  ('pytz/zoneinfo/America/Edmonton',
   '/home/shivang/.local/lib/python3.10/site-packages/pytz/zoneinfo/America/Edmonton',
   'DATA'),
  ('pytz/zoneinfo/America/St_Barthelemy',
   '/home/shivang/.local/lib/python3.10/site-packages/pytz/zoneinfo/America/St_Barthelemy',
   'DATA'),
  ('pytz/zoneinfo/America/Guatemala',
   '/home/shivang/.local/lib/python3.10/site-packages/pytz/zoneinfo/America/Guatemala',
   'DATA'),
  ('pytz/zoneinfo/Japan',
   '/home/shivang/.local/lib/python3.10/site-packages/pytz/zoneinfo/Japan',
   'DATA'),
  ('pytz/zoneinfo/Africa/Kigali',
   '/home/shivang/.local/lib/python3.10/site-packages/pytz/zoneinfo/Africa/Kigali',
   'DATA'),
  ('pytz/zoneinfo/Africa/Ouagadougou',
   '/home/shivang/.local/lib/python3.10/site-packages/pytz/zoneinfo/Africa/Ouagadougou',
   'DATA'),
  ('pytz/zoneinfo/Africa/Kinshasa',
   '/home/shivang/.local/lib/python3.10/site-packages/pytz/zoneinfo/Africa/Kinshasa',
   'DATA'),
  ('pytz/zoneinfo/Europe/London',
   '/home/shivang/.local/lib/python3.10/site-packages/pytz/zoneinfo/Europe/London',
   'DATA'),
  ('pytz/zoneinfo/Asia/Oral',
   '/home/shivang/.local/lib/python3.10/site-packages/pytz/zoneinfo/Asia/Oral',
   'DATA'),
  ('pytz/zoneinfo/Europe/Helsinki',
   '/home/shivang/.local/lib/python3.10/site-packages/pytz/zoneinfo/Europe/Helsinki',
   'DATA'),
  ('pytz/zoneinfo/America/Eirunepe',
   '/home/shivang/.local/lib/python3.10/site-packages/pytz/zoneinfo/America/Eirunepe',
   'DATA'),
  ('pytz/zoneinfo/Asia/Thimphu',
   '/home/shivang/.local/lib/python3.10/site-packages/pytz/zoneinfo/Asia/Thimphu',
   'DATA'),
  ('pytz/zoneinfo/Pacific/Enderbury',
   '/home/shivang/.local/lib/python3.10/site-packages/pytz/zoneinfo/Pacific/Enderbury',
   'DATA'),
  ('pytz/zoneinfo/Asia/Harbin',
   '/home/shivang/.local/lib/python3.10/site-packages/pytz/zoneinfo/Asia/Harbin',
   'DATA'),
  ('pytz/zoneinfo/Antarctica/Syowa',
   '/home/shivang/.local/lib/python3.10/site-packages/pytz/zoneinfo/Antarctica/Syowa',
   'DATA'),
  ('pytz/zoneinfo/Antarctica/Mawson',
   '/home/shivang/.local/lib/python3.10/site-packages/pytz/zoneinfo/Antarctica/Mawson',
   'DATA'),
  ('pytz/zoneinfo/Europe/Nicosia',
   '/home/shivang/.local/lib/python3.10/site-packages/pytz/zoneinfo/Europe/Nicosia',
   'DATA'),
  ('pytz/zoneinfo/Asia/Nicosia',
   '/home/shivang/.local/lib/python3.10/site-packages/pytz/zoneinfo/Asia/Nicosia',
   'DATA'),
  ('pytz/zoneinfo/Etc/GMT-4',
   '/home/shivang/.local/lib/python3.10/site-packages/pytz/zoneinfo/Etc/GMT-4',
   'DATA'),
  ('pytz/zoneinfo/America/Cordoba',
   '/home/shivang/.local/lib/python3.10/site-packages/pytz/zoneinfo/America/Cordoba',
   'DATA'),
  ('pytz/zoneinfo/America/Campo_Grande',
   '/home/shivang/.local/lib/python3.10/site-packages/pytz/zoneinfo/America/Campo_Grande',
   'DATA'),
  ('pytz/zoneinfo/PST8PDT',
   '/home/shivang/.local/lib/python3.10/site-packages/pytz/zoneinfo/PST8PDT',
   'DATA'),
  ('pytz/zoneinfo/Etc/GMT+3',
   '/home/shivang/.local/lib/python3.10/site-packages/pytz/zoneinfo/Etc/GMT+3',
   'DATA'),
  ('pytz/zoneinfo/Etc/GMT-5',
   '/home/shivang/.local/lib/python3.10/site-packages/pytz/zoneinfo/Etc/GMT-5',
   'DATA'),
  ('pytz/zoneinfo/America/Metlakatla',
   '/home/shivang/.local/lib/python3.10/site-packages/pytz/zoneinfo/America/Metlakatla',
   'DATA'),
  ('pytz/zoneinfo/Europe/Samara',
   '/home/shivang/.local/lib/python3.10/site-packages/pytz/zoneinfo/Europe/Samara',
   'DATA'),
  ('pytz/zoneinfo/US/Mountain',
   '/home/shivang/.local/lib/python3.10/site-packages/pytz/zoneinfo/US/Mountain',
   'DATA'),
  ('pytz/zoneinfo/Africa/Nouakchott',
   '/home/shivang/.local/lib/python3.10/site-packages/pytz/zoneinfo/Africa/Nouakchott',
   'DATA'),
  ('pytz/zoneinfo/Europe/Uzhgorod',
   '/home/shivang/.local/lib/python3.10/site-packages/pytz/zoneinfo/Europe/Uzhgorod',
   'DATA'),
  ('pytz/zoneinfo/America/Vancouver',
   '/home/shivang/.local/lib/python3.10/site-packages/pytz/zoneinfo/America/Vancouver',
   'DATA'),
  ('pytz/zoneinfo/Asia/Istanbul',
   '/home/shivang/.local/lib/python3.10/site-packages/pytz/zoneinfo/Asia/Istanbul',
   'DATA'),
  ('pytz/zoneinfo/Portugal',
   '/home/shivang/.local/lib/python3.10/site-packages/pytz/zoneinfo/Portugal',
   'DATA'),
  ('pytz/zoneinfo/America/Fort_Wayne',
   '/home/shivang/.local/lib/python3.10/site-packages/pytz/zoneinfo/America/Fort_Wayne',
   'DATA'),
  ('pytz/zoneinfo/Asia/Rangoon',
   '/home/shivang/.local/lib/python3.10/site-packages/pytz/zoneinfo/Asia/Rangoon',
   'DATA'),
  ('pytz/zoneinfo/Pacific/Johnston',
   '/home/shivang/.local/lib/python3.10/site-packages/pytz/zoneinfo/Pacific/Johnston',
   'DATA'),
  ('pytz/zoneinfo/Antarctica/Macquarie',
   '/home/shivang/.local/lib/python3.10/site-packages/pytz/zoneinfo/Antarctica/Macquarie',
   'DATA'),
  ('pytz/zoneinfo/America/Yakutat',
   '/home/shivang/.local/lib/python3.10/site-packages/pytz/zoneinfo/America/Yakutat',
   'DATA'),
  ('pytz/zoneinfo/America/Inuvik',
   '/home/shivang/.local/lib/python3.10/site-packages/pytz/zoneinfo/America/Inuvik',
   'DATA'),
  ('pytz/zoneinfo/America/Nassau',
   '/home/shivang/.local/lib/python3.10/site-packages/pytz/zoneinfo/America/Nassau',
   'DATA'),
  ('pytz/zoneinfo/US/Indiana-Starke',
   '/home/shivang/.local/lib/python3.10/site-packages/pytz/zoneinfo/US/Indiana-Starke',
   'DATA'),
  ('pytz/zoneinfo/Indian/Maldives',
   '/home/shivang/.local/lib/python3.10/site-packages/pytz/zoneinfo/Indian/Maldives',
   'DATA'),
  ('pytz/zoneinfo/Africa/Ceuta',
   '/home/shivang/.local/lib/python3.10/site-packages/pytz/zoneinfo/Africa/Ceuta',
   'DATA'),
  ('pytz/zoneinfo/Pacific/Nauru',
   '/home/shivang/.local/lib/python3.10/site-packages/pytz/zoneinfo/Pacific/Nauru',
   'DATA'),
  ('pytz/zoneinfo/Atlantic/Azores',
   '/home/shivang/.local/lib/python3.10/site-packages/pytz/zoneinfo/Atlantic/Azores',
   'DATA'),
  ('pytz/zoneinfo/Australia/NSW',
   '/home/shivang/.local/lib/python3.10/site-packages/pytz/zoneinfo/Australia/NSW',
   'DATA'),
  ('pytz/zoneinfo/Asia/Bangkok',
   '/home/shivang/.local/lib/python3.10/site-packages/pytz/zoneinfo/Asia/Bangkok',
   'DATA'),
  ('pytz/zoneinfo/Europe/Bucharest',
   '/home/shivang/.local/lib/python3.10/site-packages/pytz/zoneinfo/Europe/Bucharest',
   'DATA'),
  ('pytz/zoneinfo/America/Pangnirtung',
   '/home/shivang/.local/lib/python3.10/site-packages/pytz/zoneinfo/America/Pangnirtung',
   'DATA'),
  ('pytz/zoneinfo/Pacific/Midway',
   '/home/shivang/.local/lib/python3.10/site-packages/pytz/zoneinfo/Pacific/Midway',
   'DATA'),
  ('pytz/zoneinfo/Etc/GMT-13',
   '/home/shivang/.local/lib/python3.10/site-packages/pytz/zoneinfo/Etc/GMT-13',
   'DATA'),
  ('pytz/zoneinfo/America/Antigua',
   '/home/shivang/.local/lib/python3.10/site-packages/pytz/zoneinfo/America/Antigua',
   'DATA'),
  ('pytz/zoneinfo/Africa/Luanda',
   '/home/shivang/.local/lib/python3.10/site-packages/pytz/zoneinfo/Africa/Luanda',
   'DATA'),
  ('pytz/zoneinfo/Europe/Ljubljana',
   '/home/shivang/.local/lib/python3.10/site-packages/pytz/zoneinfo/Europe/Ljubljana',
   'DATA'),
  ('pytz/zoneinfo/Asia/Singapore',
   '/home/shivang/.local/lib/python3.10/site-packages/pytz/zoneinfo/Asia/Singapore',
   'DATA'),
  ('pytz/zoneinfo/Europe/Madrid',
   '/home/shivang/.local/lib/python3.10/site-packages/pytz/zoneinfo/Europe/Madrid',
   'DATA'),
  ('pytz/zoneinfo/NZ',
   '/home/shivang/.local/lib/python3.10/site-packages/pytz/zoneinfo/NZ',
   'DATA'),
  ('pytz/zoneinfo/Australia/Lindeman',
   '/home/shivang/.local/lib/python3.10/site-packages/pytz/zoneinfo/Australia/Lindeman',
   'DATA'),
  ('pytz/zoneinfo/America/Jujuy',
   '/home/shivang/.local/lib/python3.10/site-packages/pytz/zoneinfo/America/Jujuy',
   'DATA'),
  ('pytz/zoneinfo/Australia/South',
   '/home/shivang/.local/lib/python3.10/site-packages/pytz/zoneinfo/Australia/South',
   'DATA'),
  ('pytz/zoneinfo/Pacific/Kiritimati',
   '/home/shivang/.local/lib/python3.10/site-packages/pytz/zoneinfo/Pacific/Kiritimati',
   'DATA'),
  ('pytz/zoneinfo/Australia/Broken_Hill',
   '/home/shivang/.local/lib/python3.10/site-packages/pytz/zoneinfo/Australia/Broken_Hill',
   'DATA'),
  ('pytz/zoneinfo/Australia/LHI',
   '/home/shivang/.local/lib/python3.10/site-packages/pytz/zoneinfo/Australia/LHI',
   'DATA'),
  ('pytz/zoneinfo/Iceland',
   '/home/shivang/.local/lib/python3.10/site-packages/pytz/zoneinfo/Iceland',
   'DATA'),
  ('pytz/zoneinfo/Etc/GMT-1',
   '/home/shivang/.local/lib/python3.10/site-packages/pytz/zoneinfo/Etc/GMT-1',
   'DATA'),
  ('pytz/zoneinfo/Asia/Riyadh',
   '/home/shivang/.local/lib/python3.10/site-packages/pytz/zoneinfo/Asia/Riyadh',
   'DATA'),
  ('pytz/zoneinfo/Europe/Podgorica',
   '/home/shivang/.local/lib/python3.10/site-packages/pytz/zoneinfo/Europe/Podgorica',
   'DATA'),
  ('pytz/zoneinfo/America/Argentina/ComodRivadavia',
   '/home/shivang/.local/lib/python3.10/site-packages/pytz/zoneinfo/America/Argentina/ComodRivadavia',
   'DATA'),
  ('pytz/zoneinfo/Africa/Monrovia',
   '/home/shivang/.local/lib/python3.10/site-packages/pytz/zoneinfo/Africa/Monrovia',
   'DATA'),
  ('pytz/zoneinfo/Asia/Ust-Nera',
   '/home/shivang/.local/lib/python3.10/site-packages/pytz/zoneinfo/Asia/Ust-Nera',
   'DATA'),
  ('pytz/zoneinfo/America/Catamarca',
   '/home/shivang/.local/lib/python3.10/site-packages/pytz/zoneinfo/America/Catamarca',
   'DATA'),
  ('pytz/zoneinfo/Canada/Pacific',
   '/home/shivang/.local/lib/python3.10/site-packages/pytz/zoneinfo/Canada/Pacific',
   'DATA'),
  ('pytz/zoneinfo/Europe/Tallinn',
   '/home/shivang/.local/lib/python3.10/site-packages/pytz/zoneinfo/Europe/Tallinn',
   'DATA'),
  ('pytz/zoneinfo/Europe/Berlin',
   '/home/shivang/.local/lib/python3.10/site-packages/pytz/zoneinfo/Europe/Berlin',
   'DATA'),
  ('pytz/zoneinfo/Asia/Katmandu',
   '/home/shivang/.local/lib/python3.10/site-packages/pytz/zoneinfo/Asia/Katmandu',
   'DATA'),
  ('pytz/zoneinfo/Etc/Zulu',
   '/home/shivang/.local/lib/python3.10/site-packages/pytz/zoneinfo/Etc/Zulu',
   'DATA'),
  ('pytz/zoneinfo/Atlantic/Faeroe',
   '/home/shivang/.local/lib/python3.10/site-packages/pytz/zoneinfo/Atlantic/Faeroe',
   'DATA'),
  ('pytz/zoneinfo/Pacific/Efate',
   '/home/shivang/.local/lib/python3.10/site-packages/pytz/zoneinfo/Pacific/Efate',
   'DATA'),
  ('pytz/zoneinfo/Eire',
   '/home/shivang/.local/lib/python3.10/site-packages/pytz/zoneinfo/Eire',
   'DATA'),
  ('pytz/zoneinfo/Asia/Kamchatka',
   '/home/shivang/.local/lib/python3.10/site-packages/pytz/zoneinfo/Asia/Kamchatka',
   'DATA'),
  ('pytz/zoneinfo/America/Miquelon',
   '/home/shivang/.local/lib/python3.10/site-packages/pytz/zoneinfo/America/Miquelon',
   'DATA'),
  ('pytz/zoneinfo/America/Cuiaba',
   '/home/shivang/.local/lib/python3.10/site-packages/pytz/zoneinfo/America/Cuiaba',
   'DATA'),
  ('pytz/zoneinfo/Asia/Colombo',
   '/home/shivang/.local/lib/python3.10/site-packages/pytz/zoneinfo/Asia/Colombo',
   'DATA'),
  ('pytz/zoneinfo/GB-Eire',
   '/home/shivang/.local/lib/python3.10/site-packages/pytz/zoneinfo/GB-Eire',
   'DATA'),
  ('pytz/zoneinfo/Canada/Atlantic',
   '/home/shivang/.local/lib/python3.10/site-packages/pytz/zoneinfo/Canada/Atlantic',
   'DATA'),
  ('pytz/zoneinfo/America/Resolute',
   '/home/shivang/.local/lib/python3.10/site-packages/pytz/zoneinfo/America/Resolute',
   'DATA'),
  ('pytz/zoneinfo/ROC',
   '/home/shivang/.local/lib/python3.10/site-packages/pytz/zoneinfo/ROC',
   'DATA'),
  ('pytz/zoneinfo/Asia/Thimbu',
   '/home/shivang/.local/lib/python3.10/site-packages/pytz/zoneinfo/Asia/Thimbu',
   'DATA'),
  ('pytz/zoneinfo/Atlantic/Faroe',
   '/home/shivang/.local/lib/python3.10/site-packages/pytz/zoneinfo/Atlantic/Faroe',
   'DATA'),
  ('pytz/zoneinfo/UCT',
   '/home/shivang/.local/lib/python3.10/site-packages/pytz/zoneinfo/UCT',
   'DATA'),
  ('pytz/zoneinfo/Europe/Kaliningrad',
   '/home/shivang/.local/lib/python3.10/site-packages/pytz/zoneinfo/Europe/Kaliningrad',
   'DATA'),
  ('pytz/zoneinfo/Africa/Lusaka',
   '/home/shivang/.local/lib/python3.10/site-packages/pytz/zoneinfo/Africa/Lusaka',
   'DATA'),
  ('pytz/zoneinfo/Europe/Athens',
   '/home/shivang/.local/lib/python3.10/site-packages/pytz/zoneinfo/Europe/Athens',
   'DATA'),
  ('pytz/zoneinfo/Europe/Belgrade',
   '/home/shivang/.local/lib/python3.10/site-packages/pytz/zoneinfo/Europe/Belgrade',
   'DATA'),
  ('pytz/zoneinfo/Europe/Bratislava',
   '/home/shivang/.local/lib/python3.10/site-packages/pytz/zoneinfo/Europe/Bratislava',
   'DATA'),
  ('pytz/zoneinfo/Africa/Douala',
   '/home/shivang/.local/lib/python3.10/site-packages/pytz/zoneinfo/Africa/Douala',
   'DATA'),
  ('pytz/zoneinfo/America/Godthab',
   '/home/shivang/.local/lib/python3.10/site-packages/pytz/zoneinfo/America/Godthab',
   'DATA'),
  ('pytz/zoneinfo/Asia/Urumqi',
   '/home/shivang/.local/lib/python3.10/site-packages/pytz/zoneinfo/Asia/Urumqi',
   'DATA'),
  ('pytz/zoneinfo/Pacific/Wallis',
   '/home/shivang/.local/lib/python3.10/site-packages/pytz/zoneinfo/Pacific/Wallis',
   'DATA'),
  ('pytz/zoneinfo/Africa/Lome',
   '/home/shivang/.local/lib/python3.10/site-packages/pytz/zoneinfo/Africa/Lome',
   'DATA'),
  ('pytz/zoneinfo/Brazil/West',
   '/home/shivang/.local/lib/python3.10/site-packages/pytz/zoneinfo/Brazil/West',
   'DATA'),
  ('pytz/zoneinfo/Asia/Qatar',
   '/home/shivang/.local/lib/python3.10/site-packages/pytz/zoneinfo/Asia/Qatar',
   'DATA'),
  ('pytz/zoneinfo/Etc/GMT-11',
   '/home/shivang/.local/lib/python3.10/site-packages/pytz/zoneinfo/Etc/GMT-11',
   'DATA'),
  ('importlib_metadata-4.6.4.egg-info/PKG-INFO',
   '/usr/lib/python3/dist-packages/importlib_metadata-4.6.4.egg-info/PKG-INFO',
   'DATA'),
  ('pytz/zoneinfo/Australia/Queensland',
   '/home/shivang/.local/lib/python3.10/site-packages/pytz/zoneinfo/Australia/Queensland',
   'DATA'),
  ('pytz/zoneinfo/US/Samoa',
   '/home/shivang/.local/lib/python3.10/site-packages/pytz/zoneinfo/US/Samoa',
   'DATA'),
  ('pytz/zoneinfo/America/Fortaleza',
   '/home/shivang/.local/lib/python3.10/site-packages/pytz/zoneinfo/America/Fortaleza',
   'DATA'),
  ('pytz/zoneinfo/Africa/Bangui',
   '/home/shivang/.local/lib/python3.10/site-packages/pytz/zoneinfo/Africa/Bangui',
   'DATA'),
  ('pytz/zoneinfo/Asia/Shanghai',
   '/home/shivang/.local/lib/python3.10/site-packages/pytz/zoneinfo/Asia/Shanghai',
   'DATA'),
  ('pytz/zoneinfo/Pacific/Saipan',
   '/home/shivang/.local/lib/python3.10/site-packages/pytz/zoneinfo/Pacific/Saipan',
   'DATA'),
  ('pytz/zoneinfo/Canada/Newfoundland',
   '/home/shivang/.local/lib/python3.10/site-packages/pytz/zoneinfo/Canada/Newfoundland',
   'DATA'),
  ('pytz/zoneinfo/Australia/West',
   '/home/shivang/.local/lib/python3.10/site-packages/pytz/zoneinfo/Australia/West',
   'DATA'),
  ('pytz/zoneinfo/America/North_Dakota/Center',
   '/home/shivang/.local/lib/python3.10/site-packages/pytz/zoneinfo/America/North_Dakota/Center',
   'DATA'),
  ('pytz/zoneinfo/America/Louisville',
   '/home/shivang/.local/lib/python3.10/site-packages/pytz/zoneinfo/America/Louisville',
   'DATA'),
  ('pytz/zoneinfo/Australia/Tasmania',
   '/home/shivang/.local/lib/python3.10/site-packages/pytz/zoneinfo/Australia/Tasmania',
   'DATA'),
  ('pytz/zoneinfo/Europe/Sofia',
   '/home/shivang/.local/lib/python3.10/site-packages/pytz/zoneinfo/Europe/Sofia',
   'DATA'),
  ('pytz/zoneinfo/America/Atka',
   '/home/shivang/.local/lib/python3.10/site-packages/pytz/zoneinfo/America/Atka',
   'DATA'),
  ('pytz/zoneinfo/Africa/Bamako',
   '/home/shivang/.local/lib/python3.10/site-packages/pytz/zoneinfo/Africa/Bamako',
   'DATA'),
  ('pytz/zoneinfo/Etc/GMT-14',
   '/home/shivang/.local/lib/python3.10/site-packages/pytz/zoneinfo/Etc/GMT-14',
   'DATA'),
  ('pytz/zoneinfo/Indian/Reunion',
   '/home/shivang/.local/lib/python3.10/site-packages/pytz/zoneinfo/Indian/Reunion',
   'DATA'),
  ('pytz/zoneinfo/Chile/EasterIsland',
   '/home/shivang/.local/lib/python3.10/site-packages/pytz/zoneinfo/Chile/EasterIsland',
   'DATA'),
  ('pytz/zoneinfo/America/Rainy_River',
   '/home/shivang/.local/lib/python3.10/site-packages/pytz/zoneinfo/America/Rainy_River',
   'DATA'),
  ('pytz/zoneinfo/Brazil/Acre',
   '/home/shivang/.local/lib/python3.10/site-packages/pytz/zoneinfo/Brazil/Acre',
   'DATA'),
  ('pytz/zoneinfo/Etc/GMT+8',
   '/home/shivang/.local/lib/python3.10/site-packages/pytz/zoneinfo/Etc/GMT+8',
   'DATA'),
  ('pytz/zoneinfo/Asia/Anadyr',
   '/home/shivang/.local/lib/python3.10/site-packages/pytz/zoneinfo/Asia/Anadyr',
   'DATA'),
  ('pytz/zoneinfo/Asia/Tokyo',
   '/home/shivang/.local/lib/python3.10/site-packages/pytz/zoneinfo/Asia/Tokyo',
   'DATA'),
  ('pytz/zoneinfo/America/Indiana/Winamac',
   '/home/shivang/.local/lib/python3.10/site-packages/pytz/zoneinfo/America/Indiana/Winamac',
   'DATA'),
  ('pytz/zoneinfo/Africa/El_Aaiun',
   '/home/shivang/.local/lib/python3.10/site-packages/pytz/zoneinfo/Africa/El_Aaiun',
   'DATA'),
  ('pytz/zoneinfo/America/Rosario',
   '/home/shivang/.local/lib/python3.10/site-packages/pytz/zoneinfo/America/Rosario',
   'DATA'),
  ('pytz/zoneinfo/Antarctica/Casey',
   '/home/shivang/.local/lib/python3.10/site-packages/pytz/zoneinfo/Antarctica/Casey',
   'DATA'),
  ('pytz/zoneinfo/Asia/Baku',
   '/home/shivang/.local/lib/python3.10/site-packages/pytz/zoneinfo/Asia/Baku',
   'DATA'),
  ('pytz/zoneinfo/Antarctica/Palmer',
   '/home/shivang/.local/lib/python3.10/site-packages/pytz/zoneinfo/Antarctica/Palmer',
   'DATA'),
  ('pytz/zoneinfo/Australia/Victoria',
   '/home/shivang/.local/lib/python3.10/site-packages/pytz/zoneinfo/Australia/Victoria',
   'DATA'),
  ('pytz/zoneinfo/America/Argentina/Cordoba',
   '/home/shivang/.local/lib/python3.10/site-packages/pytz/zoneinfo/America/Argentina/Cordoba',
   'DATA'),
  ('pytz/zoneinfo/America/Indianapolis',
   '/home/shivang/.local/lib/python3.10/site-packages/pytz/zoneinfo/America/Indianapolis',
   'DATA'),
  ('pytz/zoneinfo/Asia/Krasnoyarsk',
   '/home/shivang/.local/lib/python3.10/site-packages/pytz/zoneinfo/Asia/Krasnoyarsk',
   'DATA'),
  ('pytz/zoneinfo/Australia/Melbourne',
   '/home/shivang/.local/lib/python3.10/site-packages/pytz/zoneinfo/Australia/Melbourne',
   'DATA'),
  ('importlib_metadata-4.6.4.egg-info/requires.txt',
   '/usr/lib/python3/dist-packages/importlib_metadata-4.6.4.egg-info/requires.txt',
   'DATA'),
  ('pytz/zoneinfo/Asia/Dili',
   '/home/shivang/.local/lib/python3.10/site-packages/pytz/zoneinfo/Asia/Dili',
   'DATA'),
  ('pytz/zoneinfo/America/Kentucky/Monticello',
   '/home/shivang/.local/lib/python3.10/site-packages/pytz/zoneinfo/America/Kentucky/Monticello',
   'DATA'),
  ('pytz/zoneinfo/America/Tijuana',
   '/home/shivang/.local/lib/python3.10/site-packages/pytz/zoneinfo/America/Tijuana',
   'DATA'),
  ('pytz/zoneinfo/America/Glace_Bay',
   '/home/shivang/.local/lib/python3.10/site-packages/pytz/zoneinfo/America/Glace_Bay',
   'DATA'),
  ('pytz/zoneinfo/Africa/Johannesburg',
   '/home/shivang/.local/lib/python3.10/site-packages/pytz/zoneinfo/Africa/Johannesburg',
   'DATA'),
  ('pytz/zoneinfo/America/Thunder_Bay',
   '/home/shivang/.local/lib/python3.10/site-packages/pytz/zoneinfo/America/Thunder_Bay',
   'DATA'),
  ('pytz/zoneinfo/Asia/Ashgabat',
   '/home/shivang/.local/lib/python3.10/site-packages/pytz/zoneinfo/Asia/Ashgabat',
   'DATA'),
  ('pytz/zoneinfo/Europe/San_Marino',
   '/home/shivang/.local/lib/python3.10/site-packages/pytz/zoneinfo/Europe/San_Marino',
   'DATA'),
  ('pytz/zoneinfo/Asia/Tashkent',
   '/home/shivang/.local/lib/python3.10/site-packages/pytz/zoneinfo/Asia/Tashkent',
   'DATA'),
  ('pytz/zoneinfo/Europe/Copenhagen',
   '/home/shivang/.local/lib/python3.10/site-packages/pytz/zoneinfo/Europe/Copenhagen',
   'DATA'),
  ('pytz/zoneinfo/America/Ensenada',
   '/home/shivang/.local/lib/python3.10/site-packages/pytz/zoneinfo/America/Ensenada',
   'DATA'),
  ('pytz/zoneinfo/America/Argentina/San_Juan',
   '/home/shivang/.local/lib/python3.10/site-packages/pytz/zoneinfo/America/Argentina/San_Juan',
   'DATA'),
  ('pytz/zoneinfo/Australia/Eucla',
   '/home/shivang/.local/lib/python3.10/site-packages/pytz/zoneinfo/Australia/Eucla',
   'DATA'),
  ('pytz/zoneinfo/America/Belem',
   '/home/shivang/.local/lib/python3.10/site-packages/pytz/zoneinfo/America/Belem',
   'DATA'),
  ('pytz/zoneinfo/Pacific/Rarotonga',
   '/home/shivang/.local/lib/python3.10/site-packages/pytz/zoneinfo/Pacific/Rarotonga',
   'DATA'),
  ('pytz/zoneinfo/Brazil/DeNoronha',
   '/home/shivang/.local/lib/python3.10/site-packages/pytz/zoneinfo/Brazil/DeNoronha',
   'DATA'),
  ('pytz/zoneinfo/Pacific/Auckland',
   '/home/shivang/.local/lib/python3.10/site-packages/pytz/zoneinfo/Pacific/Auckland',
   'DATA'),
  ('pytz/zoneinfo/Asia/Barnaul',
   '/home/shivang/.local/lib/python3.10/site-packages/pytz/zoneinfo/Asia/Barnaul',
   'DATA'),
  ('pytz/zoneinfo/Antarctica/McMurdo',
   '/home/shivang/.local/lib/python3.10/site-packages/pytz/zoneinfo/Antarctica/McMurdo',
   'DATA'),
  ('pytz/zoneinfo/Europe/Vaduz',
   '/home/shivang/.local/lib/python3.10/site-packages/pytz/zoneinfo/Europe/Vaduz',
   'DATA'),
  ('pytz/zoneinfo/America/Santarem',
   '/home/shivang/.local/lib/python3.10/site-packages/pytz/zoneinfo/America/Santarem',
   'DATA'),
  ('pytz/zoneinfo/Africa/Dakar',
   '/home/shivang/.local/lib/python3.10/site-packages/pytz/zoneinfo/Africa/Dakar',
   'DATA'),
  ('pytz/zoneinfo/America/Iqaluit',
   '/home/shivang/.local/lib/python3.10/site-packages/pytz/zoneinfo/America/Iqaluit',
   'DATA'),
  ('pytz/zoneinfo/Europe/Simferopol',
   '/home/shivang/.local/lib/python3.10/site-packages/pytz/zoneinfo/Europe/Simferopol',
   'DATA'),
  ('pytz/zoneinfo/America/New_York',
   '/home/shivang/.local/lib/python3.10/site-packages/pytz/zoneinfo/America/New_York',
   'DATA'),
  ('pytz/zoneinfo/Pacific/Chuuk',
   '/home/shivang/.local/lib/python3.10/site-packages/pytz/zoneinfo/Pacific/Chuuk',
   'DATA'),
  ('pytz/zoneinfo/Africa/Windhoek',
   '/home/shivang/.local/lib/python3.10/site-packages/pytz/zoneinfo/Africa/Windhoek',
   'DATA'),
  ('pytz/zoneinfo/Indian/Antananarivo',
   '/home/shivang/.local/lib/python3.10/site-packages/pytz/zoneinfo/Indian/Antananarivo',
   'DATA'),
  ('pytz/zoneinfo/Africa/Blantyre',
   '/home/shivang/.local/lib/python3.10/site-packages/pytz/zoneinfo/Africa/Blantyre',
   'DATA'),
  ('pytz/zoneinfo/Egypt',
   '/home/shivang/.local/lib/python3.10/site-packages/pytz/zoneinfo/Egypt',
   'DATA'),
  ('pytz/zoneinfo/Indian/Cocos',
   '/home/shivang/.local/lib/python3.10/site-packages/pytz/zoneinfo/Indian/Cocos',
   'DATA'),
  ('pytz/zoneinfo/Europe/Kiev',
   '/home/shivang/.local/lib/python3.10/site-packages/pytz/zoneinfo/Europe/Kiev',
   'DATA'),
  ('pytz/zoneinfo/Asia/Amman',
   '/home/shivang/.local/lib/python3.10/site-packages/pytz/zoneinfo/Asia/Amman',
   'DATA'),
  ('pytz/zoneinfo/Asia/Brunei',
   '/home/shivang/.local/lib/python3.10/site-packages/pytz/zoneinfo/Asia/Brunei',
   'DATA'),
  ('pytz/zoneinfo/Canada/Yukon',
   '/home/shivang/.local/lib/python3.10/site-packages/pytz/zoneinfo/Canada/Yukon',
   'DATA'),
  ('pytz/zoneinfo/Australia/Lord_Howe',
   '/home/shivang/.local/lib/python3.10/site-packages/pytz/zoneinfo/Australia/Lord_Howe',
   'DATA'),
  ('pytz/zoneinfo/Factory',
   '/home/shivang/.local/lib/python3.10/site-packages/pytz/zoneinfo/Factory',
   'DATA'),
  ('pytz/zoneinfo/CST6CDT',
   '/home/shivang/.local/lib/python3.10/site-packages/pytz/zoneinfo/CST6CDT',
   'DATA'),
  ('pytz/zoneinfo/America/Fort_Nelson',
   '/home/shivang/.local/lib/python3.10/site-packages/pytz/zoneinfo/America/Fort_Nelson',
   'DATA'),
  ('pytz/zoneinfo/NZ-CHAT',
   '/home/shivang/.local/lib/python3.10/site-packages/pytz/zoneinfo/NZ-CHAT',
   'DATA'),
  ('pytz/zoneinfo/MST7MDT',
   '/home/shivang/.local/lib/python3.10/site-packages/pytz/zoneinfo/MST7MDT',
   'DATA'),
  ('pytz/zoneinfo/America/Porto_Acre',
   '/home/shivang/.local/lib/python3.10/site-packages/pytz/zoneinfo/America/Porto_Acre',
   'DATA'),
  ('pytz/zoneinfo/Etc/GMT-10',
   '/home/shivang/.local/lib/python3.10/site-packages/pytz/zoneinfo/Etc/GMT-10',
   'DATA'),
  ('pytz/zoneinfo/Atlantic/Madeira',
   '/home/shivang/.local/lib/python3.10/site-packages/pytz/zoneinfo/Atlantic/Madeira',
   'DATA'),
  ('pytz/zoneinfo/Europe/Saratov',
   '/home/shivang/.local/lib/python3.10/site-packages/pytz/zoneinfo/Europe/Saratov',
   'DATA'),
  ('pytz/zoneinfo/Canada/Mountain',
   '/home/shivang/.local/lib/python3.10/site-packages/pytz/zoneinfo/Canada/Mountain',
   'DATA'),
  ('pytz/zoneinfo/Asia/Vientiane',
   '/home/shivang/.local/lib/python3.10/site-packages/pytz/zoneinfo/Asia/Vientiane',
   'DATA'),
  ('pytz/zoneinfo/Asia/Magadan',
   '/home/shivang/.local/lib/python3.10/site-packages/pytz/zoneinfo/Asia/Magadan',
   'DATA'),
  ('pytz/zoneinfo/America/Paramaribo',
   '/home/shivang/.local/lib/python3.10/site-packages/pytz/zoneinfo/America/Paramaribo',
   'DATA'),
  ('pytz/zoneinfo/Asia/Beirut',
   '/home/shivang/.local/lib/python3.10/site-packages/pytz/zoneinfo/Asia/Beirut',
   'DATA'),
  ('pytz/zoneinfo/America/Havana',
   '/home/shivang/.local/lib/python3.10/site-packages/pytz/zoneinfo/America/Havana',
   'DATA'),
  ('pytz/zoneinfo/Pacific/Kwajalein',
   '/home/shivang/.local/lib/python3.10/site-packages/pytz/zoneinfo/Pacific/Kwajalein',
   'DATA'),
  ('pytz/zoneinfo/EET',
   '/home/shivang/.local/lib/python3.10/site-packages/pytz/zoneinfo/EET',
   'DATA'),
  ('pytz/zoneinfo/Europe/Vatican',
   '/home/shivang/.local/lib/python3.10/site-packages/pytz/zoneinfo/Europe/Vatican',
   'DATA'),
  ('pytz/zoneinfo/Pacific/Palau',
   '/home/shivang/.local/lib/python3.10/site-packages/pytz/zoneinfo/Pacific/Palau',
   'DATA'),
  ('pytz/zoneinfo/Atlantic/Bermuda',
   '/home/shivang/.local/lib/python3.10/site-packages/pytz/zoneinfo/Atlantic/Bermuda',
   'DATA'),
  ('pytz/zoneinfo/Israel',
   '/home/shivang/.local/lib/python3.10/site-packages/pytz/zoneinfo/Israel',
   'DATA'),
  ('pytz/zoneinfo/Africa/Algiers',
   '/home/shivang/.local/lib/python3.10/site-packages/pytz/zoneinfo/Africa/Algiers',
   'DATA'),
  ('pytz/zoneinfo/Africa/Brazzaville',
   '/home/shivang/.local/lib/python3.10/site-packages/pytz/zoneinfo/Africa/Brazzaville',
   'DATA'),
  ('pytz/zoneinfo/Europe/Kirov',
   '/home/shivang/.local/lib/python3.10/site-packages/pytz/zoneinfo/Europe/Kirov',
   'DATA'),
  ('pytz/zoneinfo/Cuba',
   '/home/shivang/.local/lib/python3.10/site-packages/pytz/zoneinfo/Cuba',
   'DATA'),
  ('pytz/zoneinfo/Asia/Samarkand',
   '/home/shivang/.local/lib/python3.10/site-packages/pytz/zoneinfo/Asia/Samarkand',
   'DATA'),
  ('pytz/zoneinfo/Asia/Baghdad',
   '/home/shivang/.local/lib/python3.10/site-packages/pytz/zoneinfo/Asia/Baghdad',
   'DATA'),
  ('pytz/zoneinfo/America/Coral_Harbour',
   '/home/shivang/.local/lib/python3.10/site-packages/pytz/zoneinfo/America/Coral_Harbour',
   'DATA'),
  ('pytz/zoneinfo/Pacific/Guam',
   '/home/shivang/.local/lib/python3.10/site-packages/pytz/zoneinfo/Pacific/Guam',
   'DATA'),
  ('pytz/zoneinfo/Pacific/Easter',
   '/home/shivang/.local/lib/python3.10/site-packages/pytz/zoneinfo/Pacific/Easter',
   'DATA'),
  ('pytz/zoneinfo/Canada/Saskatchewan',
   '/home/shivang/.local/lib/python3.10/site-packages/pytz/zoneinfo/Canada/Saskatchewan',
   'DATA'),
  ('pytz/zoneinfo/America/Phoenix',
   '/home/shivang/.local/lib/python3.10/site-packages/pytz/zoneinfo/America/Phoenix',
   'DATA'),
  ('pytz/zoneinfo/America/Puerto_Rico',
   '/home/shivang/.local/lib/python3.10/site-packages/pytz/zoneinfo/America/Puerto_Rico',
   'DATA'),
  ('pytz/zoneinfo/Asia/Atyrau',
   '/home/shivang/.local/lib/python3.10/site-packages/pytz/zoneinfo/Asia/Atyrau',
   'DATA'),
  ('pytz/zoneinfo/Europe/Zaporozhye',
   '/home/shivang/.local/lib/python3.10/site-packages/pytz/zoneinfo/Europe/Zaporozhye',
   'DATA'),
  ('pytz/zoneinfo/Indian/Kerguelen',
   '/home/shivang/.local/lib/python3.10/site-packages/pytz/zoneinfo/Indian/Kerguelen',
   'DATA'),
  ('pytz/zoneinfo/Etc/GMT0',
   '/home/shivang/.local/lib/python3.10/site-packages/pytz/zoneinfo/Etc/GMT0',
   'DATA'),
  ('pytz/zoneinfo/America/Indiana/Indianapolis',
   '/home/shivang/.local/lib/python3.10/site-packages/pytz/zoneinfo/America/Indiana/Indianapolis',
   'DATA'),
  ('pytz/zoneinfo/America/St_Kitts',
   '/home/shivang/.local/lib/python3.10/site-packages/pytz/zoneinfo/America/St_Kitts',
   'DATA'),
  ('pytz/zoneinfo/America/Los_Angeles',
   '/home/shivang/.local/lib/python3.10/site-packages/pytz/zoneinfo/America/Los_Angeles',
   'DATA'),
  ('pytz/zoneinfo/America/Nome',
   '/home/shivang/.local/lib/python3.10/site-packages/pytz/zoneinfo/America/Nome',
   'DATA'),
  ('pytz/zoneinfo/America/Bogota',
   '/home/shivang/.local/lib/python3.10/site-packages/pytz/zoneinfo/America/Bogota',
   'DATA'),
  ('pytz/zoneinfo/America/Montserrat',
   '/home/shivang/.local/lib/python3.10/site-packages/pytz/zoneinfo/America/Montserrat',
   'DATA'),
  ('pytz/zoneinfo/Asia/Tbilisi',
   '/home/shivang/.local/lib/python3.10/site-packages/pytz/zoneinfo/Asia/Tbilisi',
   'DATA'),
  ('pytz/zoneinfo/Antarctica/Rothera',
   '/home/shivang/.local/lib/python3.10/site-packages/pytz/zoneinfo/Antarctica/Rothera',
   'DATA'),
  ('pytz/zoneinfo/Australia/Darwin',
   '/home/shivang/.local/lib/python3.10/site-packages/pytz/zoneinfo/Australia/Darwin',
   'DATA'),
  ('pytz/zoneinfo/America/Port-au-Prince',
   '/home/shivang/.local/lib/python3.10/site-packages/pytz/zoneinfo/America/Port-au-Prince',
   'DATA'),
  ('pytz/zoneinfo/America/Tegucigalpa',
   '/home/shivang/.local/lib/python3.10/site-packages/pytz/zoneinfo/America/Tegucigalpa',
   'DATA'),
  ('pytz/zoneinfo/US/Aleutian',
   '/home/shivang/.local/lib/python3.10/site-packages/pytz/zoneinfo/US/Aleutian',
   'DATA'),
  ('pytz/zoneinfo/Europe/Istanbul',
   '/home/shivang/.local/lib/python3.10/site-packages/pytz/zoneinfo/Europe/Istanbul',
   'DATA'),
  ('pytz/zoneinfo/Pacific/Port_Moresby',
   '/home/shivang/.local/lib/python3.10/site-packages/pytz/zoneinfo/Pacific/Port_Moresby',
   'DATA'),
  ('pytz/zoneinfo/CET',
   '/home/shivang/.local/lib/python3.10/site-packages/pytz/zoneinfo/CET',
   'DATA'),
  ('pytz/zoneinfo/Europe/Ulyanovsk',
   '/home/shivang/.local/lib/python3.10/site-packages/pytz/zoneinfo/Europe/Ulyanovsk',
   'DATA'),
  ('pytz/zoneinfo/Africa/Lagos',
   '/home/shivang/.local/lib/python3.10/site-packages/pytz/zoneinfo/Africa/Lagos',
   'DATA'),
  ('pytz/zoneinfo/Antarctica/DumontDUrville',
   '/home/shivang/.local/lib/python3.10/site-packages/pytz/zoneinfo/Antarctica/DumontDUrville',
   'DATA'),
  ('pytz/zoneinfo/America/Cancun',
   '/home/shivang/.local/lib/python3.10/site-packages/pytz/zoneinfo/America/Cancun',
   'DATA'),
  ('pytz/zoneinfo/US/Eastern',
   '/home/shivang/.local/lib/python3.10/site-packages/pytz/zoneinfo/US/Eastern',
   'DATA'),
  ('pytz/zoneinfo/Pacific/Tongatapu',
   '/home/shivang/.local/lib/python3.10/site-packages/pytz/zoneinfo/Pacific/Tongatapu',
   'DATA'),
  ('pytz/zoneinfo/America/Argentina/Salta',
   '/home/shivang/.local/lib/python3.10/site-packages/pytz/zoneinfo/America/Argentina/Salta',
   'DATA'),
  ('pytz/zoneinfo/Asia/Choibalsan',
   '/home/shivang/.local/lib/python3.10/site-packages/pytz/zoneinfo/Asia/Choibalsan',
   'DATA'),
  ('pytz/zoneinfo/America/Merida',
   '/home/shivang/.local/lib/python3.10/site-packages/pytz/zoneinfo/America/Merida',
   'DATA'),
  ('pytz/zoneinfo/Asia/Hebron',
   '/home/shivang/.local/lib/python3.10/site-packages/pytz/zoneinfo/Asia/Hebron',
   'DATA'),
  ('pytz/zoneinfo/America/Menominee',
   '/home/shivang/.local/lib/python3.10/site-packages/pytz/zoneinfo/America/Menominee',
   'DATA'),
  ('pytz/zoneinfo/Africa/Nairobi',
   '/home/shivang/.local/lib/python3.10/site-packages/pytz/zoneinfo/Africa/Nairobi',
   'DATA'),
  ('pytz/zoneinfo/Africa/Khartoum',
   '/home/shivang/.local/lib/python3.10/site-packages/pytz/zoneinfo/Africa/Khartoum',
   'DATA'),
  ('pytz/zoneinfo/Asia/Yangon',
   '/home/shivang/.local/lib/python3.10/site-packages/pytz/zoneinfo/Asia/Yangon',
   'DATA'),
  ('pytz/zoneinfo/Australia/Sydney',
   '/home/shivang/.local/lib/python3.10/site-packages/pytz/zoneinfo/Australia/Sydney',
   'DATA'),
  ('pytz/zoneinfo/America/Boa_Vista',
   '/home/shivang/.local/lib/python3.10/site-packages/pytz/zoneinfo/America/Boa_Vista',
   'DATA'),
  ('pytz/zoneinfo/PRC',
   '/home/shivang/.local/lib/python3.10/site-packages/pytz/zoneinfo/PRC',
   'DATA'),
  ('pytz/zoneinfo/Pacific/Fakaofo',
   '/home/shivang/.local/lib/python3.10/site-packages/pytz/zoneinfo/Pacific/Fakaofo',
   'DATA'),
  ('pytz/zoneinfo/Europe/Amsterdam',
   '/home/shivang/.local/lib/python3.10/site-packages/pytz/zoneinfo/Europe/Amsterdam',
   'DATA'),
  ('pytz/zoneinfo/America/Thule',
   '/home/shivang/.local/lib/python3.10/site-packages/pytz/zoneinfo/America/Thule',
   'DATA'),
  ('pytz/zoneinfo/iso3166.tab',
   '/home/shivang/.local/lib/python3.10/site-packages/pytz/zoneinfo/iso3166.tab',
   'DATA'),
  ('pytz/zoneinfo/America/Maceio',
   '/home/shivang/.local/lib/python3.10/site-packages/pytz/zoneinfo/America/Maceio',
   'DATA'),
  ('pytz/zoneinfo/Asia/Pyongyang',
   '/home/shivang/.local/lib/python3.10/site-packages/pytz/zoneinfo/Asia/Pyongyang',
   'DATA'),
  ('pytz/zoneinfo/Europe/Warsaw',
   '/home/shivang/.local/lib/python3.10/site-packages/pytz/zoneinfo/Europe/Warsaw',
   'DATA'),
  ('pytz/zoneinfo/America/Yellowknife',
   '/home/shivang/.local/lib/python3.10/site-packages/pytz/zoneinfo/America/Yellowknife',
   'DATA'),
  ('pytz/zoneinfo/Asia/Qostanay',
   '/home/shivang/.local/lib/python3.10/site-packages/pytz/zoneinfo/Asia/Qostanay',
   'DATA'),
  ('pytz/zoneinfo/America/Costa_Rica',
   '/home/shivang/.local/lib/python3.10/site-packages/pytz/zoneinfo/America/Costa_Rica',
   'DATA'),
  ('pytz/zoneinfo/America/Rio_Branco',
   '/home/shivang/.local/lib/python3.10/site-packages/pytz/zoneinfo/America/Rio_Branco',
   'DATA'),
  ('pytz/zoneinfo/America/Chicago',
   '/home/shivang/.local/lib/python3.10/site-packages/pytz/zoneinfo/America/Chicago',
   'DATA'),
  ('pytz/zoneinfo/Europe/Oslo',
   '/home/shivang/.local/lib/python3.10/site-packages/pytz/zoneinfo/Europe/Oslo',
   'DATA'),
  ('pytz/zoneinfo/Mexico/BajaNorte',
   '/home/shivang/.local/lib/python3.10/site-packages/pytz/zoneinfo/Mexico/BajaNorte',
   'DATA'),
  ('pytz/zoneinfo/America/Danmarkshavn',
   '/home/shivang/.local/lib/python3.10/site-packages/pytz/zoneinfo/America/Danmarkshavn',
   'DATA'),
  ('pytz/zoneinfo/Pacific/Norfolk',
   '/home/shivang/.local/lib/python3.10/site-packages/pytz/zoneinfo/Pacific/Norfolk',
   'DATA'),
  ('pytz/zoneinfo/America/Goose_Bay',
   '/home/shivang/.local/lib/python3.10/site-packages/pytz/zoneinfo/America/Goose_Bay',
   'DATA'),
  ('pytz/zoneinfo/Atlantic/Stanley',
   '/home/shivang/.local/lib/python3.10/site-packages/pytz/zoneinfo/Atlantic/Stanley',
   'DATA'),
  ('pytz/zoneinfo/US/Michigan',
   '/home/shivang/.local/lib/python3.10/site-packages/pytz/zoneinfo/US/Michigan',
   'DATA'),
  ('pytz/zoneinfo/Turkey',
   '/home/shivang/.local/lib/python3.10/site-packages/pytz/zoneinfo/Turkey',
   'DATA'),
  ('pytz/zoneinfo/Australia/North',
   '/home/shivang/.local/lib/python3.10/site-packages/pytz/zoneinfo/Australia/North',
   'DATA'),
  ('pytz/zoneinfo/America/Sao_Paulo',
   '/home/shivang/.local/lib/python3.10/site-packages/pytz/zoneinfo/America/Sao_Paulo',
   'DATA'),
  ('pytz/zoneinfo/America/Detroit',
   '/home/shivang/.local/lib/python3.10/site-packages/pytz/zoneinfo/America/Detroit',
   'DATA'),
  ('pytz/zoneinfo/Africa/Banjul',
   '/home/shivang/.local/lib/python3.10/site-packages/pytz/zoneinfo/Africa/Banjul',
   'DATA'),
  ('pytz/zoneinfo/America/Boise',
   '/home/shivang/.local/lib/python3.10/site-packages/pytz/zoneinfo/America/Boise',
   'DATA'),
  ('pytz/zoneinfo/Zulu',
   '/home/shivang/.local/lib/python3.10/site-packages/pytz/zoneinfo/Zulu',
   'DATA'),
  ('pytz/zoneinfo/America/Winnipeg',
   '/home/shivang/.local/lib/python3.10/site-packages/pytz/zoneinfo/America/Winnipeg',
   'DATA'),
  ('pytz/zoneinfo/Atlantic/South_Georgia',
   '/home/shivang/.local/lib/python3.10/site-packages/pytz/zoneinfo/Atlantic/South_Georgia',
   'DATA'),
  ('pytz/zoneinfo/Asia/Famagusta',
   '/home/shivang/.local/lib/python3.10/site-packages/pytz/zoneinfo/Asia/Famagusta',
   'DATA'),
  ('pytz/zoneinfo/Asia/Bishkek',
   '/home/shivang/.local/lib/python3.10/site-packages/pytz/zoneinfo/Asia/Bishkek',
   'DATA'),
  ('pytz/zoneinfo/Antarctica/Vostok',
   '/home/shivang/.local/lib/python3.10/site-packages/pytz/zoneinfo/Antarctica/Vostok',
   'DATA'),
  ('pytz/zoneinfo/Australia/Adelaide',
   '/home/shivang/.local/lib/python3.10/site-packages/pytz/zoneinfo/Australia/Adelaide',
   'DATA'),
  ('pytz/zoneinfo/Asia/Pontianak',
   '/home/shivang/.local/lib/python3.10/site-packages/pytz/zoneinfo/Asia/Pontianak',
   'DATA'),
  ('pytz/zoneinfo/Asia/Tehran',
   '/home/shivang/.local/lib/python3.10/site-packages/pytz/zoneinfo/Asia/Tehran',
   'DATA'),
  ('pytz/zoneinfo/America/Indiana/Marengo',
   '/home/shivang/.local/lib/python3.10/site-packages/pytz/zoneinfo/America/Indiana/Marengo',
   'DATA'),
  ('pytz/zoneinfo/America/Anchorage',
   '/home/shivang/.local/lib/python3.10/site-packages/pytz/zoneinfo/America/Anchorage',
   'DATA'),
  ('pytz/zoneinfo/Atlantic/Reykjavik',
   '/home/shivang/.local/lib/python3.10/site-packages/pytz/zoneinfo/Atlantic/Reykjavik',
   'DATA'),
  ('pytz/zoneinfo/America/Cayman',
   '/home/shivang/.local/lib/python3.10/site-packages/pytz/zoneinfo/America/Cayman',
   'DATA'),
  ('pytz/zoneinfo/Pacific/Kosrae',
   '/home/shivang/.local/lib/python3.10/site-packages/pytz/zoneinfo/Pacific/Kosrae',
   'DATA'),
  ('pytz/zoneinfo/Etc/GMT+5',
   '/home/shivang/.local/lib/python3.10/site-packages/pytz/zoneinfo/Etc/GMT+5',
   'DATA'),
  ('pytz/zoneinfo/Asia/Aden',
   '/home/shivang/.local/lib/python3.10/site-packages/pytz/zoneinfo/Asia/Aden',
   'DATA'),
  ('pytz/zoneinfo/Asia/Khandyga',
   '/home/shivang/.local/lib/python3.10/site-packages/pytz/zoneinfo/Asia/Khandyga',
   'DATA'),
  ('pytz/zoneinfo/Asia/Ho_Chi_Minh',
   '/home/shivang/.local/lib/python3.10/site-packages/pytz/zoneinfo/Asia/Ho_Chi_Minh',
   'DATA'),
  ('pytz/zoneinfo/Universal',
   '/home/shivang/.local/lib/python3.10/site-packages/pytz/zoneinfo/Universal',
   'DATA'),
  ('pytz/zoneinfo/US/Pacific',
   '/home/shivang/.local/lib/python3.10/site-packages/pytz/zoneinfo/US/Pacific',
   'DATA'),
  ('pytz/zoneinfo/Africa/Maputo',
   '/home/shivang/.local/lib/python3.10/site-packages/pytz/zoneinfo/Africa/Maputo',
   'DATA'),
  ('pytz/zoneinfo/America/Martinique',
   '/home/shivang/.local/lib/python3.10/site-packages/pytz/zoneinfo/America/Martinique',
   'DATA'),
  ('pytz/zoneinfo/Australia/Brisbane',
   '/home/shivang/.local/lib/python3.10/site-packages/pytz/zoneinfo/Australia/Brisbane',
   'DATA'),
  ('pytz/zoneinfo/Pacific/Fiji',
   '/home/shivang/.local/lib/python3.10/site-packages/pytz/zoneinfo/Pacific/Fiji',
   'DATA'),
  ('pytz/zoneinfo/Pacific/Pitcairn',
   '/home/shivang/.local/lib/python3.10/site-packages/pytz/zoneinfo/Pacific/Pitcairn',
   'DATA'),
  ('pytz/zoneinfo/America/Blanc-Sablon',
   '/home/shivang/.local/lib/python3.10/site-packages/pytz/zoneinfo/America/Blanc-Sablon',
   'DATA'),
  ('pytz/zoneinfo/Pacific/Chatham',
   '/home/shivang/.local/lib/python3.10/site-packages/pytz/zoneinfo/Pacific/Chatham',
   'DATA'),
  ('pytz/zoneinfo/America/Asuncion',
   '/home/shivang/.local/lib/python3.10/site-packages/pytz/zoneinfo/America/Asuncion',
   'DATA'),
  ('pytz/zoneinfo/Pacific/Bougainville',
   '/home/shivang/.local/lib/python3.10/site-packages/pytz/zoneinfo/Pacific/Bougainville',
   'DATA'),
  ('pytz/zoneinfo/Pacific/Tarawa',
   '/home/shivang/.local/lib/python3.10/site-packages/pytz/zoneinfo/Pacific/Tarawa',
   'DATA'),
  ('pytz/zoneinfo/Europe/Mariehamn',
   '/home/shivang/.local/lib/python3.10/site-packages/pytz/zoneinfo/Europe/Mariehamn',
   'DATA'),
  ('pytz/zoneinfo/Pacific/Truk',
   '/home/shivang/.local/lib/python3.10/site-packages/pytz/zoneinfo/Pacific/Truk',
   'DATA'),
  ('pytz/zoneinfo/US/Arizona',
   '/home/shivang/.local/lib/python3.10/site-packages/pytz/zoneinfo/US/Arizona',
   'DATA'),
  ('pytz/zoneinfo/Brazil/East',
   '/home/shivang/.local/lib/python3.10/site-packages/pytz/zoneinfo/Brazil/East',
   'DATA'),
  ('pytz/zoneinfo/America/Santiago',
   '/home/shivang/.local/lib/python3.10/site-packages/pytz/zoneinfo/America/Santiago',
   'DATA'),
  ('pytz/zoneinfo/Australia/Perth',
   '/home/shivang/.local/lib/python3.10/site-packages/pytz/zoneinfo/Australia/Perth',
   'DATA'),
  ('pytz/zoneinfo/Asia/Karachi',
   '/home/shivang/.local/lib/python3.10/site-packages/pytz/zoneinfo/Asia/Karachi',
   'DATA'),
  ('pytz/zoneinfo/Asia/Gaza',
   '/home/shivang/.local/lib/python3.10/site-packages/pytz/zoneinfo/Asia/Gaza',
   'DATA'),
  ('pytz/zoneinfo/Africa/Bissau',
   '/home/shivang/.local/lib/python3.10/site-packages/pytz/zoneinfo/Africa/Bissau',
   'DATA'),
  ('pytz/zoneinfo/America/St_Johns',
   '/home/shivang/.local/lib/python3.10/site-packages/pytz/zoneinfo/America/St_Johns',
   'DATA'),
  ('pytz/zoneinfo/America/El_Salvador',
   '/home/shivang/.local/lib/python3.10/site-packages/pytz/zoneinfo/America/El_Salvador',
   'DATA'),
  ('pytz/zoneinfo/Africa/Porto-Novo',
   '/home/shivang/.local/lib/python3.10/site-packages/pytz/zoneinfo/Africa/Porto-Novo',
   'DATA'),
  ('pytz/zoneinfo/Asia/Kuching',
   '/home/shivang/.local/lib/python3.10/site-packages/pytz/zoneinfo/Asia/Kuching',
   'DATA'),
  ('pytz/zoneinfo/Asia/Jayapura',
   '/home/shivang/.local/lib/python3.10/site-packages/pytz/zoneinfo/Asia/Jayapura',
   'DATA'),
  ('pytz/zoneinfo/America/Montevideo',
   '/home/shivang/.local/lib/python3.10/site-packages/pytz/zoneinfo/America/Montevideo',
   'DATA'),
  ('pytz/zoneinfo/Europe/Sarajevo',
   '/home/shivang/.local/lib/python3.10/site-packages/pytz/zoneinfo/Europe/Sarajevo',
   'DATA'),
  ('pytz/zoneinfo/zone1970.tab',
   '/home/shivang/.local/lib/python3.10/site-packages/pytz/zoneinfo/zone1970.tab',
   'DATA'),
  ('pytz/zoneinfo/Asia/Macau',
   '/home/shivang/.local/lib/python3.10/site-packages/pytz/zoneinfo/Asia/Macau',
   'DATA'),
  ('pytz/zoneinfo/Mexico/BajaSur',
   '/home/shivang/.local/lib/python3.10/site-packages/pytz/zoneinfo/Mexico/BajaSur',
   'DATA'),
  ('pytz/zoneinfo/Africa/Juba',
   '/home/shivang/.local/lib/python3.10/site-packages/pytz/zoneinfo/Africa/Juba',
   'DATA'),
  ('pytz/zoneinfo/America/Moncton',
   '/home/shivang/.local/lib/python3.10/site-packages/pytz/zoneinfo/America/Moncton',
   'DATA'),
  ('pytz/zoneinfo/Europe/Zagreb',
   '/home/shivang/.local/lib/python3.10/site-packages/pytz/zoneinfo/Europe/Zagreb',
   'DATA'),
  ('pytz/zoneinfo/Mexico/General',
   '/home/shivang/.local/lib/python3.10/site-packages/pytz/zoneinfo/Mexico/General',
   'DATA'),
  ('pytz/zoneinfo/Asia/Phnom_Penh',
   '/home/shivang/.local/lib/python3.10/site-packages/pytz/zoneinfo/Asia/Phnom_Penh',
   'DATA'),
  ('pytz/zoneinfo/America/Argentina/La_Rioja',
   '/home/shivang/.local/lib/python3.10/site-packages/pytz/zoneinfo/America/Argentina/La_Rioja',
   'DATA'),
  ('pytz/zoneinfo/Pacific/Apia',
   '/home/shivang/.local/lib/python3.10/site-packages/pytz/zoneinfo/Pacific/Apia',
   'DATA'),
  ('pytz/zoneinfo/Africa/Djibouti',
   '/home/shivang/.local/lib/python3.10/site-packages/pytz/zoneinfo/Africa/Djibouti',
   'DATA'),
  ('pytz/zoneinfo/America/Nipigon',
   '/home/shivang/.local/lib/python3.10/site-packages/pytz/zoneinfo/America/Nipigon',
   'DATA'),
  ('pytz/zoneinfo/America/Tortola',
   '/home/shivang/.local/lib/python3.10/site-packages/pytz/zoneinfo/America/Tortola',
   'DATA'),
  ('pytz/zoneinfo/Asia/Damascus',
   '/home/shivang/.local/lib/python3.10/site-packages/pytz/zoneinfo/Asia/Damascus',
   'DATA'),
  ('pytz/zoneinfo/America/Argentina/Ushuaia',
   '/home/shivang/.local/lib/python3.10/site-packages/pytz/zoneinfo/America/Argentina/Ushuaia',
   'DATA'),
  ('pytz/zoneinfo/Asia/Aqtobe',
   '/home/shivang/.local/lib/python3.10/site-packages/pytz/zoneinfo/Asia/Aqtobe',
   'DATA'),
  ('pytz/zoneinfo/America/Guyana',
   '/home/shivang/.local/lib/python3.10/site-packages/pytz/zoneinfo/America/Guyana',
   'DATA'),
  ('pytz/zoneinfo/Asia/Seoul',
   '/home/shivang/.local/lib/python3.10/site-packages/pytz/zoneinfo/Asia/Seoul',
   'DATA'),
  ('pytz/zoneinfo/Asia/Tel_Aviv',
   '/home/shivang/.local/lib/python3.10/site-packages/pytz/zoneinfo/Asia/Tel_Aviv',
   'DATA'),
  ('pytz/zoneinfo/America/North_Dakota/New_Salem',
   '/home/shivang/.local/lib/python3.10/site-packages/pytz/zoneinfo/America/North_Dakota/New_Salem',
   'DATA'),
  ('pytz/zoneinfo/Europe/Astrakhan',
   '/home/shivang/.local/lib/python3.10/site-packages/pytz/zoneinfo/Europe/Astrakhan',
   'DATA'),
  ('pytz/zoneinfo/Europe/Rome',
   '/home/shivang/.local/lib/python3.10/site-packages/pytz/zoneinfo/Europe/Rome',
   'DATA'),
  ('pytz/zoneinfo/Asia/Hovd',
   '/home/shivang/.local/lib/python3.10/site-packages/pytz/zoneinfo/Asia/Hovd',
   'DATA'),
  ('pytz/zoneinfo/Asia/Macao',
   '/home/shivang/.local/lib/python3.10/site-packages/pytz/zoneinfo/Asia/Macao',
   'DATA'),
  ('pytz/zoneinfo/Europe/Volgograd',
   '/home/shivang/.local/lib/python3.10/site-packages/pytz/zoneinfo/Europe/Volgograd',
   'DATA'),
  ('pytz/zoneinfo/America/Scoresbysund',
   '/home/shivang/.local/lib/python3.10/site-packages/pytz/zoneinfo/America/Scoresbysund',
   'DATA'),
  ('pytz/zoneinfo/Australia/Currie',
   '/home/shivang/.local/lib/python3.10/site-packages/pytz/zoneinfo/Australia/Currie',
   'DATA'),
  ('pytz/zoneinfo/Pacific/Niue',
   '/home/shivang/.local/lib/python3.10/site-packages/pytz/zoneinfo/Pacific/Niue',
   'DATA'),
  ('pytz/zoneinfo/America/Grenada',
   '/home/shivang/.local/lib/python3.10/site-packages/pytz/zoneinfo/America/Grenada',
   'DATA'),
  ('pytz/zoneinfo/Europe/Vienna',
   '/home/shivang/.local/lib/python3.10/site-packages/pytz/zoneinfo/Europe/Vienna',
   'DATA'),
  ('pytz/zoneinfo/Asia/Novokuznetsk',
   '/home/shivang/.local/lib/python3.10/site-packages/pytz/zoneinfo/Asia/Novokuznetsk',
   'DATA'),
  ('pytz/zoneinfo/Asia/Vladivostok',
   '/home/shivang/.local/lib/python3.10/site-packages/pytz/zoneinfo/Asia/Vladivostok',
   'DATA'),
  ('pytz/zoneinfo/Africa/Harare',
   '/home/shivang/.local/lib/python3.10/site-packages/pytz/zoneinfo/Africa/Harare',
   'DATA'),
  ('pytz/zoneinfo/Etc/GMT-12',
   '/home/shivang/.local/lib/python3.10/site-packages/pytz/zoneinfo/Etc/GMT-12',
   'DATA'),
  ('pytz/zoneinfo/Europe/Lisbon',
   '/home/shivang/.local/lib/python3.10/site-packages/pytz/zoneinfo/Europe/Lisbon',
   'DATA'),
  ('pytz/zoneinfo/America/Argentina/San_Luis',
   '/home/shivang/.local/lib/python3.10/site-packages/pytz/zoneinfo/America/Argentina/San_Luis',
   'DATA'),
  ('pytz/zoneinfo/Asia/Dubai',
   '/home/shivang/.local/lib/python3.10/site-packages/pytz/zoneinfo/Asia/Dubai',
   'DATA'),
  ('pytz/zoneinfo/America/St_Thomas',
   '/home/shivang/.local/lib/python3.10/site-packages/pytz/zoneinfo/America/St_Thomas',
   'DATA'),
  ('pytz/zoneinfo/America/Manaus',
   '/home/shivang/.local/lib/python3.10/site-packages/pytz/zoneinfo/America/Manaus',
   'DATA'),
  ('pytz/zoneinfo/Pacific/Marquesas',
   '/home/shivang/.local/lib/python3.10/site-packages/pytz/zoneinfo/Pacific/Marquesas',
   'DATA'),
  ('pytz/zoneinfo/Atlantic/Jan_Mayen',
   '/home/shivang/.local/lib/python3.10/site-packages/pytz/zoneinfo/Atlantic/Jan_Mayen',
   'DATA'),
  ('pytz/zoneinfo/Europe/Tiraspol',
   '/home/shivang/.local/lib/python3.10/site-packages/pytz/zoneinfo/Europe/Tiraspol',
   'DATA'),
  ('pytz/zoneinfo/Pacific/Honolulu',
   '/home/shivang/.local/lib/python3.10/site-packages/pytz/zoneinfo/Pacific/Honolulu',
   'DATA'),
  ('pytz/zoneinfo/Asia/Dushanbe',
   '/home/shivang/.local/lib/python3.10/site-packages/pytz/zoneinfo/Asia/Dushanbe',
   'DATA'),
  ('pytz/zoneinfo/America/Juneau',
   '/home/shivang/.local/lib/python3.10/site-packages/pytz/zoneinfo/America/Juneau',
   'DATA'),
  ('pytz/zoneinfo/Asia/Ulan_Bator',
   '/home/shivang/.local/lib/python3.10/site-packages/pytz/zoneinfo/Asia/Ulan_Bator',
   'DATA'),
  ('pytz/zoneinfo/America/Argentina/Jujuy',
   '/home/shivang/.local/lib/python3.10/site-packages/pytz/zoneinfo/America/Argentina/Jujuy',
   'DATA'),
  ('pytz/zoneinfo/Europe/Skopje',
   '/home/shivang/.local/lib/python3.10/site-packages/pytz/zoneinfo/Europe/Skopje',
   'DATA'),
  ('pytz/zoneinfo/America/Anguilla',
   '/home/shivang/.local/lib/python3.10/site-packages/pytz/zoneinfo/America/Anguilla',
   'DATA'),
  ('pytz/zoneinfo/Asia/Saigon',
   '/home/shivang/.local/lib/python3.10/site-packages/pytz/zoneinfo/Asia/Saigon',
   'DATA'),
  ('pytz/zoneinfo/Europe/Dublin',
   '/home/shivang/.local/lib/python3.10/site-packages/pytz/zoneinfo/Europe/Dublin',
   'DATA'),
  ('pytz/zoneinfo/Jamaica',
   '/home/shivang/.local/lib/python3.10/site-packages/pytz/zoneinfo/Jamaica',
   'DATA'),
  ('pytz/zoneinfo/Africa/Asmera',
   '/home/shivang/.local/lib/python3.10/site-packages/pytz/zoneinfo/Africa/Asmera',
   'DATA'),
  ('pytz/zoneinfo/Greenwich',
   '/home/shivang/.local/lib/python3.10/site-packages/pytz/zoneinfo/Greenwich',
   'DATA'),
  ('pytz/zoneinfo/Asia/Makassar',
   '/home/shivang/.local/lib/python3.10/site-packages/pytz/zoneinfo/Asia/Makassar',
   'DATA'),
  ('pytz/zoneinfo/Pacific/Yap',
   '/home/shivang/.local/lib/python3.10/site-packages/pytz/zoneinfo/Pacific/Yap',
   'DATA'),
  ('pytz/zoneinfo/Asia/Yerevan',
   '/home/shivang/.local/lib/python3.10/site-packages/pytz/zoneinfo/Asia/Yerevan',
   'DATA'),
  ('pytz/zoneinfo/America/Bahia',
   '/home/shivang/.local/lib/python3.10/site-packages/pytz/zoneinfo/America/Bahia',
   'DATA'),
  ('pytz/zoneinfo/Europe/Belfast',
   '/home/shivang/.local/lib/python3.10/site-packages/pytz/zoneinfo/Europe/Belfast',
   'DATA'),
  ('pytz/zoneinfo/Europe/Andorra',
   '/home/shivang/.local/lib/python3.10/site-packages/pytz/zoneinfo/Europe/Andorra',
   'DATA'),
  ('pytz/zoneinfo/Asia/Muscat',
   '/home/shivang/.local/lib/python3.10/site-packages/pytz/zoneinfo/Asia/Muscat',
   'DATA'),
  ('pytz/zoneinfo/America/Adak',
   '/home/shivang/.local/lib/python3.10/site-packages/pytz/zoneinfo/America/Adak',
   'DATA'),
  ('pytz/zoneinfo/Asia/Dacca',
   '/home/shivang/.local/lib/python3.10/site-packages/pytz/zoneinfo/Asia/Dacca',
   'DATA'),
  ('pytz/zoneinfo/Etc/GMT+11',
   '/home/shivang/.local/lib/python3.10/site-packages/pytz/zoneinfo/Etc/GMT+11',
   'DATA'),
  ('pytz/zoneinfo/WET',
   '/home/shivang/.local/lib/python3.10/site-packages/pytz/zoneinfo/WET',
   'DATA'),
  ('pytz/zoneinfo/Atlantic/Cape_Verde',
   '/home/shivang/.local/lib/python3.10/site-packages/pytz/zoneinfo/Atlantic/Cape_Verde',
   'DATA'),
  ('pytz/zoneinfo/Africa/Freetown',
   '/home/shivang/.local/lib/python3.10/site-packages/pytz/zoneinfo/Africa/Freetown',
   'DATA'),
  ('pytz/zoneinfo/Asia/Bahrain',
   '/home/shivang/.local/lib/python3.10/site-packages/pytz/zoneinfo/Asia/Bahrain',
   'DATA'),
  ('pytz/zoneinfo/America/St_Vincent',
   '/home/shivang/.local/lib/python3.10/site-packages/pytz/zoneinfo/America/St_Vincent',
   'DATA'),
  ('pytz/zoneinfo/America/Halifax',
   '/home/shivang/.local/lib/python3.10/site-packages/pytz/zoneinfo/America/Halifax',
   'DATA'),
  ('pytz/zoneinfo/Poland',
   '/home/shivang/.local/lib/python3.10/site-packages/pytz/zoneinfo/Poland',
   'DATA'),
  ('pytz/zoneinfo/America/Cambridge_Bay',
   '/home/shivang/.local/lib/python3.10/site-packages/pytz/zoneinfo/America/Cambridge_Bay',
   'DATA'),
  ('pytz/zoneinfo/Asia/Ujung_Pandang',
   '/home/shivang/.local/lib/python3.10/site-packages/pytz/zoneinfo/Asia/Ujung_Pandang',
   'DATA'),
  ('pytz/zoneinfo/Africa/Ndjamena',
   '/home/shivang/.local/lib/python3.10/site-packages/pytz/zoneinfo/Africa/Ndjamena',
   'DATA'),
  ('pytz/zoneinfo/Europe/Paris',
   '/home/shivang/.local/lib/python3.10/site-packages/pytz/zoneinfo/Europe/Paris',
   'DATA'),
  ('pytz/zoneinfo/America/Jamaica',
   '/home/shivang/.local/lib/python3.10/site-packages/pytz/zoneinfo/America/Jamaica',
   'DATA'),
  ('pytz/zoneinfo/America/Dawson_Creek',
   '/home/shivang/.local/lib/python3.10/site-packages/pytz/zoneinfo/America/Dawson_Creek',
   'DATA'),
  ('pytz/zoneinfo/Arctic/Longyearbyen',
   '/home/shivang/.local/lib/python3.10/site-packages/pytz/zoneinfo/Arctic/Longyearbyen',
   'DATA'),
  ('pytz/zoneinfo/Antarctica/Troll',
   '/home/shivang/.local/lib/python3.10/site-packages/pytz/zoneinfo/Antarctica/Troll',
   'DATA'),
  ('pytz/zoneinfo/Africa/Mbabane',
   '/home/shivang/.local/lib/python3.10/site-packages/pytz/zoneinfo/Africa/Mbabane',
   'DATA'),
  ('pytz/zoneinfo/Etc/GMT+4',
   '/home/shivang/.local/lib/python3.10/site-packages/pytz/zoneinfo/Etc/GMT+4',
   'DATA'),
  ('pytz/zoneinfo/zone.tab',
   '/home/shivang/.local/lib/python3.10/site-packages/pytz/zoneinfo/zone.tab',
   'DATA'),
  ('pytz/zoneinfo/Africa/Kampala',
   '/home/shivang/.local/lib/python3.10/site-packages/pytz/zoneinfo/Africa/Kampala',
   'DATA'),
  ('pytz/zoneinfo/America/Shiprock',
   '/home/shivang/.local/lib/python3.10/site-packages/pytz/zoneinfo/America/Shiprock',
   'DATA'),
  ('pytz/zoneinfo/Asia/Ulaanbaatar',
   '/home/shivang/.local/lib/python3.10/site-packages/pytz/zoneinfo/Asia/Ulaanbaatar',
   'DATA'),
  ('pytz/zoneinfo/Africa/Abidjan',
   '/home/shivang/.local/lib/python3.10/site-packages/pytz/zoneinfo/Africa/Abidjan',
   'DATA'),
  ('pytz/zoneinfo/Africa/Libreville',
   '/home/shivang/.local/lib/python3.10/site-packages/pytz/zoneinfo/Africa/Libreville',
   'DATA'),
  ('pytz/zoneinfo/Africa/Mogadishu',
   '/home/shivang/.local/lib/python3.10/site-packages/pytz/zoneinfo/Africa/Mogadishu',
   'DATA'),
  ('pytz/zoneinfo/Asia/Omsk',
   '/home/shivang/.local/lib/python3.10/site-packages/pytz/zoneinfo/Asia/Omsk',
   'DATA'),
  ('pytz/zoneinfo/America/Ojinaga',
   '/home/shivang/.local/lib/python3.10/site-packages/pytz/zoneinfo/America/Ojinaga',
   'DATA'),
  ('pytz/zoneinfo/MST',
   '/home/shivang/.local/lib/python3.10/site-packages/pytz/zoneinfo/MST',
   'DATA'),
  ('pytz/zoneinfo/America/St_Lucia',
   '/home/shivang/.local/lib/python3.10/site-packages/pytz/zoneinfo/America/St_Lucia',
   'DATA'),
  ('pytz/zoneinfo/Asia/Kuala_Lumpur',
   '/home/shivang/.local/lib/python3.10/site-packages/pytz/zoneinfo/Asia/Kuala_Lumpur',
   'DATA'),
  ('pytz/zoneinfo/Atlantic/St_Helena',
   '/home/shivang/.local/lib/python3.10/site-packages/pytz/zoneinfo/Atlantic/St_Helena',
   'DATA'),
  ('pytz/zoneinfo/Europe/Gibraltar',
   '/home/shivang/.local/lib/python3.10/site-packages/pytz/zoneinfo/Europe/Gibraltar',
   'DATA'),
  ('pytz/zoneinfo/Etc/GMT+1',
   '/home/shivang/.local/lib/python3.10/site-packages/pytz/zoneinfo/Etc/GMT+1',
   'DATA'),
  ('pytz/zoneinfo/Europe/Luxembourg',
   '/home/shivang/.local/lib/python3.10/site-packages/pytz/zoneinfo/Europe/Luxembourg',
   'DATA'),
  ('pytz/zoneinfo/America/Indiana/Knox',
   '/home/shivang/.local/lib/python3.10/site-packages/pytz/zoneinfo/America/Indiana/Knox',
   'DATA'),
  ('pytz/zoneinfo/Antarctica/Davis',
   '/home/shivang/.local/lib/python3.10/site-packages/pytz/zoneinfo/Antarctica/Davis',
   'DATA'),
  ('pytz/zoneinfo/Etc/GMT-6',
   '/home/shivang/.local/lib/python3.10/site-packages/pytz/zoneinfo/Etc/GMT-6',
   'DATA'),
  ('pytz/zoneinfo/Africa/Bujumbura',
   '/home/shivang/.local/lib/python3.10/site-packages/pytz/zoneinfo/Africa/Bujumbura',
   'DATA'),
  ('pytz/zoneinfo/America/Noronha',
   '/home/shivang/.local/lib/python3.10/site-packages/pytz/zoneinfo/America/Noronha',
   'DATA'),
  ('pytz/zoneinfo/Asia/Taipei',
   '/home/shivang/.local/lib/python3.10/site-packages/pytz/zoneinfo/Asia/Taipei',
   'DATA'),
  ('pytz/zoneinfo/Asia/Kolkata',
   '/home/shivang/.local/lib/python3.10/site-packages/pytz/zoneinfo/Asia/Kolkata',
   'DATA'),
  ('pytz/zoneinfo/Navajo',
   '/home/shivang/.local/lib/python3.10/site-packages/pytz/zoneinfo/Navajo',
   'DATA'),
  ('pytz/zoneinfo/Pacific/Majuro',
   '/home/shivang/.local/lib/python3.10/site-packages/pytz/zoneinfo/Pacific/Majuro',
   'DATA'),
  ('pytz/zoneinfo/EST',
   '/home/shivang/.local/lib/python3.10/site-packages/pytz/zoneinfo/EST',
   'DATA'),
  ('wheel-0.37.1.egg-info/top_level.txt',
   '/usr/lib/python3/dist-packages/wheel-0.37.1.egg-info/top_level.txt',
   'DATA'),
  ('wheel-0.37.1.egg-info/requires.txt',
   '/usr/lib/python3/dist-packages/wheel-0.37.1.egg-info/requires.txt',
   'DATA'),
  ('wheel-0.37.1.egg-info/not-zip-safe',
   '/usr/lib/python3/dist-packages/wheel-0.37.1.egg-info/not-zip-safe',
   'DATA'),
  ('wheel-0.37.1.egg-info/PKG-INFO',
   '/usr/lib/python3/dist-packages/wheel-0.37.1.egg-info/PKG-INFO',
   'DATA'),
  ('setuptools-59.6.0.egg-info/top_level.txt',
   '/usr/lib/python3/dist-packages/setuptools-59.6.0.egg-info/top_level.txt',
   'DATA'),
  ('setuptools-59.6.0.egg-info/PKG-INFO',
   '/usr/lib/python3/dist-packages/setuptools-59.6.0.egg-info/PKG-INFO',
   'DATA'),
  ('wheel-0.37.1.egg-info/entry_points.txt',
   '/usr/lib/python3/dist-packages/wheel-0.37.1.egg-info/entry_points.txt',
   'DATA'),
  ('wheel-0.37.1.egg-info/dependency_links.txt',
   '/usr/lib/python3/dist-packages/wheel-0.37.1.egg-info/dependency_links.txt',
   'DATA'),
  ('setuptools-59.6.0.egg-info/dependency_links.txt',
   '/usr/lib/python3/dist-packages/setuptools-59.6.0.egg-info/dependency_links.txt',
   'DATA'),
  ('setuptools-59.6.0.egg-info/entry_points.txt',
   '/usr/lib/python3/dist-packages/setuptools-59.6.0.egg-info/entry_points.txt',
   'DATA')],
 [],
 False,
 False,
 1654976956,
 [('run',
   '/home/shivang/.local/lib/python3.10/site-packages/PyInstaller/bootloader/Linux-64bit-intel/run',
   'EXECUTABLE')])
