('/home/shivang/example/il6pred/build/il6pred/PYZ-00.pyz',
 [('pathlib', '/usr/lib/python3.10/pathlib.py', 'PYMODULE'),
  ('urllib.parse', '/usr/lib/python3.10/urllib/parse.py', 'PYMODULE'),
  ('urllib', '/usr/lib/python3.10/urllib/__init__.py', 'PYMODULE'),
  ('stat', '/usr/lib/python3.10/stat.py', 'PYMODULE'),
  ('posixpath', '/usr/lib/python3.10/posixpath.py', 'PYMODULE'),
  ('genericpath', '/usr/lib/python3.10/genericpath.py', 'PYMODULE'),
  ('ntpath', '/usr/lib/python3.10/ntpath.py', 'PYMODULE'),
  ('string', '/usr/lib/python3.10/string.py', 'PYMODULE'),
  ('fnmatch', '/usr/lib/python3.10/fnmatch.py', 'PYMODULE'),
  ('inspect', '/usr/lib/python3.10/inspect.py', 'PYMODULE'),
  ('importlib', '/usr/lib/python3.10/importlib/__init__.py', 'PYMODULE'),
  ('importlib._common', '/usr/lib/python3.10/importlib/_common.py', 'PYMODULE'),
  ('importlib._adapters',
   '/usr/lib/python3.10/importlib/_adapters.py',
   'PYMODULE'),
  ('typing', '/usr/lib/python3.10/typing.py', 'PYMODULE'),
  ('contextlib', '/usr/lib/python3.10/contextlib.py', 'PYMODULE'),
  ('tempfile', '/usr/lib/python3.10/tempfile.py', 'PYMODULE'),
  ('random', '/usr/lib/python3.10/random.py', 'PYMODULE'),
  ('statistics', '/usr/lib/python3.10/statistics.py', 'PYMODULE'),
  ('decimal', '/usr/lib/python3.10/decimal.py', 'PYMODULE'),
  ('_pydecimal', '/usr/lib/python3.10/_pydecimal.py', 'PYMODULE'),
  ('contextvars', '/usr/lib/python3.10/contextvars.py', 'PYMODULE'),
  ('fractions', '/usr/lib/python3.10/fractions.py', 'PYMODULE'),
  ('numbers', '/usr/lib/python3.10/numbers.py', 'PYMODULE'),
  ('hashlib', '/usr/lib/python3.10/hashlib.py', 'PYMODULE'),
  ('logging', '/usr/lib/python3.10/logging/__init__.py', 'PYMODULE'),
  ('pickle', '/usr/lib/python3.10/pickle.py', 'PYMODULE'),
  ('pprint', '/usr/lib/python3.10/pprint.py', 'PYMODULE'),
  ('dataclasses', '/usr/lib/python3.10/dataclasses.py', 'PYMODULE'),
  ('copy', '/usr/lib/python3.10/copy.py', 'PYMODULE'),
  ('_compat_pickle', '/usr/lib/python3.10/_compat_pickle.py', 'PYMODULE'),
  ('struct', '/usr/lib/python3.10/struct.py', 'PYMODULE'),
  ('threading', '/usr/lib/python3.10/threading.py', 'PYMODULE'),
  ('_threading_local', '/usr/lib/python3.10/_threading_local.py', 'PYMODULE'),
  ('bisect', '/usr/lib/python3.10/bisect.py', 'PYMODULE'),
  ('shutil', '/usr/lib/python3.10/shutil.py', 'PYMODULE'),
  ('zipfile', '/usr/lib/python3.10/zipfile.py', 'PYMODULE'),
  ('py_compile', '/usr/lib/python3.10/py_compile.py', 'PYMODULE'),
  ('importlib.util', '/usr/lib/python3.10/importlib/util.py', 'PYMODULE'),
  ('importlib._abc', '/usr/lib/python3.10/importlib/_abc.py', 'PYMODULE'),
  ('tarfile', '/usr/lib/python3.10/tarfile.py', 'PYMODULE'),
  ('gzip', '/usr/lib/python3.10/gzip.py', 'PYMODULE'),
  ('_compression', '/usr/lib/python3.10/_compression.py', 'PYMODULE'),
  ('lzma', '/usr/lib/python3.10/lzma.py', 'PYMODULE'),
  ('bz2', '/usr/lib/python3.10/bz2.py', 'PYMODULE'),
  ('importlib.abc', '/usr/lib/python3.10/importlib/abc.py', 'PYMODULE'),
  ('importlib._bootstrap_external',
   '/usr/lib/python3.10/importlib/_bootstrap_external.py',
   'PYMODULE'),
  ('importlib.metadata',
   '/usr/lib/python3.10/importlib/metadata/__init__.py',
   'PYMODULE'),
  ('pep517.meta',
   '/home/shivang/.local/lib/python3.10/site-packages/pep517/meta.py',
   'PYMODULE'),
  ('pep517.dirtools',
   '/home/shivang/.local/lib/python3.10/site-packages/pep517/dirtools.py',
   'PYMODULE'),
  ('pep517.wrappers',
   '/home/shivang/.local/lib/python3.10/site-packages/pep517/wrappers.py',
   'PYMODULE'),
  ('pep517.in_process',
   '/home/shivang/.local/lib/python3.10/site-packages/pep517/in_process/__init__.py',
   'PYMODULE'),
  ('importlib.resources',
   '/usr/lib/python3.10/importlib/resources.py',
   'PYMODULE'),
  ('pep517.compat',
   '/home/shivang/.local/lib/python3.10/site-packages/pep517/compat.py',
   'PYMODULE'),
  ('tomli',
   '/home/shivang/.local/lib/python3.10/site-packages/tomli/__init__.py',
   'PYMODULE'),
  ('tomli._parser',
   '/home/shivang/.local/lib/python3.10/site-packages/tomli/_parser.py',
   'PYMODULE'),
  ('tomli._types',
   '/home/shivang/.local/lib/python3.10/site-packages/tomli/_types.py',
   'PYMODULE'),
  ('tomli._re',
   '/home/shivang/.local/lib/python3.10/site-packages/tomli/_re.py',
   'PYMODULE'),
  ('datetime', '/usr/lib/python3.10/datetime.py', 'PYMODULE'),
  ('_strptime', '/usr/lib/python3.10/_strptime.py', 'PYMODULE'),
  ('calendar', '/usr/lib/python3.10/calendar.py', 'PYMODULE'),
  ('__future__', '/usr/lib/python3.10/__future__.py', 'PYMODULE'),
  ('json', '/usr/lib/python3.10/json/__init__.py', 'PYMODULE'),
  ('json.encoder', '/usr/lib/python3.10/json/encoder.py', 'PYMODULE'),
  ('json.decoder', '/usr/lib/python3.10/json/decoder.py', 'PYMODULE'),
  ('json.scanner', '/usr/lib/python3.10/json/scanner.py', 'PYMODULE'),
  ('pep517.envbuild',
   '/home/shivang/.local/lib/python3.10/site-packages/pep517/envbuild.py',
   'PYMODULE'),
  ('sysconfig', '/usr/lib/python3.10/sysconfig.py', 'PYMODULE'),
  ('_sysconfigdata__x86_64-linux-gnu',
   '/usr/lib/python3.10/_sysconfigdata__x86_64-linux-gnu.py',
   'PYMODULE'),
  ('_aix_support', '/usr/lib/python3.10/_aix_support.py', 'PYMODULE'),
  ('_bootsubprocess', '/usr/lib/python3.10/_bootsubprocess.py', 'PYMODULE'),
  ('zipp', '/usr/lib/python3/dist-packages/zipp.py', 'PYMODULE'),
  ('more_itertools',
   '/usr/lib/python3/dist-packages/more_itertools/__init__.py',
   'PYMODULE'),
  ('more_itertools.recipes',
   '/usr/lib/python3/dist-packages/more_itertools/recipes.py',
   'PYMODULE'),
  ('more_itertools.more',
   '/usr/lib/python3/dist-packages/more_itertools/more.py',
   'PYMODULE'),
  ('queue', '/usr/lib/python3.10/queue.py', 'PYMODULE'),
  ('concurrent.futures',
   '/usr/lib/python3.10/concurrent/futures/__init__.py',
   'PYMODULE'),
  ('concurrent.futures.thread',
   '/usr/lib/python3.10/concurrent/futures/thread.py',
   'PYMODULE'),
  ('concurrent.futures.process',
   '/usr/lib/python3.10/concurrent/futures/process.py',
   'PYMODULE'),
  ('multiprocessing.synchronize',
   '/usr/lib/python3.10/multiprocessing/synchronize.py',
   'PYMODULE'),
  ('multiprocessing.heap',
   '/usr/lib/python3.10/multiprocessing/heap.py',
   'PYMODULE'),
  ('multiprocessing.resource_tracker',
   '/usr/lib/python3.10/multiprocessing/resource_tracker.py',
   'PYMODULE'),
  ('multiprocessing.spawn',
   '/usr/lib/python3.10/multiprocessing/spawn.py',
   'PYMODULE'),
  ('runpy', '/usr/lib/python3.10/runpy.py', 'PYMODULE'),
  ('pkgutil', '/usr/lib/python3.10/pkgutil.py', 'PYMODULE'),
  ('zipimport', '/usr/lib/python3.10/zipimport.py', 'PYMODULE'),
  ('signal', '/usr/lib/python3.10/signal.py', 'PYMODULE'),
  ('multiprocessing.util',
   '/usr/lib/python3.10/multiprocessing/util.py',
   'PYMODULE'),
  ('multiprocessing.forkserver',
   '/usr/lib/python3.10/multiprocessing/forkserver.py',
   'PYMODULE'),
  ('socket', '/usr/lib/python3.10/socket.py', 'PYMODULE'),
  ('selectors', '/usr/lib/python3.10/selectors.py', 'PYMODULE'),
  ('multiprocessing.process',
   '/usr/lib/python3.10/multiprocessing/process.py',
   'PYMODULE'),
  ('multiprocessing.context',
   '/usr/lib/python3.10/multiprocessing/context.py',
   'PYMODULE'),
  ('multiprocessing.popen_spawn_win32',
   '/usr/lib/python3.10/multiprocessing/popen_spawn_win32.py',
   'PYMODULE'),
  ('multiprocessing.popen_forkserver',
   '/usr/lib/python3.10/multiprocessing/popen_forkserver.py',
   'PYMODULE'),
  ('multiprocessing.popen_spawn_posix',
   '/usr/lib/python3.10/multiprocessing/popen_spawn_posix.py',
   'PYMODULE'),
  ('multiprocessing.popen_fork',
   '/usr/lib/python3.10/multiprocessing/popen_fork.py',
   'PYMODULE'),
  ('multiprocessing.sharedctypes',
   '/usr/lib/python3.10/multiprocessing/sharedctypes.py',
   'PYMODULE'),
  ('ctypes', '/usr/lib/python3.10/ctypes/__init__.py', 'PYMODULE'),
  ('ctypes._endian', '/usr/lib/python3.10/ctypes/_endian.py', 'PYMODULE'),
  ('multiprocessing.pool',
   '/usr/lib/python3.10/multiprocessing/pool.py',
   'PYMODULE'),
  ('multiprocessing.dummy',
   '/usr/lib/python3.10/multiprocessing/dummy/__init__.py',
   'PYMODULE'),
  ('multiprocessing.dummy.connection',
   '/usr/lib/python3.10/multiprocessing/dummy/connection.py',
   'PYMODULE'),
  ('multiprocessing.managers',
   '/usr/lib/python3.10/multiprocessing/managers.py',
   'PYMODULE'),
  ('multiprocessing.shared_memory',
   '/usr/lib/python3.10/multiprocessing/shared_memory.py',
   'PYMODULE'),
  ('secrets', '/usr/lib/python3.10/secrets.py', 'PYMODULE'),
  ('hmac', '/usr/lib/python3.10/hmac.py', 'PYMODULE'),
  ('base64', '/usr/lib/python3.10/base64.py', 'PYMODULE'),
  ('getopt', '/usr/lib/python3.10/getopt.py', 'PYMODULE'),
  ('gettext', '/usr/lib/python3.10/gettext.py', 'PYMODULE'),
  ('multiprocessing.reduction',
   '/usr/lib/python3.10/multiprocessing/reduction.py',
   'PYMODULE'),
  ('multiprocessing.resource_sharer',
   '/usr/lib/python3.10/multiprocessing/resource_sharer.py',
   'PYMODULE'),
  ('multiprocessing.queues',
   '/usr/lib/python3.10/multiprocessing/queues.py',
   'PYMODULE'),
  ('multiprocessing.connection',
   '/usr/lib/python3.10/multiprocessing/connection.py',
   'PYMODULE'),
  ('xmlrpc.client', '/usr/lib/python3.10/xmlrpc/client.py', 'PYMODULE'),
  ('xmlrpc', '/usr/lib/python3.10/xmlrpc/__init__.py', 'PYMODULE'),
  ('xml.parsers.expat', '/usr/lib/python3.10/xml/parsers/expat.py', 'PYMODULE'),
  ('xml.parsers', '/usr/lib/python3.10/xml/parsers/__init__.py', 'PYMODULE'),
  ('xml', '/usr/lib/python3.10/xml/__init__.py', 'PYMODULE'),
  ('xml.sax.expatreader',
   '/usr/lib/python3.10/xml/sax/expatreader.py',
   'PYMODULE'),
  ('xml.sax.saxutils', '/usr/lib/python3.10/xml/sax/saxutils.py', 'PYMODULE'),
  ('urllib.request', '/usr/lib/python3.10/urllib/request.py', 'PYMODULE'),
  ('getpass', '/usr/lib/python3.10/getpass.py', 'PYMODULE'),
  ('nturl2path', '/usr/lib/python3.10/nturl2path.py', 'PYMODULE'),
  ('ftplib', '/usr/lib/python3.10/ftplib.py', 'PYMODULE'),
  ('netrc', '/usr/lib/python3.10/netrc.py', 'PYMODULE'),
  ('shlex', '/usr/lib/python3.10/shlex.py', 'PYMODULE'),
  ('mimetypes', '/usr/lib/python3.10/mimetypes.py', 'PYMODULE'),
  ('email.utils', '/usr/lib/python3.10/email/utils.py', 'PYMODULE'),
  ('email.charset', '/usr/lib/python3.10/email/charset.py', 'PYMODULE'),
  ('email.encoders', '/usr/lib/python3.10/email/encoders.py', 'PYMODULE'),
  ('quopri', '/usr/lib/python3.10/quopri.py', 'PYMODULE'),
  ('email.errors', '/usr/lib/python3.10/email/errors.py', 'PYMODULE'),
  ('email.quoprimime', '/usr/lib/python3.10/email/quoprimime.py', 'PYMODULE'),
  ('email.base64mime', '/usr/lib/python3.10/email/base64mime.py', 'PYMODULE'),
  ('email._parseaddr', '/usr/lib/python3.10/email/_parseaddr.py', 'PYMODULE'),
  ('http.cookiejar', '/usr/lib/python3.10/http/cookiejar.py', 'PYMODULE'),
  ('http', '/usr/lib/python3.10/http/__init__.py', 'PYMODULE'),
  ('ssl', '/usr/lib/python3.10/ssl.py', 'PYMODULE'),
  ('urllib.response', '/usr/lib/python3.10/urllib/response.py', 'PYMODULE'),
  ('urllib.error', '/usr/lib/python3.10/urllib/error.py', 'PYMODULE'),
  ('xml.sax', '/usr/lib/python3.10/xml/sax/__init__.py', 'PYMODULE'),
  ('xml.sax.handler', '/usr/lib/python3.10/xml/sax/handler.py', 'PYMODULE'),
  ('xml.sax._exceptions',
   '/usr/lib/python3.10/xml/sax/_exceptions.py',
   'PYMODULE'),
  ('xml.sax.xmlreader', '/usr/lib/python3.10/xml/sax/xmlreader.py', 'PYMODULE'),
  ('http.client', '/usr/lib/python3.10/http/client.py', 'PYMODULE'),
  ('email.message', '/usr/lib/python3.10/email/message.py', 'PYMODULE'),
  ('email.policy', '/usr/lib/python3.10/email/policy.py', 'PYMODULE'),
  ('email.contentmanager',
   '/usr/lib/python3.10/email/contentmanager.py',
   'PYMODULE'),
  ('email.headerregistry',
   '/usr/lib/python3.10/email/headerregistry.py',
   'PYMODULE'),
  ('email._header_value_parser',
   '/usr/lib/python3.10/email/_header_value_parser.py',
   'PYMODULE'),
  ('email.iterators', '/usr/lib/python3.10/email/iterators.py', 'PYMODULE'),
  ('email.generator', '/usr/lib/python3.10/email/generator.py', 'PYMODULE'),
  ('email._encoded_words',
   '/usr/lib/python3.10/email/_encoded_words.py',
   'PYMODULE'),
  ('email._policybase', '/usr/lib/python3.10/email/_policybase.py', 'PYMODULE'),
  ('email.header', '/usr/lib/python3.10/email/header.py', 'PYMODULE'),
  ('uu', '/usr/lib/python3.10/uu.py', 'PYMODULE'),
  ('optparse', '/usr/lib/python3.10/optparse.py', 'PYMODULE'),
  ('email.parser', '/usr/lib/python3.10/email/parser.py', 'PYMODULE'),
  ('email.feedparser', '/usr/lib/python3.10/email/feedparser.py', 'PYMODULE'),
  ('multiprocessing',
   '/usr/lib/python3.10/multiprocessing/__init__.py',
   'PYMODULE'),
  ('concurrent.futures._base',
   '/usr/lib/python3.10/concurrent/futures/_base.py',
   'PYMODULE'),
  ('concurrent', '/usr/lib/python3.10/concurrent/__init__.py', 'PYMODULE'),
  ('importlib_metadata',
   '/usr/lib/python3/dist-packages/importlib_metadata/__init__.py',
   'PYMODULE'),
  ('importlib_metadata._itertools',
   '/usr/lib/python3/dist-packages/importlib_metadata/_itertools.py',
   'PYMODULE'),
  ('importlib_metadata._functools',
   '/usr/lib/python3/dist-packages/importlib_metadata/_functools.py',
   'PYMODULE'),
  ('importlib_metadata._compat',
   '/usr/lib/python3/dist-packages/importlib_metadata/_compat.py',
   'PYMODULE'),
  ('platform', '/usr/lib/python3.10/platform.py', 'PYMODULE'),
  ('importlib_metadata._collections',
   '/usr/lib/python3/dist-packages/importlib_metadata/_collections.py',
   'PYMODULE'),
  ('importlib_metadata._meta',
   '/usr/lib/python3/dist-packages/importlib_metadata/_meta.py',
   'PYMODULE'),
  ('importlib_metadata._adapters',
   '/usr/lib/python3/dist-packages/importlib_metadata/_adapters.py',
   'PYMODULE'),
  ('importlib_metadata._text',
   '/usr/lib/python3/dist-packages/importlib_metadata/_text.py',
   'PYMODULE'),
  ('pep517.build',
   '/home/shivang/.local/lib/python3.10/site-packages/pep517/build.py',
   'PYMODULE'),
  ('pep517',
   '/home/shivang/.local/lib/python3.10/site-packages/pep517/__init__.py',
   'PYMODULE'),
  ('importlib.metadata._itertools',
   '/usr/lib/python3.10/importlib/metadata/_itertools.py',
   'PYMODULE'),
  ('importlib.metadata._functools',
   '/usr/lib/python3.10/importlib/metadata/_functools.py',
   'PYMODULE'),
  ('importlib.metadata._collections',
   '/usr/lib/python3.10/importlib/metadata/_collections.py',
   'PYMODULE'),
  ('importlib.metadata._meta',
   '/usr/lib/python3.10/importlib/metadata/_meta.py',
   'PYMODULE'),
  ('importlib.metadata._adapters',
   '/usr/lib/python3.10/importlib/metadata/_adapters.py',
   'PYMODULE'),
  ('importlib.metadata._text',
   '/usr/lib/python3.10/importlib/metadata/_text.py',
   'PYMODULE'),
  ('textwrap', '/usr/lib/python3.10/textwrap.py', 'PYMODULE'),
  ('email', '/usr/lib/python3.10/email/__init__.py', 'PYMODULE'),
  ('csv', '/usr/lib/python3.10/csv.py', 'PYMODULE'),
  ('importlib.readers', '/usr/lib/python3.10/importlib/readers.py', 'PYMODULE'),
  ('importlib._bootstrap',
   '/usr/lib/python3.10/importlib/_bootstrap.py',
   'PYMODULE'),
  ('token', '/usr/lib/python3.10/token.py', 'PYMODULE'),
  ('importlib.machinery',
   '/usr/lib/python3.10/importlib/machinery.py',
   'PYMODULE'),
  ('dis', '/usr/lib/python3.10/dis.py', 'PYMODULE'),
  ('opcode', '/usr/lib/python3.10/opcode.py', 'PYMODULE'),
  ('ast', '/usr/lib/python3.10/ast.py', 'PYMODULE'),
  ('stringprep', '/usr/lib/python3.10/stringprep.py', 'PYMODULE'),
  ('_py_abc', '/usr/lib/python3.10/_py_abc.py', 'PYMODULE'),
  ('numpy.core.umath_tests',
   '/home/shivang/.local/lib/python3.10/site-packages/numpy/core/umath_tests.py',
   'PYMODULE'),
  ('numpy.core',
   '/home/shivang/.local/lib/python3.10/site-packages/numpy/core/__init__.py',
   'PYMODULE'),
  ('numpy._pytesttester',
   '/home/shivang/.local/lib/python3.10/site-packages/numpy/_pytesttester.py',
   'PYMODULE'),
  ('numpy.testing',
   '/home/shivang/.local/lib/python3.10/site-packages/numpy/testing/__init__.py',
   'PYMODULE'),
  ('numpy.testing._private.nosetester',
   '/home/shivang/.local/lib/python3.10/site-packages/numpy/testing/_private/nosetester.py',
   'PYMODULE'),
  ('doctest', '/usr/lib/python3.10/doctest.py', 'PYMODULE'),
  ('pdb', '/usr/lib/python3.10/pdb.py', 'PYMODULE'),
  ('pydoc', '/usr/lib/python3.10/pydoc.py', 'PYMODULE'),
  ('webbrowser', '/usr/lib/python3.10/webbrowser.py', 'PYMODULE'),
  ('http.server', '/usr/lib/python3.10/http/server.py', 'PYMODULE'),
  ('socketserver', '/usr/lib/python3.10/socketserver.py', 'PYMODULE'),
  ('html', '/usr/lib/python3.10/html/__init__.py', 'PYMODULE'),
  ('html.entities', '/usr/lib/python3.10/html/entities.py', 'PYMODULE'),
  ('pydoc_data.topics', '/usr/lib/python3.10/pydoc_data/topics.py', 'PYMODULE'),
  ('pydoc_data', '/usr/lib/python3.10/pydoc_data/__init__.py', 'PYMODULE'),
  ('tty', '/usr/lib/python3.10/tty.py', 'PYMODULE'),
  ('code', '/usr/lib/python3.10/code.py', 'PYMODULE'),
  ('codeop', '/usr/lib/python3.10/codeop.py', 'PYMODULE'),
  ('bdb', '/usr/lib/python3.10/bdb.py', 'PYMODULE'),
  ('cmd', '/usr/lib/python3.10/cmd.py', 'PYMODULE'),
  ('difflib', '/usr/lib/python3.10/difflib.py', 'PYMODULE'),
  ('numpy.testing._private.noseclasses',
   '/home/shivang/.local/lib/python3.10/site-packages/numpy/testing/_private/noseclasses.py',
   'PYMODULE'),
  ('numpy.testing._private.decorators',
   '/home/shivang/.local/lib/python3.10/site-packages/numpy/testing/_private/decorators.py',
   'PYMODULE'),
  ('numpy.testing._private.parameterized',
   '/home/shivang/.local/lib/python3.10/site-packages/numpy/testing/_private/parameterized.py',
   'PYMODULE'),
  ('numpy.testing._private.extbuild',
   '/home/shivang/.local/lib/python3.10/site-packages/numpy/testing/_private/extbuild.py',
   'PYMODULE'),
  ('numpy.distutils.ccompiler',
   '/home/shivang/.local/lib/python3.10/site-packages/numpy/distutils/ccompiler.py',
   'PYMODULE'),
  ('numpy.distutils.fcompiler',
   '/home/shivang/.local/lib/python3.10/site-packages/numpy/distutils/fcompiler/__init__.py',
   'PYMODULE'),
  ('numpy.distutils.command.config_compiler',
   '/home/shivang/.local/lib/python3.10/site-packages/numpy/distutils/command/config_compiler.py',
   'PYMODULE'),
  ('numpy.distutils.command',
   '/home/shivang/.local/lib/python3.10/site-packages/numpy/distutils/command/__init__.py',
   'PYMODULE'),
  ('numpy.distutils.command.egg_info',
   '/home/shivang/.local/lib/python3.10/site-packages/numpy/distutils/command/egg_info.py',
   'PYMODULE'),
  ('numpy.distutils.command.develop',
   '/home/shivang/.local/lib/python3.10/site-packages/numpy/distutils/command/develop.py',
   'PYMODULE'),
  ('numpy.distutils.command.install_clib',
   '/home/shivang/.local/lib/python3.10/site-packages/numpy/distutils/command/install_clib.py',
   'PYMODULE'),
  ('numpy.distutils.command.bdist_rpm',
   '/home/shivang/.local/lib/python3.10/site-packages/numpy/distutils/command/bdist_rpm.py',
   'PYMODULE'),
  ('distutils.command.bdist_rpm',
   '/usr/lib/python3.10/distutils/command/bdist_rpm.py',
   'PYMODULE'),
  ('distutils.command',
   '/usr/lib/python3.10/distutils/command/__init__.py',
   'PYMODULE'),
  ('distutils.log', '/usr/lib/python3.10/distutils/log.py', 'PYMODULE'),
  ('distutils.file_util',
   '/usr/lib/python3.10/distutils/file_util.py',
   'PYMODULE'),
  ('distutils.dep_util',
   '/usr/lib/python3.10/distutils/dep_util.py',
   'PYMODULE'),
  ('distutils.debug', '/usr/lib/python3.10/distutils/debug.py', 'PYMODULE'),
  ('numpy.distutils.command.install',
   '/home/shivang/.local/lib/python3.10/site-packages/numpy/distutils/command/install.py',
   'PYMODULE'),
  ('distutils.command.install',
   '/usr/lib/python3.10/distutils/command/install.py',
   'PYMODULE'),
  ('site',
   '/home/shivang/.local/lib/python3.10/site-packages/PyInstaller/fake-modules/site.py',
   'PYMODULE'),
  ('numpy.distutils.command.install_headers',
   '/home/shivang/.local/lib/python3.10/site-packages/numpy/distutils/command/install_headers.py',
   'PYMODULE'),
  ('distutils.command.install_headers',
   '/usr/lib/python3.10/distutils/command/install_headers.py',
   'PYMODULE'),
  ('numpy.distutils.command.install_data',
   '/home/shivang/.local/lib/python3.10/site-packages/numpy/distutils/command/install_data.py',
   'PYMODULE'),
  ('distutils.command.install_data',
   '/usr/lib/python3.10/distutils/command/install_data.py',
   'PYMODULE'),
  ('numpy.distutils.command.sdist',
   '/home/shivang/.local/lib/python3.10/site-packages/numpy/distutils/command/sdist.py',
   'PYMODULE'),
  ('distutils.command.sdist',
   '/usr/lib/python3.10/distutils/command/sdist.py',
   'PYMODULE'),
  ('distutils.filelist',
   '/usr/lib/python3.10/distutils/filelist.py',
   'PYMODULE'),
  ('distutils.text_file',
   '/usr/lib/python3.10/distutils/text_file.py',
   'PYMODULE'),
  ('distutils.archive_util',
   '/usr/lib/python3.10/distutils/archive_util.py',
   'PYMODULE'),
  ('distutils.spawn', '/usr/lib/python3.10/distutils/spawn.py', 'PYMODULE'),
  ('distutils.dir_util',
   '/usr/lib/python3.10/distutils/dir_util.py',
   'PYMODULE'),
  ('numpy.distutils.command.build_scripts',
   '/home/shivang/.local/lib/python3.10/site-packages/numpy/distutils/command/build_scripts.py',
   'PYMODULE'),
  ('distutils.command.build_scripts',
   '/usr/lib/python3.10/distutils/command/build_scripts.py',
   'PYMODULE'),
  ('numpy.distutils.command.build_clib',
   '/home/shivang/.local/lib/python3.10/site-packages/numpy/distutils/command/build_clib.py',
   'PYMODULE'),
  ('numpy.distutils.ccompiler_opt',
   '/home/shivang/.local/lib/python3.10/site-packages/numpy/distutils/ccompiler_opt.py',
   'PYMODULE'),
  ('distutils.command.build_clib',
   '/usr/lib/python3.10/distutils/command/build_clib.py',
   'PYMODULE'),
  ('numpy.distutils.command.build_ext',
   '/home/shivang/.local/lib/python3.10/site-packages/numpy/distutils/command/build_ext.py',
   'PYMODULE'),
  ('numpy.distutils.system_info',
   '/home/shivang/.local/lib/python3.10/site-packages/numpy/distutils/system_info.py',
   'PYMODULE'),
  ('configparser', '/usr/lib/python3.10/configparser.py', 'PYMODULE'),
  ('distutils.command.build_ext',
   '/usr/lib/python3.10/distutils/command/build_ext.py',
   'PYMODULE'),
  ('distutils._msvccompiler',
   '/usr/lib/python3.10/distutils/_msvccompiler.py',
   'PYMODULE'),
  ('distutils.extension',
   '/usr/lib/python3.10/distutils/extension.py',
   'PYMODULE'),
  ('numpy.distutils.command.build_py',
   '/home/shivang/.local/lib/python3.10/site-packages/numpy/distutils/command/build_py.py',
   'PYMODULE'),
  ('distutils.command.build_py',
   '/usr/lib/python3.10/distutils/command/build_py.py',
   'PYMODULE'),
  ('numpy.distutils.command.build',
   '/home/shivang/.local/lib/python3.10/site-packages/numpy/distutils/command/build.py',
   'PYMODULE'),
  ('distutils.command.build',
   '/usr/lib/python3.10/distutils/command/build.py',
   'PYMODULE'),
  ('numpy.distutils.command.config',
   '/home/shivang/.local/lib/python3.10/site-packages/numpy/distutils/command/config.py',
   'PYMODULE'),
  ('distutils.msvc9compiler',
   '/usr/lib/python3.10/distutils/msvc9compiler.py',
   'PYMODULE'),
  ('numpy.distutils.command.autodist',
   '/home/shivang/.local/lib/python3.10/site-packages/numpy/distutils/command/autodist.py',
   'PYMODULE'),
  ('numpy.distutils.mingw32ccompiler',
   '/home/shivang/.local/lib/python3.10/site-packages/numpy/distutils/mingw32ccompiler.py',
   'PYMODULE'),
  ('numpy.distutils.lib2def',
   '/home/shivang/.local/lib/python3.10/site-packages/numpy/distutils/lib2def.py',
   'PYMODULE'),
  ('distutils.msvccompiler',
   '/usr/lib/python3.10/distutils/msvccompiler.py',
   'PYMODULE'),
  ('distutils.unixccompiler',
   '/usr/lib/python3.10/distutils/unixccompiler.py',
   'PYMODULE'),
  ('_osx_support', '/usr/lib/python3.10/_osx_support.py', 'PYMODULE'),
  ('distutils.cygwinccompiler',
   '/usr/lib/python3.10/distutils/cygwinccompiler.py',
   'PYMODULE'),
  ('distutils.command.config',
   '/usr/lib/python3.10/distutils/command/config.py',
   'PYMODULE'),
  ('distutils.core', '/usr/lib/python3.10/distutils/core.py', 'PYMODULE'),
  ('distutils.config', '/usr/lib/python3.10/distutils/config.py', 'PYMODULE'),
  ('cgi', '/usr/lib/python3.10/cgi.py', 'PYMODULE'),
  ('distutils.cmd', '/usr/lib/python3.10/distutils/cmd.py', 'PYMODULE'),
  ('distutils.dist', '/usr/lib/python3.10/distutils/dist.py', 'PYMODULE'),
  ('distutils.versionpredicate',
   '/usr/lib/python3.10/distutils/versionpredicate.py',
   'PYMODULE'),
  ('numpy.distutils.core',
   '/home/shivang/.local/lib/python3.10/site-packages/numpy/distutils/core.py',
   'PYMODULE'),
  ('numpy.distutils.command.build_src',
   '/home/shivang/.local/lib/python3.10/site-packages/numpy/distutils/command/build_src.py',
   'PYMODULE'),
  ('numpy.distutils.conv_template',
   '/home/shivang/.local/lib/python3.10/site-packages/numpy/distutils/conv_template.py',
   'PYMODULE'),
  ('numpy.distutils.from_template',
   '/home/shivang/.local/lib/python3.10/site-packages/numpy/distutils/from_template.py',
   'PYMODULE'),
  ('numpy.distutils.numpy_distribution',
   '/home/shivang/.local/lib/python3.10/site-packages/numpy/distutils/numpy_distribution.py',
   'PYMODULE'),
  ('numpy.distutils.extension',
   '/home/shivang/.local/lib/python3.10/site-packages/numpy/distutils/extension.py',
   'PYMODULE'),
  ('numpy.distutils.fcompiler.environment',
   '/home/shivang/.local/lib/python3.10/site-packages/numpy/distutils/fcompiler/environment.py',
   'PYMODULE'),
  ('numpy.distutils._shell_utils',
   '/home/shivang/.local/lib/python3.10/site-packages/numpy/distutils/_shell_utils.py',
   'PYMODULE'),
  ('pipes', '/usr/lib/python3.10/pipes.py', 'PYMODULE'),
  ('distutils.util', '/usr/lib/python3.10/distutils/util.py', 'PYMODULE'),
  ('distutils.fancy_getopt',
   '/usr/lib/python3.10/distutils/fancy_getopt.py',
   'PYMODULE'),
  ('numpy.distutils.misc_util',
   '/home/shivang/.local/lib/python3.10/site-packages/numpy/distutils/misc_util.py',
   'PYMODULE'),
  ('numpy.distutils.npy_pkg_config',
   '/home/shivang/.local/lib/python3.10/site-packages/numpy/distutils/npy_pkg_config.py',
   'PYMODULE'),
  ('curses', '/usr/lib/python3.10/curses/__init__.py', 'PYMODULE'),
  ('curses.has_key', '/usr/lib/python3.10/curses/has_key.py', 'PYMODULE'),
  ('numpy.distutils.exec_command',
   '/home/shivang/.local/lib/python3.10/site-packages/numpy/distutils/exec_command.py',
   'PYMODULE'),
  ('numpy.distutils.log',
   '/home/shivang/.local/lib/python3.10/site-packages/numpy/distutils/log.py',
   'PYMODULE'),
  ('distutils.version', '/usr/lib/python3.10/distutils/version.py', 'PYMODULE'),
  ('distutils.sysconfig',
   '/usr/lib/python3.10/distutils/sysconfig.py',
   'PYMODULE'),
  ('distutils.ccompiler',
   '/usr/lib/python3.10/distutils/ccompiler.py',
   'PYMODULE'),
  ('distutils', '/usr/lib/python3.10/distutils/__init__.py', 'PYMODULE'),
  ('distutils.errors', '/usr/lib/python3.10/distutils/errors.py', 'PYMODULE'),
  ('numpy.testing._private',
   '/home/shivang/.local/lib/python3.10/site-packages/numpy/testing/_private/__init__.py',
   'PYMODULE'),
  ('numpy.testing._private.utils',
   '/home/shivang/.local/lib/python3.10/site-packages/numpy/testing/_private/utils.py',
   'PYMODULE'),
  ('numpy.lib',
   '/home/shivang/.local/lib/python3.10/site-packages/numpy/lib/__init__.py',
   'PYMODULE'),
  ('numpy.lib._version',
   '/home/shivang/.local/lib/python3.10/site-packages/numpy/lib/_version.py',
   'PYMODULE'),
  ('numpy.lib.arraypad',
   '/home/shivang/.local/lib/python3.10/site-packages/numpy/lib/arraypad.py',
   'PYMODULE'),
  ('numpy.lib.arrayterator',
   '/home/shivang/.local/lib/python3.10/site-packages/numpy/lib/arrayterator.py',
   'PYMODULE'),
  ('numpy.lib.npyio',
   '/home/shivang/.local/lib/python3.10/site-packages/numpy/lib/npyio.py',
   'PYMODULE'),
  ('numpy.ma.mrecords',
   '/home/shivang/.local/lib/python3.10/site-packages/numpy/ma/mrecords.py',
   'PYMODULE'),
  ('numpy.ma',
   '/home/shivang/.local/lib/python3.10/site-packages/numpy/ma/__init__.py',
   'PYMODULE'),
  ('numpy.ma.extras',
   '/home/shivang/.local/lib/python3.10/site-packages/numpy/ma/extras.py',
   'PYMODULE'),
  ('numpy.ma.core',
   '/home/shivang/.local/lib/python3.10/site-packages/numpy/ma/core.py',
   'PYMODULE'),
  ('numpy.compat',
   '/home/shivang/.local/lib/python3.10/site-packages/numpy/compat/__init__.py',
   'PYMODULE'),
  ('numpy.compat.py3k',
   '/home/shivang/.local/lib/python3.10/site-packages/numpy/compat/py3k.py',
   'PYMODULE'),
  ('numpy.compat._inspect',
   '/home/shivang/.local/lib/python3.10/site-packages/numpy/compat/_inspect.py',
   'PYMODULE'),
  ('numpy.lib._iotools',
   '/home/shivang/.local/lib/python3.10/site-packages/numpy/lib/_iotools.py',
   'PYMODULE'),
  ('numpy.lib._datasource',
   '/home/shivang/.local/lib/python3.10/site-packages/numpy/lib/_datasource.py',
   'PYMODULE'),
  ('numpy.lib.format',
   '/home/shivang/.local/lib/python3.10/site-packages/numpy/lib/format.py',
   'PYMODULE'),
  ('numpy.lib.arraysetops',
   '/home/shivang/.local/lib/python3.10/site-packages/numpy/lib/arraysetops.py',
   'PYMODULE'),
  ('numpy.lib.utils',
   '/home/shivang/.local/lib/python3.10/site-packages/numpy/lib/utils.py',
   'PYMODULE'),
  ('numpy.lib.polynomial',
   '/home/shivang/.local/lib/python3.10/site-packages/numpy/lib/polynomial.py',
   'PYMODULE'),
  ('numpy.linalg',
   '/home/shivang/.local/lib/python3.10/site-packages/numpy/linalg/__init__.py',
   'PYMODULE'),
  ('numpy.linalg.linalg',
   '/home/shivang/.local/lib/python3.10/site-packages/numpy/linalg/linalg.py',
   'PYMODULE'),
  ('numpy.lib.histograms',
   '/home/shivang/.local/lib/python3.10/site-packages/numpy/lib/histograms.py',
   'PYMODULE'),
  ('numpy.lib.ufunclike',
   '/home/shivang/.local/lib/python3.10/site-packages/numpy/lib/ufunclike.py',
   'PYMODULE'),
  ('numpy.lib.twodim_base',
   '/home/shivang/.local/lib/python3.10/site-packages/numpy/lib/twodim_base.py',
   'PYMODULE'),
  ('numpy.lib.stride_tricks',
   '/home/shivang/.local/lib/python3.10/site-packages/numpy/lib/stride_tricks.py',
   'PYMODULE'),
  ('numpy.lib.shape_base',
   '/home/shivang/.local/lib/python3.10/site-packages/numpy/lib/shape_base.py',
   'PYMODULE'),
  ('numpy.matrixlib.defmatrix',
   '/home/shivang/.local/lib/python3.10/site-packages/numpy/matrixlib/defmatrix.py',
   'PYMODULE'),
  ('numpy.matrixlib',
   '/home/shivang/.local/lib/python3.10/site-packages/numpy/matrixlib/__init__.py',
   'PYMODULE'),
  ('numpy.lib.nanfunctions',
   '/home/shivang/.local/lib/python3.10/site-packages/numpy/lib/nanfunctions.py',
   'PYMODULE'),
  ('numpy.lib.function_base',
   '/home/shivang/.local/lib/python3.10/site-packages/numpy/lib/function_base.py',
   'PYMODULE'),
  ('numpy.lib.index_tricks',
   '/home/shivang/.local/lib/python3.10/site-packages/numpy/lib/index_tricks.py',
   'PYMODULE'),
  ('numpy.lib.type_check',
   '/home/shivang/.local/lib/python3.10/site-packages/numpy/lib/type_check.py',
   'PYMODULE'),
  ('numpy.lib.scimath',
   '/home/shivang/.local/lib/python3.10/site-packages/numpy/lib/scimath.py',
   'PYMODULE'),
  ('numpy.lib.mixins',
   '/home/shivang/.local/lib/python3.10/site-packages/numpy/lib/mixins.py',
   'PYMODULE'),
  ('unittest.case', '/usr/lib/python3.10/unittest/case.py', 'PYMODULE'),
  ('unittest._log', '/usr/lib/python3.10/unittest/_log.py', 'PYMODULE'),
  ('unittest.util', '/usr/lib/python3.10/unittest/util.py', 'PYMODULE'),
  ('unittest.result', '/usr/lib/python3.10/unittest/result.py', 'PYMODULE'),
  ('unittest', '/usr/lib/python3.10/unittest/__init__.py', 'PYMODULE'),
  ('unittest.async_case',
   '/usr/lib/python3.10/unittest/async_case.py',
   'PYMODULE'),
  ('asyncio', '/usr/lib/python3.10/asyncio/__init__.py', 'PYMODULE'),
  ('asyncio.unix_events',
   '/usr/lib/python3.10/asyncio/unix_events.py',
   'PYMODULE'),
  ('asyncio.log', '/usr/lib/python3.10/asyncio/log.py', 'PYMODULE'),
  ('asyncio.windows_events',
   '/usr/lib/python3.10/asyncio/windows_events.py',
   'PYMODULE'),
  ('asyncio.windows_utils',
   '/usr/lib/python3.10/asyncio/windows_utils.py',
   'PYMODULE'),
  ('asyncio.selector_events',
   '/usr/lib/python3.10/asyncio/selector_events.py',
   'PYMODULE'),
  ('asyncio.proactor_events',
   '/usr/lib/python3.10/asyncio/proactor_events.py',
   'PYMODULE'),
  ('asyncio.base_subprocess',
   '/usr/lib/python3.10/asyncio/base_subprocess.py',
   'PYMODULE'),
  ('asyncio.threads', '/usr/lib/python3.10/asyncio/threads.py', 'PYMODULE'),
  ('asyncio.subprocess',
   '/usr/lib/python3.10/asyncio/subprocess.py',
   'PYMODULE'),
  ('asyncio.streams', '/usr/lib/python3.10/asyncio/streams.py', 'PYMODULE'),
  ('asyncio.queues', '/usr/lib/python3.10/asyncio/queues.py', 'PYMODULE'),
  ('asyncio.runners', '/usr/lib/python3.10/asyncio/runners.py', 'PYMODULE'),
  ('asyncio.base_events',
   '/usr/lib/python3.10/asyncio/base_events.py',
   'PYMODULE'),
  ('asyncio.trsock', '/usr/lib/python3.10/asyncio/trsock.py', 'PYMODULE'),
  ('asyncio.staggered', '/usr/lib/python3.10/asyncio/staggered.py', 'PYMODULE'),
  ('asyncio.tasks', '/usr/lib/python3.10/asyncio/tasks.py', 'PYMODULE'),
  ('asyncio.locks', '/usr/lib/python3.10/asyncio/locks.py', 'PYMODULE'),
  ('asyncio.base_tasks',
   '/usr/lib/python3.10/asyncio/base_tasks.py',
   'PYMODULE'),
  ('asyncio.mixins', '/usr/lib/python3.10/asyncio/mixins.py', 'PYMODULE'),
  ('asyncio.sslproto', '/usr/lib/python3.10/asyncio/sslproto.py', 'PYMODULE'),
  ('asyncio.transports',
   '/usr/lib/python3.10/asyncio/transports.py',
   'PYMODULE'),
  ('asyncio.protocols', '/usr/lib/python3.10/asyncio/protocols.py', 'PYMODULE'),
  ('asyncio.futures', '/usr/lib/python3.10/asyncio/futures.py', 'PYMODULE'),
  ('asyncio.exceptions',
   '/usr/lib/python3.10/asyncio/exceptions.py',
   'PYMODULE'),
  ('asyncio.events', '/usr/lib/python3.10/asyncio/events.py', 'PYMODULE'),
  ('asyncio.coroutines',
   '/usr/lib/python3.10/asyncio/coroutines.py',
   'PYMODULE'),
  ('asyncio.base_futures',
   '/usr/lib/python3.10/asyncio/base_futures.py',
   'PYMODULE'),
  ('asyncio.format_helpers',
   '/usr/lib/python3.10/asyncio/format_helpers.py',
   'PYMODULE'),
  ('asyncio.constants', '/usr/lib/python3.10/asyncio/constants.py', 'PYMODULE'),
  ('unittest.signals', '/usr/lib/python3.10/unittest/signals.py', 'PYMODULE'),
  ('unittest.main', '/usr/lib/python3.10/unittest/main.py', 'PYMODULE'),
  ('unittest.runner', '/usr/lib/python3.10/unittest/runner.py', 'PYMODULE'),
  ('unittest.loader', '/usr/lib/python3.10/unittest/loader.py', 'PYMODULE'),
  ('unittest.suite', '/usr/lib/python3.10/unittest/suite.py', 'PYMODULE'),
  ('numpy.array_api',
   '/home/shivang/.local/lib/python3.10/site-packages/numpy/array_api/__init__.py',
   'PYMODULE'),
  ('numpy.array_api._utility_functions',
   '/home/shivang/.local/lib/python3.10/site-packages/numpy/array_api/_utility_functions.py',
   'PYMODULE'),
  ('numpy.array_api._array_object',
   '/home/shivang/.local/lib/python3.10/site-packages/numpy/array_api/_array_object.py',
   'PYMODULE'),
  ('numpy.typing',
   '/home/shivang/.local/lib/python3.10/site-packages/numpy/typing/__init__.py',
   'PYMODULE'),
  ('numpy.typing._add_docstring',
   '/home/shivang/.local/lib/python3.10/site-packages/numpy/typing/_add_docstring.py',
   'PYMODULE'),
  ('numpy.typing._generic_alias',
   '/home/shivang/.local/lib/python3.10/site-packages/numpy/typing/_generic_alias.py',
   'PYMODULE'),
  ('numpy.typing._array_like',
   '/home/shivang/.local/lib/python3.10/site-packages/numpy/typing/_array_like.py',
   'PYMODULE'),
  ('numpy.typing._dtype_like',
   '/home/shivang/.local/lib/python3.10/site-packages/numpy/typing/_dtype_like.py',
   'PYMODULE'),
  ('numpy.typing._shape',
   '/home/shivang/.local/lib/python3.10/site-packages/numpy/typing/_shape.py',
   'PYMODULE'),
  ('numpy.typing._scalars',
   '/home/shivang/.local/lib/python3.10/site-packages/numpy/typing/_scalars.py',
   'PYMODULE'),
  ('numpy.typing._char_codes',
   '/home/shivang/.local/lib/python3.10/site-packages/numpy/typing/_char_codes.py',
   'PYMODULE'),
  ('numpy.typing._nbit',
   '/home/shivang/.local/lib/python3.10/site-packages/numpy/typing/_nbit.py',
   'PYMODULE'),
  ('numpy.typing._nested_sequence',
   '/home/shivang/.local/lib/python3.10/site-packages/numpy/typing/_nested_sequence.py',
   'PYMODULE'),
  ('numpy.array_api._typing',
   '/home/shivang/.local/lib/python3.10/site-packages/numpy/array_api/_typing.py',
   'PYMODULE'),
  ('numpy.array_api._statistical_functions',
   '/home/shivang/.local/lib/python3.10/site-packages/numpy/array_api/_statistical_functions.py',
   'PYMODULE'),
  ('numpy.array_api._sorting_functions',
   '/home/shivang/.local/lib/python3.10/site-packages/numpy/array_api/_sorting_functions.py',
   'PYMODULE'),
  ('numpy.array_api._set_functions',
   '/home/shivang/.local/lib/python3.10/site-packages/numpy/array_api/_set_functions.py',
   'PYMODULE'),
  ('numpy.array_api._searching_functions',
   '/home/shivang/.local/lib/python3.10/site-packages/numpy/array_api/_searching_functions.py',
   'PYMODULE'),
  ('numpy.array_api._manipulation_functions',
   '/home/shivang/.local/lib/python3.10/site-packages/numpy/array_api/_manipulation_functions.py',
   'PYMODULE'),
  ('numpy.array_api.linalg',
   '/home/shivang/.local/lib/python3.10/site-packages/numpy/array_api/linalg.py',
   'PYMODULE'),
  ('numpy.array_api._elementwise_functions',
   '/home/shivang/.local/lib/python3.10/site-packages/numpy/array_api/_elementwise_functions.py',
   'PYMODULE'),
  ('numpy.array_api._dtypes',
   '/home/shivang/.local/lib/python3.10/site-packages/numpy/array_api/_dtypes.py',
   'PYMODULE'),
  ('numpy.array_api._data_type_functions',
   '/home/shivang/.local/lib/python3.10/site-packages/numpy/array_api/_data_type_functions.py',
   'PYMODULE'),
  ('numpy.array_api._creation_functions',
   '/home/shivang/.local/lib/python3.10/site-packages/numpy/array_api/_creation_functions.py',
   'PYMODULE'),
  ('numpy.array_api._constants',
   '/home/shivang/.local/lib/python3.10/site-packages/numpy/array_api/_constants.py',
   'PYMODULE'),
  ('numpy.distutils.cpuinfo',
   '/home/shivang/.local/lib/python3.10/site-packages/numpy/distutils/cpuinfo.py',
   'PYMODULE'),
  ('numpy.distutils',
   '/home/shivang/.local/lib/python3.10/site-packages/numpy/distutils/__init__.py',
   'PYMODULE'),
  ('numpy.distutils.__config__',
   '/home/shivang/.local/lib/python3.10/site-packages/numpy/distutils/__config__.py',
   'PYMODULE'),
  ('numpy.distutils.unixccompiler',
   '/home/shivang/.local/lib/python3.10/site-packages/numpy/distutils/unixccompiler.py',
   'PYMODULE'),
  ('numpy.core._dtype',
   '/home/shivang/.local/lib/python3.10/site-packages/numpy/core/_dtype.py',
   'PYMODULE'),
  ('numpy.core._internal',
   '/home/shivang/.local/lib/python3.10/site-packages/numpy/core/_internal.py',
   'PYMODULE'),
  ('numpy.core._dtype_ctypes',
   '/home/shivang/.local/lib/python3.10/site-packages/numpy/core/_dtype_ctypes.py',
   'PYMODULE'),
  ('numpy.core._add_newdocs_scalars',
   '/home/shivang/.local/lib/python3.10/site-packages/numpy/core/_add_newdocs_scalars.py',
   'PYMODULE'),
  ('numpy.core._add_newdocs',
   '/home/shivang/.local/lib/python3.10/site-packages/numpy/core/_add_newdocs.py',
   'PYMODULE'),
  ('numpy.core.einsumfunc',
   '/home/shivang/.local/lib/python3.10/site-packages/numpy/core/einsumfunc.py',
   'PYMODULE'),
  ('numpy.core._machar',
   '/home/shivang/.local/lib/python3.10/site-packages/numpy/core/_machar.py',
   'PYMODULE'),
  ('numpy.core._ufunc_config',
   '/home/shivang/.local/lib/python3.10/site-packages/numpy/core/_ufunc_config.py',
   'PYMODULE'),
  ('numpy.core.function_base',
   '/home/shivang/.local/lib/python3.10/site-packages/numpy/core/function_base.py',
   'PYMODULE'),
  ('numpy.core.memmap',
   '/home/shivang/.local/lib/python3.10/site-packages/numpy/core/memmap.py',
   'PYMODULE'),
  ('numpy.core.records',
   '/home/shivang/.local/lib/python3.10/site-packages/numpy/core/records.py',
   'PYMODULE'),
  ('numpy.core.arrayprint',
   '/home/shivang/.local/lib/python3.10/site-packages/numpy/core/arrayprint.py',
   'PYMODULE'),
  ('numpy.core.defchararray',
   '/home/shivang/.local/lib/python3.10/site-packages/numpy/core/defchararray.py',
   'PYMODULE'),
  ('numpy.core._asarray',
   '/home/shivang/.local/lib/python3.10/site-packages/numpy/core/_asarray.py',
   'PYMODULE'),
  ('numpy.core.shape_base',
   '/home/shivang/.local/lib/python3.10/site-packages/numpy/core/shape_base.py',
   'PYMODULE'),
  ('numpy.core.fromnumeric',
   '/home/shivang/.local/lib/python3.10/site-packages/numpy/core/fromnumeric.py',
   'PYMODULE'),
  ('numpy.core._methods',
   '/home/shivang/.local/lib/python3.10/site-packages/numpy/core/_methods.py',
   'PYMODULE'),
  ('numpy._globals',
   '/home/shivang/.local/lib/python3.10/site-packages/numpy/_globals.py',
   'PYMODULE'),
  ('numpy.core.getlimits',
   '/home/shivang/.local/lib/python3.10/site-packages/numpy/core/getlimits.py',
   'PYMODULE'),
  ('numpy.core._exceptions',
   '/home/shivang/.local/lib/python3.10/site-packages/numpy/core/_exceptions.py',
   'PYMODULE'),
  ('numpy.core.numeric',
   '/home/shivang/.local/lib/python3.10/site-packages/numpy/core/numeric.py',
   'PYMODULE'),
  ('numpy.core.numerictypes',
   '/home/shivang/.local/lib/python3.10/site-packages/numpy/core/numerictypes.py',
   'PYMODULE'),
  ('numpy.core._type_aliases',
   '/home/shivang/.local/lib/python3.10/site-packages/numpy/core/_type_aliases.py',
   'PYMODULE'),
  ('numpy.core._string_helpers',
   '/home/shivang/.local/lib/python3.10/site-packages/numpy/core/_string_helpers.py',
   'PYMODULE'),
  ('numpy.core.umath',
   '/home/shivang/.local/lib/python3.10/site-packages/numpy/core/umath.py',
   'PYMODULE'),
  ('numpy.core.multiarray',
   '/home/shivang/.local/lib/python3.10/site-packages/numpy/core/multiarray.py',
   'PYMODULE'),
  ('numpy.core.overrides',
   '/home/shivang/.local/lib/python3.10/site-packages/numpy/core/overrides.py',
   'PYMODULE'),
  ('numpy.version',
   '/home/shivang/.local/lib/python3.10/site-packages/numpy/version.py',
   'PYMODULE'),
  ('numpy._version',
   '/home/shivang/.local/lib/python3.10/site-packages/numpy/_version.py',
   'PYMODULE'),
  ('tqdm',
   '/home/shivang/.local/lib/python3.10/site-packages/tqdm/__init__.py',
   'PYMODULE'),
  ('tqdm.notebook',
   '/home/shivang/.local/lib/python3.10/site-packages/tqdm/notebook.py',
   'PYMODULE'),
  ('tqdm.utils',
   '/home/shivang/.local/lib/python3.10/site-packages/tqdm/utils.py',
   'PYMODULE'),
  ('colorama',
   '/usr/lib/python3/dist-packages/colorama/__init__.py',
   'PYMODULE'),
  ('colorama.ansitowin32',
   '/usr/lib/python3/dist-packages/colorama/ansitowin32.py',
   'PYMODULE'),
  ('colorama.winterm',
   '/usr/lib/python3/dist-packages/colorama/winterm.py',
   'PYMODULE'),
  ('colorama.ansi',
   '/usr/lib/python3/dist-packages/colorama/ansi.py',
   'PYMODULE'),
  ('colorama.initialise',
   '/usr/lib/python3/dist-packages/colorama/initialise.py',
   'PYMODULE'),
  ('colorama.win32',
   '/usr/lib/python3/dist-packages/colorama/win32.py',
   'PYMODULE'),
  ('ctypes.wintypes', '/usr/lib/python3.10/ctypes/wintypes.py', 'PYMODULE'),
  ('tqdm.version',
   '/home/shivang/.local/lib/python3.10/site-packages/tqdm/version.py',
   'PYMODULE'),
  ('tqdm._dist_ver',
   '/home/shivang/.local/lib/python3.10/site-packages/tqdm/_dist_ver.py',
   'PYMODULE'),
  ('tqdm.std',
   '/home/shivang/.local/lib/python3.10/site-packages/tqdm/std.py',
   'PYMODULE'),
  ('pandas.core.common',
   '/home/shivang/.local/lib/python3.10/site-packages/pandas/core/common.py',
   'PYMODULE'),
  ('pandas.core',
   '/home/shivang/.local/lib/python3.10/site-packages/pandas/core/__init__.py',
   'PYMODULE'),
  ('pandas.core.arraylike',
   '/home/shivang/.local/lib/python3.10/site-packages/pandas/core/arraylike.py',
   'PYMODULE'),
  ('pandas.core.internals',
   '/home/shivang/.local/lib/python3.10/site-packages/pandas/core/internals/__init__.py',
   'PYMODULE'),
  ('pandas.core.internals.managers',
   '/home/shivang/.local/lib/python3.10/site-packages/pandas/core/internals/managers.py',
   'PYMODULE'),
  ('pandas.core.internals.ops',
   '/home/shivang/.local/lib/python3.10/site-packages/pandas/core/internals/ops.py',
   'PYMODULE'),
  ('pandas.core.indexes.api',
   '/home/shivang/.local/lib/python3.10/site-packages/pandas/core/indexes/api.py',
   'PYMODULE'),
  ('pandas.core.indexes.timedeltas',
   '/home/shivang/.local/lib/python3.10/site-packages/pandas/core/indexes/timedeltas.py',
   'PYMODULE'),
  ('pandas.core.indexes.extension',
   '/home/shivang/.local/lib/python3.10/site-packages/pandas/core/indexes/extension.py',
   'PYMODULE'),
  ('pandas.core.indexes.datetimelike',
   '/home/shivang/.local/lib/python3.10/site-packages/pandas/core/indexes/datetimelike.py',
   'PYMODULE'),
  ('pandas.core.tools.timedeltas',
   '/home/shivang/.local/lib/python3.10/site-packages/pandas/core/tools/timedeltas.py',
   'PYMODULE'),
  ('pandas.core.tools',
   '/home/shivang/.local/lib/python3.10/site-packages/pandas/core/tools/__init__.py',
   'PYMODULE'),
  ('pandas.core.tools.datetimes',
   '/home/shivang/.local/lib/python3.10/site-packages/pandas/core/tools/datetimes.py',
   'PYMODULE'),
  ('pandas.core.tools.times',
   '/home/shivang/.local/lib/python3.10/site-packages/pandas/core/tools/times.py',
   'PYMODULE'),
  ('pandas.core.arrays.datetimes',
   '/home/shivang/.local/lib/python3.10/site-packages/pandas/core/arrays/datetimes.py',
   'PYMODULE'),
  ('pandas.io.formats.format',
   '/home/shivang/.local/lib/python3.10/site-packages/pandas/io/formats/format.py',
   'PYMODULE'),
  ('pandas.io.formats.csvs',
   '/home/shivang/.local/lib/python3.10/site-packages/pandas/io/formats/csvs.py',
   'PYMODULE'),
  ('pandas.io.formats.string',
   '/home/shivang/.local/lib/python3.10/site-packages/pandas/io/formats/string.py',
   'PYMODULE'),
  ('pandas.io.formats.html',
   '/home/shivang/.local/lib/python3.10/site-packages/pandas/io/formats/html.py',
   'PYMODULE'),
  ('pandas._config',
   '/home/shivang/.local/lib/python3.10/site-packages/pandas/_config/__init__.py',
   'PYMODULE'),
  ('pandas._config.display',
   '/home/shivang/.local/lib/python3.10/site-packages/pandas/_config/display.py',
   'PYMODULE'),
  ('pandas._config.dates',
   '/home/shivang/.local/lib/python3.10/site-packages/pandas/_config/dates.py',
   'PYMODULE'),
  ('pandas.io.formats.latex',
   '/home/shivang/.local/lib/python3.10/site-packages/pandas/io/formats/latex.py',
   'PYMODULE'),
  ('pandas.io.formats.console',
   '/home/shivang/.local/lib/python3.10/site-packages/pandas/io/formats/console.py',
   'PYMODULE'),
  ('pandas.io.formats.printing',
   '/home/shivang/.local/lib/python3.10/site-packages/pandas/io/formats/printing.py',
   'PYMODULE'),
  ('pandas.io.common',
   '/home/shivang/.local/lib/python3.10/site-packages/pandas/io/common.py',
   'PYMODULE'),
  ('pandas.io',
   '/home/shivang/.local/lib/python3.10/site-packages/pandas/io/__init__.py',
   'PYMODULE'),
  ('pandas.io.gbq',
   '/home/shivang/.local/lib/python3.10/site-packages/pandas/io/gbq.py',
   'PYMODULE'),
  ('pandas.io.stata',
   '/home/shivang/.local/lib/python3.10/site-packages/pandas/io/stata.py',
   'PYMODULE'),
  ('pandas.core.arrays.boolean',
   '/home/shivang/.local/lib/python3.10/site-packages/pandas/core/arrays/boolean.py',
   'PYMODULE'),
  ('pandas.core.arrays.masked',
   '/home/shivang/.local/lib/python3.10/site-packages/pandas/core/arrays/masked.py',
   'PYMODULE'),
  ('pandas.core.array_algos.quantile',
   '/home/shivang/.local/lib/python3.10/site-packages/pandas/core/array_algos/quantile.py',
   'PYMODULE'),
  ('pandas.core.array_algos.masked_reductions',
   '/home/shivang/.local/lib/python3.10/site-packages/pandas/core/array_algos/masked_reductions.py',
   'PYMODULE'),
  ('pandas.core.array_algos',
   '/home/shivang/.local/lib/python3.10/site-packages/pandas/core/array_algos/__init__.py',
   'PYMODULE'),
  ('pandas.core.missing',
   '/home/shivang/.local/lib/python3.10/site-packages/pandas/core/missing.py',
   'PYMODULE'),
  ('pandas.core.dtypes.base',
   '/home/shivang/.local/lib/python3.10/site-packages/pandas/core/dtypes/base.py',
   'PYMODULE'),
  ('pandas.core.dtypes',
   '/home/shivang/.local/lib/python3.10/site-packages/pandas/core/dtypes/__init__.py',
   'PYMODULE'),
  ('dateutil.relativedelta',
   '/home/shivang/.local/lib/python3.10/site-packages/dateutil/relativedelta.py',
   'PYMODULE'),
  ('dateutil',
   '/home/shivang/.local/lib/python3.10/site-packages/dateutil/__init__.py',
   'PYMODULE'),
  ('dateutil.rrule',
   '/home/shivang/.local/lib/python3.10/site-packages/dateutil/rrule.py',
   'PYMODULE'),
  ('dateutil.parser',
   '/home/shivang/.local/lib/python3.10/site-packages/dateutil/parser/__init__.py',
   'PYMODULE'),
  ('dateutil.parser.isoparser',
   '/home/shivang/.local/lib/python3.10/site-packages/dateutil/parser/isoparser.py',
   'PYMODULE'),
  ('dateutil.parser._parser',
   '/home/shivang/.local/lib/python3.10/site-packages/dateutil/parser/_parser.py',
   'PYMODULE'),
  ('dateutil.tz',
   '/home/shivang/.local/lib/python3.10/site-packages/dateutil/tz/__init__.py',
   'PYMODULE'),
  ('dateutil.tz.tz',
   '/home/shivang/.local/lib/python3.10/site-packages/dateutil/tz/tz.py',
   'PYMODULE'),
  ('dateutil.zoneinfo',
   '/home/shivang/.local/lib/python3.10/site-packages/dateutil/zoneinfo/__init__.py',
   'PYMODULE'),
  ('dateutil.tz.win',
   '/home/shivang/.local/lib/python3.10/site-packages/dateutil/tz/win.py',
   'PYMODULE'),
  ('dateutil.tz._factories',
   '/home/shivang/.local/lib/python3.10/site-packages/dateutil/tz/_factories.py',
   'PYMODULE'),
  ('dateutil.tz._common',
   '/home/shivang/.local/lib/python3.10/site-packages/dateutil/tz/_common.py',
   'PYMODULE'),
  ('dateutil.easter',
   '/home/shivang/.local/lib/python3.10/site-packages/dateutil/easter.py',
   'PYMODULE'),
  ('dateutil._version',
   '/home/shivang/.local/lib/python3.10/site-packages/dateutil/_version.py',
   'PYMODULE'),
  ('dateutil._common',
   '/home/shivang/.local/lib/python3.10/site-packages/dateutil/_common.py',
   'PYMODULE'),
  ('six', '/usr/lib/python3/dist-packages/six.py', 'PYMODULE'),
  ('pandas.io.clipboards',
   '/home/shivang/.local/lib/python3.10/site-packages/pandas/io/clipboards.py',
   'PYMODULE'),
  ('pandas.io.parsers',
   '/home/shivang/.local/lib/python3.10/site-packages/pandas/io/parsers/__init__.py',
   'PYMODULE'),
  ('pandas.io.parsers.readers',
   '/home/shivang/.local/lib/python3.10/site-packages/pandas/io/parsers/readers.py',
   'PYMODULE'),
  ('pandas.io.parsers.python_parser',
   '/home/shivang/.local/lib/python3.10/site-packages/pandas/io/parsers/python_parser.py',
   'PYMODULE'),
  ('pandas.io.parsers.c_parser_wrapper',
   '/home/shivang/.local/lib/python3.10/site-packages/pandas/io/parsers/c_parser_wrapper.py',
   'PYMODULE'),
  ('pandas.io.parsers.base_parser',
   '/home/shivang/.local/lib/python3.10/site-packages/pandas/io/parsers/base_parser.py',
   'PYMODULE'),
  ('pandas.io.date_converters',
   '/home/shivang/.local/lib/python3.10/site-packages/pandas/io/date_converters.py',
   'PYMODULE'),
  ('pandas.io.parsers.arrow_parser_wrapper',
   '/home/shivang/.local/lib/python3.10/site-packages/pandas/io/parsers/arrow_parser_wrapper.py',
   'PYMODULE'),
  ('pandas.io.clipboard',
   '/home/shivang/.local/lib/python3.10/site-packages/pandas/io/clipboard/__init__.py',
   'PYMODULE'),
  ('pandas.io.sql',
   '/home/shivang/.local/lib/python3.10/site-packages/pandas/io/sql.py',
   'PYMODULE'),
  ('sqlite3', '/usr/lib/python3.10/sqlite3/__init__.py', 'PYMODULE'),
  ('sqlite3.dump', '/usr/lib/python3.10/sqlite3/dump.py', 'PYMODULE'),
  ('sqlite3.dbapi2', '/usr/lib/python3.10/sqlite3/dbapi2.py', 'PYMODULE'),
  ('pandas.util.version',
   '/home/shivang/.local/lib/python3.10/site-packages/pandas/util/version/__init__.py',
   'PYMODULE'),
  ('pandas.util',
   '/home/shivang/.local/lib/python3.10/site-packages/pandas/util/__init__.py',
   'PYMODULE'),
  ('pandas.util.testing',
   '/home/shivang/.local/lib/python3.10/site-packages/pandas/util/testing.py',
   'PYMODULE'),
  ('pandas._testing',
   '/home/shivang/.local/lib/python3.10/site-packages/pandas/_testing/__init__.py',
   'PYMODULE'),
  ('pandas._testing.contexts',
   '/home/shivang/.local/lib/python3.10/site-packages/pandas/_testing/contexts.py',
   'PYMODULE'),
  ('pandas.core.computation.expressions',
   '/home/shivang/.local/lib/python3.10/site-packages/pandas/core/computation/expressions.py',
   'PYMODULE'),
  ('pandas.core.computation.check',
   '/home/shivang/.local/lib/python3.10/site-packages/pandas/core/computation/check.py',
   'PYMODULE'),
  ('pandas.core.computation',
   '/home/shivang/.local/lib/python3.10/site-packages/pandas/core/computation/__init__.py',
   'PYMODULE'),
  ('pandas.core.computation.expr',
   '/home/shivang/.local/lib/python3.10/site-packages/pandas/core/computation/expr.py',
   'PYMODULE'),
  ('pandas.core.computation.scope',
   '/home/shivang/.local/lib/python3.10/site-packages/pandas/core/computation/scope.py',
   'PYMODULE'),
  ('pandas.compat.chainmap',
   '/home/shivang/.local/lib/python3.10/site-packages/pandas/compat/chainmap.py',
   'PYMODULE'),
  ('pandas.core.computation.parsing',
   '/home/shivang/.local/lib/python3.10/site-packages/pandas/core/computation/parsing.py',
   'PYMODULE'),
  ('pandas.core.computation.ops',
   '/home/shivang/.local/lib/python3.10/site-packages/pandas/core/computation/ops.py',
   'PYMODULE'),
  ('pandas.core.computation.eval',
   '/home/shivang/.local/lib/python3.10/site-packages/pandas/core/computation/eval.py',
   'PYMODULE'),
  ('pandas.core.computation.engines',
   '/home/shivang/.local/lib/python3.10/site-packages/pandas/core/computation/engines.py',
   'PYMODULE'),
  ('pandas.core.computation.align',
   '/home/shivang/.local/lib/python3.10/site-packages/pandas/core/computation/align.py',
   'PYMODULE'),
  ('pandas.core.computation.common',
   '/home/shivang/.local/lib/python3.10/site-packages/pandas/core/computation/common.py',
   'PYMODULE'),
  ('pandas._testing.compat',
   '/home/shivang/.local/lib/python3.10/site-packages/pandas/_testing/compat.py',
   'PYMODULE'),
  ('pandas._testing.asserters',
   '/home/shivang/.local/lib/python3.10/site-packages/pandas/_testing/asserters.py',
   'PYMODULE'),
  ('pandas.core.arrays.string_',
   '/home/shivang/.local/lib/python3.10/site-packages/pandas/core/arrays/string_.py',
   'PYMODULE'),
  ('pandas.core.arrays.string_arrow',
   '/home/shivang/.local/lib/python3.10/site-packages/pandas/core/arrays/string_arrow.py',
   'PYMODULE'),
  ('pandas.core.strings.object_array',
   '/home/shivang/.local/lib/python3.10/site-packages/pandas/core/strings/object_array.py',
   'PYMODULE'),
  ('pandas.core.strings',
   '/home/shivang/.local/lib/python3.10/site-packages/pandas/core/strings/__init__.py',
   'PYMODULE'),
  ('pandas.core.strings.accessor',
   '/home/shivang/.local/lib/python3.10/site-packages/pandas/core/strings/accessor.py',
   'PYMODULE'),
  ('pandas.core.strings.base',
   '/home/shivang/.local/lib/python3.10/site-packages/pandas/core/strings/base.py',
   'PYMODULE'),
  ('pandas.core.arrays.numeric',
   '/home/shivang/.local/lib/python3.10/site-packages/pandas/core/arrays/numeric.py',
   'PYMODULE'),
  ('pandas.core.arrays._arrow_utils',
   '/home/shivang/.local/lib/python3.10/site-packages/pandas/core/arrays/_arrow_utils.py',
   'PYMODULE'),
  ('pandas.core.arrays.interval',
   '/home/shivang/.local/lib/python3.10/site-packages/pandas/core/arrays/interval.py',
   'PYMODULE'),
  ('pandas.core.arrays.floating',
   '/home/shivang/.local/lib/python3.10/site-packages/pandas/core/arrays/floating.py',
   'PYMODULE'),
  ('pandas.core.tools.numeric',
   '/home/shivang/.local/lib/python3.10/site-packages/pandas/core/tools/numeric.py',
   'PYMODULE'),
  ('pandas.core.arrays.base',
   '/home/shivang/.local/lib/python3.10/site-packages/pandas/core/arrays/base.py',
   'PYMODULE'),
  ('pandas.core.sorting',
   '/home/shivang/.local/lib/python3.10/site-packages/pandas/core/sorting.py',
   'PYMODULE'),
  ('pandas._testing._warnings',
   '/home/shivang/.local/lib/python3.10/site-packages/pandas/_testing/_warnings.py',
   'PYMODULE'),
  ('pandas._testing._random',
   '/home/shivang/.local/lib/python3.10/site-packages/pandas/_testing/_random.py',
   'PYMODULE'),
  ('pandas._testing._io',
   '/home/shivang/.local/lib/python3.10/site-packages/pandas/_testing/_io.py',
   'PYMODULE'),
  ('pandas._config.localization',
   '/home/shivang/.local/lib/python3.10/site-packages/pandas/_config/localization.py',
   'PYMODULE'),
  ('pandas.core.util.hashing',
   '/home/shivang/.local/lib/python3.10/site-packages/pandas/core/util/hashing.py',
   'PYMODULE'),
  ('pandas.core.util',
   '/home/shivang/.local/lib/python3.10/site-packages/pandas/core/util/__init__.py',
   'PYMODULE'),
  ('pandas.core.api',
   '/home/shivang/.local/lib/python3.10/site-packages/pandas/core/api.py',
   'PYMODULE'),
  ('pandas.core.flags',
   '/home/shivang/.local/lib/python3.10/site-packages/pandas/core/flags.py',
   'PYMODULE'),
  ('pandas.io.pytables',
   '/home/shivang/.local/lib/python3.10/site-packages/pandas/io/pytables.py',
   'PYMODULE'),
  ('pandas.core.computation.pytables',
   '/home/shivang/.local/lib/python3.10/site-packages/pandas/core/computation/pytables.py',
   'PYMODULE'),
  ('pandas.compat.pickle_compat',
   '/home/shivang/.local/lib/python3.10/site-packages/pandas/compat/pickle_compat.py',
   'PYMODULE'),
  ('pandas.io.json',
   '/home/shivang/.local/lib/python3.10/site-packages/pandas/io/json/__init__.py',
   'PYMODULE'),
  ('pandas.io.json._table_schema',
   '/home/shivang/.local/lib/python3.10/site-packages/pandas/io/json/_table_schema.py',
   'PYMODULE'),
  ('pandas.io.json._normalize',
   '/home/shivang/.local/lib/python3.10/site-packages/pandas/io/json/_normalize.py',
   'PYMODULE'),
  ('pandas.io.json._json',
   '/home/shivang/.local/lib/python3.10/site-packages/pandas/io/json/_json.py',
   'PYMODULE'),
  ('pandas.core.shared_docs',
   '/home/shivang/.local/lib/python3.10/site-packages/pandas/core/shared_docs.py',
   'PYMODULE'),
  ('pandas.compat._optional',
   '/home/shivang/.local/lib/python3.10/site-packages/pandas/compat/_optional.py',
   'PYMODULE'),
  ('pandas.compat',
   '/home/shivang/.local/lib/python3.10/site-packages/pandas/compat/__init__.py',
   'PYMODULE'),
  ('pandas.compat.pyarrow',
   '/home/shivang/.local/lib/python3.10/site-packages/pandas/compat/pyarrow.py',
   'PYMODULE'),
  ('pandas.core.reshape.concat',
   '/home/shivang/.local/lib/python3.10/site-packages/pandas/core/reshape/concat.py',
   'PYMODULE'),
  ('pandas.core.reshape',
   '/home/shivang/.local/lib/python3.10/site-packages/pandas/core/reshape/__init__.py',
   'PYMODULE'),
  ('pandas.core.arrays.categorical',
   '/home/shivang/.local/lib/python3.10/site-packages/pandas/core/arrays/categorical.py',
   'PYMODULE'),
  ('pandas.core.accessor',
   '/home/shivang/.local/lib/python3.10/site-packages/pandas/core/accessor.py',
   'PYMODULE'),
  ('pandas.io.formats',
   '/home/shivang/.local/lib/python3.10/site-packages/pandas/io/formats/__init__.py',
   'PYMODULE'),
  ('pandas.io.formats.style',
   '/home/shivang/.local/lib/python3.10/site-packages/pandas/io/formats/style.py',
   'PYMODULE'),
  ('pandas.io.formats.excel',
   '/home/shivang/.local/lib/python3.10/site-packages/pandas/io/formats/excel.py',
   'PYMODULE'),
  ('pandas.io.excel',
   '/home/shivang/.local/lib/python3.10/site-packages/pandas/io/excel/__init__.py',
   'PYMODULE'),
  ('pandas.io.excel._xlwt',
   '/home/shivang/.local/lib/python3.10/site-packages/pandas/io/excel/_xlwt.py',
   'PYMODULE'),
  ('pandas.io.excel._xlsxwriter',
   '/home/shivang/.local/lib/python3.10/site-packages/pandas/io/excel/_xlsxwriter.py',
   'PYMODULE'),
  ('pandas.io.excel._util',
   '/home/shivang/.local/lib/python3.10/site-packages/pandas/io/excel/_util.py',
   'PYMODULE'),
  ('pandas.io.excel._openpyxl',
   '/home/shivang/.local/lib/python3.10/site-packages/pandas/io/excel/_openpyxl.py',
   'PYMODULE'),
  ('pandas.io.excel._odswriter',
   '/home/shivang/.local/lib/python3.10/site-packages/pandas/io/excel/_odswriter.py',
   'PYMODULE'),
  ('pandas.io.excel._base',
   '/home/shivang/.local/lib/python3.10/site-packages/pandas/io/excel/_base.py',
   'PYMODULE'),
  ('pandas.io.excel._xlrd',
   '/home/shivang/.local/lib/python3.10/site-packages/pandas/io/excel/_xlrd.py',
   'PYMODULE'),
  ('pandas.io.excel._pyxlsb',
   '/home/shivang/.local/lib/python3.10/site-packages/pandas/io/excel/_pyxlsb.py',
   'PYMODULE'),
  ('pandas.io.excel._odfreader',
   '/home/shivang/.local/lib/python3.10/site-packages/pandas/io/excel/_odfreader.py',
   'PYMODULE'),
  ('pandas.io.formats.css',
   '/home/shivang/.local/lib/python3.10/site-packages/pandas/io/formats/css.py',
   'PYMODULE'),
  ('pandas.io.formats._color_data',
   '/home/shivang/.local/lib/python3.10/site-packages/pandas/io/formats/_color_data.py',
   'PYMODULE'),
  ('pandas.io.formats.style_render',
   '/home/shivang/.local/lib/python3.10/site-packages/pandas/io/formats/style_render.py',
   'PYMODULE'),
  ('pandas.api.types',
   '/home/shivang/.local/lib/python3.10/site-packages/pandas/api/types/__init__.py',
   'PYMODULE'),
  ('pandas.api',
   '/home/shivang/.local/lib/python3.10/site-packages/pandas/api/__init__.py',
   'PYMODULE'),
  ('pandas.api.indexers',
   '/home/shivang/.local/lib/python3.10/site-packages/pandas/api/indexers/__init__.py',
   'PYMODULE'),
  ('pandas.core.indexers.objects',
   '/home/shivang/.local/lib/python3.10/site-packages/pandas/core/indexers/objects.py',
   'PYMODULE'),
  ('pandas.api.extensions',
   '/home/shivang/.local/lib/python3.10/site-packages/pandas/api/extensions/__init__.py',
   'PYMODULE'),
  ('pandas.core.dtypes.api',
   '/home/shivang/.local/lib/python3.10/site-packages/pandas/core/dtypes/api.py',
   'PYMODULE'),
  ('uuid', '/usr/lib/python3.10/uuid.py', 'PYMODULE'),
  ('pandas._config.config',
   '/home/shivang/.local/lib/python3.10/site-packages/pandas/_config/config.py',
   'PYMODULE'),
  ('pandas.tseries.offsets',
   '/home/shivang/.local/lib/python3.10/site-packages/pandas/tseries/offsets.py',
   'PYMODULE'),
  ('pandas.tseries',
   '/home/shivang/.local/lib/python3.10/site-packages/pandas/tseries/__init__.py',
   'PYMODULE'),
  ('pandas.tseries.frequencies',
   '/home/shivang/.local/lib/python3.10/site-packages/pandas/tseries/frequencies.py',
   'PYMODULE'),
  ('pandas.core.arrays.integer',
   '/home/shivang/.local/lib/python3.10/site-packages/pandas/core/arrays/integer.py',
   'PYMODULE'),
  ('pandas.core.arrays._ranges',
   '/home/shivang/.local/lib/python3.10/site-packages/pandas/core/arrays/_ranges.py',
   'PYMODULE'),
  ('pandas.arrays',
   '/home/shivang/.local/lib/python3.10/site-packages/pandas/arrays/__init__.py',
   'PYMODULE'),
  ('pandas.core.dtypes.concat',
   '/home/shivang/.local/lib/python3.10/site-packages/pandas/core/dtypes/concat.py',
   'PYMODULE'),
  ('pandas.compat.numpy.function',
   '/home/shivang/.local/lib/python3.10/site-packages/pandas/compat/numpy/function.py',
   'PYMODULE'),
  ('pandas.compat.numpy',
   '/home/shivang/.local/lib/python3.10/site-packages/pandas/compat/numpy/__init__.py',
   'PYMODULE'),
  ('pandas.core.arrays.timedeltas',
   '/home/shivang/.local/lib/python3.10/site-packages/pandas/core/arrays/timedeltas.py',
   'PYMODULE'),
  ('pandas.core.arrays.period',
   '/home/shivang/.local/lib/python3.10/site-packages/pandas/core/arrays/period.py',
   'PYMODULE'),
  ('pandas.core.arrays.datetimelike',
   '/home/shivang/.local/lib/python3.10/site-packages/pandas/core/arrays/datetimelike.py',
   'PYMODULE'),
  ('pandas.core.ops.invalid',
   '/home/shivang/.local/lib/python3.10/site-packages/pandas/core/ops/invalid.py',
   'PYMODULE'),
  ('pandas.core.arrays',
   '/home/shivang/.local/lib/python3.10/site-packages/pandas/core/arrays/__init__.py',
   'PYMODULE'),
  ('pandas.core.arrays.numpy_',
   '/home/shivang/.local/lib/python3.10/site-packages/pandas/core/arrays/numpy_.py',
   'PYMODULE'),
  ('pandas._libs.tslibs',
   '/home/shivang/.local/lib/python3.10/site-packages/pandas/_libs/tslibs/__init__.py',
   'PYMODULE'),
  ('pandas.core.indexes.range',
   '/home/shivang/.local/lib/python3.10/site-packages/pandas/core/indexes/range.py',
   'PYMODULE'),
  ('pandas.core.indexes.period',
   '/home/shivang/.local/lib/python3.10/site-packages/pandas/core/indexes/period.py',
   'PYMODULE'),
  ('pandas.core.indexes.numeric',
   '/home/shivang/.local/lib/python3.10/site-packages/pandas/core/indexes/numeric.py',
   'PYMODULE'),
  ('pandas.core.indexes.multi',
   '/home/shivang/.local/lib/python3.10/site-packages/pandas/core/indexes/multi.py',
   'PYMODULE'),
  ('pandas.core.reshape.util',
   '/home/shivang/.local/lib/python3.10/site-packages/pandas/core/reshape/util.py',
   'PYMODULE'),
  ('pandas.core.indexes.frozen',
   '/home/shivang/.local/lib/python3.10/site-packages/pandas/core/indexes/frozen.py',
   'PYMODULE'),
  ('pandas.core.indexes.interval',
   '/home/shivang/.local/lib/python3.10/site-packages/pandas/core/indexes/interval.py',
   'PYMODULE'),
  ('pandas.core.indexes.datetimes',
   '/home/shivang/.local/lib/python3.10/site-packages/pandas/core/indexes/datetimes.py',
   'PYMODULE'),
  ('pandas.core.indexes.category',
   '/home/shivang/.local/lib/python3.10/site-packages/pandas/core/indexes/category.py',
   'PYMODULE'),
  ('pandas.core.indexes',
   '/home/shivang/.local/lib/python3.10/site-packages/pandas/core/indexes/__init__.py',
   'PYMODULE'),
  ('pandas.core.indexes.base',
   '/home/shivang/.local/lib/python3.10/site-packages/pandas/core/indexes/base.py',
   'PYMODULE'),
  ('pandas.core.reshape.merge',
   '/home/shivang/.local/lib/python3.10/site-packages/pandas/core/reshape/merge.py',
   'PYMODULE'),
  ('pandas.core.array_algos.putmask',
   '/home/shivang/.local/lib/python3.10/site-packages/pandas/core/array_algos/putmask.py',
   'PYMODULE'),
  ('pandas.core.indexers',
   '/home/shivang/.local/lib/python3.10/site-packages/pandas/core/indexers/__init__.py',
   'PYMODULE'),
  ('pandas.core.indexers.utils',
   '/home/shivang/.local/lib/python3.10/site-packages/pandas/core/indexers/utils.py',
   'PYMODULE'),
  ('pandas.core.arrays.sparse',
   '/home/shivang/.local/lib/python3.10/site-packages/pandas/core/arrays/sparse/__init__.py',
   'PYMODULE'),
  ('pandas.core.arrays.sparse.dtype',
   '/home/shivang/.local/lib/python3.10/site-packages/pandas/core/arrays/sparse/dtype.py',
   'PYMODULE'),
  ('pandas.core.arrays.sparse.array',
   '/home/shivang/.local/lib/python3.10/site-packages/pandas/core/arrays/sparse/array.py',
   'PYMODULE'),
  ('pandas.core.arrays.sparse.accessor',
   '/home/shivang/.local/lib/python3.10/site-packages/pandas/core/arrays/sparse/accessor.py',
   'PYMODULE'),
  ('pandas.core.arrays.sparse.scipy_sparse',
   '/home/shivang/.local/lib/python3.10/site-packages/pandas/core/arrays/sparse/scipy_sparse.py',
   'PYMODULE'),
  ('pandas.core.arrays._mixins',
   '/home/shivang/.local/lib/python3.10/site-packages/pandas/core/arrays/_mixins.py',
   'PYMODULE'),
  ('pandas.core.array_algos.transforms',
   '/home/shivang/.local/lib/python3.10/site-packages/pandas/core/array_algos/transforms.py',
   'PYMODULE'),
  ('pandas.core.dtypes.dtypes',
   '/home/shivang/.local/lib/python3.10/site-packages/pandas/core/dtypes/dtypes.py',
   'PYMODULE'),
  ('pytz',
   '/home/shivang/.local/lib/python3.10/site-packages/pytz/__init__.py',
   'PYMODULE'),
  ('pytz.tzfile',
   '/home/shivang/.local/lib/python3.10/site-packages/pytz/tzfile.py',
   'PYMODULE'),
  ('pytz.tzinfo',
   '/home/shivang/.local/lib/python3.10/site-packages/pytz/tzinfo.py',
   'PYMODULE'),
  ('pytz.lazy',
   '/home/shivang/.local/lib/python3.10/site-packages/pytz/lazy.py',
   'PYMODULE'),
  ('pytz.exceptions',
   '/home/shivang/.local/lib/python3.10/site-packages/pytz/exceptions.py',
   'PYMODULE'),
  ('pandas.util._validators',
   '/home/shivang/.local/lib/python3.10/site-packages/pandas/util/_validators.py',
   'PYMODULE'),
  ('pandas.util._decorators',
   '/home/shivang/.local/lib/python3.10/site-packages/pandas/util/_decorators.py',
   'PYMODULE'),
  ('pandas.errors',
   '/home/shivang/.local/lib/python3.10/site-packages/pandas/errors/__init__.py',
   'PYMODULE'),
  ('pandas.core.internals.concat',
   '/home/shivang/.local/lib/python3.10/site-packages/pandas/core/internals/concat.py',
   'PYMODULE'),
  ('pandas.core.internals.blocks',
   '/home/shivang/.local/lib/python3.10/site-packages/pandas/core/internals/blocks.py',
   'PYMODULE'),
  ('pandas.core.array_algos.take',
   '/home/shivang/.local/lib/python3.10/site-packages/pandas/core/array_algos/take.py',
   'PYMODULE'),
  ('pandas.core.array_algos.replace',
   '/home/shivang/.local/lib/python3.10/site-packages/pandas/core/array_algos/replace.py',
   'PYMODULE'),
  ('pandas.core.internals.base',
   '/home/shivang/.local/lib/python3.10/site-packages/pandas/core/internals/base.py',
   'PYMODULE'),
  ('pandas.core.internals.array_manager',
   '/home/shivang/.local/lib/python3.10/site-packages/pandas/core/internals/array_manager.py',
   'PYMODULE'),
  ('pandas.core.internals.api',
   '/home/shivang/.local/lib/python3.10/site-packages/pandas/core/internals/api.py',
   'PYMODULE'),
  ('pandas.core.generic',
   '/home/shivang/.local/lib/python3.10/site-packages/pandas/core/generic.py',
   'PYMODULE'),
  ('pandas.io.pickle',
   '/home/shivang/.local/lib/python3.10/site-packages/pandas/io/pickle.py',
   'PYMODULE'),
  ('pandas.core.resample',
   '/home/shivang/.local/lib/python3.10/site-packages/pandas/core/resample.py',
   'PYMODULE'),
  ('pandas.core.groupby.ops',
   '/home/shivang/.local/lib/python3.10/site-packages/pandas/core/groupby/ops.py',
   'PYMODULE'),
  ('pandas.core.groupby.grouper',
   '/home/shivang/.local/lib/python3.10/site-packages/pandas/core/groupby/grouper.py',
   'PYMODULE'),
  ('pandas.core.groupby.categorical',
   '/home/shivang/.local/lib/python3.10/site-packages/pandas/core/groupby/categorical.py',
   'PYMODULE'),
  ('pandas.core.apply',
   '/home/shivang/.local/lib/python3.10/site-packages/pandas/core/apply.py',
   'PYMODULE'),
  ('pandas.core.sample',
   '/home/shivang/.local/lib/python3.10/site-packages/pandas/core/sample.py',
   'PYMODULE'),
  ('pandas.core.internals.construction',
   '/home/shivang/.local/lib/python3.10/site-packages/pandas/core/internals/construction.py',
   'PYMODULE'),
  ('pandas.core.describe',
   '/home/shivang/.local/lib/python3.10/site-packages/pandas/core/describe.py',
   'PYMODULE'),
  ('pandas.core.ops.common',
   '/home/shivang/.local/lib/python3.10/site-packages/pandas/core/ops/common.py',
   'PYMODULE'),
  ('pandas.core.construction',
   '/home/shivang/.local/lib/python3.10/site-packages/pandas/core/construction.py',
   'PYMODULE'),
  ('pandas.core.indexing',
   '/home/shivang/.local/lib/python3.10/site-packages/pandas/core/indexing.py',
   'PYMODULE'),
  ('pandas.core.base',
   '/home/shivang/.local/lib/python3.10/site-packages/pandas/core/base.py',
   'PYMODULE'),
  ('pandas.core.ops',
   '/home/shivang/.local/lib/python3.10/site-packages/pandas/core/ops/__init__.py',
   'PYMODULE'),
  ('pandas.core.ops.methods',
   '/home/shivang/.local/lib/python3.10/site-packages/pandas/core/ops/methods.py',
   'PYMODULE'),
  ('pandas.core.ops.mask_ops',
   '/home/shivang/.local/lib/python3.10/site-packages/pandas/core/ops/mask_ops.py',
   'PYMODULE'),
  ('pandas.core.ops.docstrings',
   '/home/shivang/.local/lib/python3.10/site-packages/pandas/core/ops/docstrings.py',
   'PYMODULE'),
  ('pandas.core.ops.array_ops',
   '/home/shivang/.local/lib/python3.10/site-packages/pandas/core/ops/array_ops.py',
   'PYMODULE'),
  ('pandas.core.ops.dispatch',
   '/home/shivang/.local/lib/python3.10/site-packages/pandas/core/ops/dispatch.py',
   'PYMODULE'),
  ('pandas.core.ops.missing',
   '/home/shivang/.local/lib/python3.10/site-packages/pandas/core/ops/missing.py',
   'PYMODULE'),
  ('pandas.core.nanops',
   '/home/shivang/.local/lib/python3.10/site-packages/pandas/core/nanops.py',
   'PYMODULE'),
  ('pandas.core.algorithms',
   '/home/shivang/.local/lib/python3.10/site-packages/pandas/core/algorithms.py',
   'PYMODULE'),
  ('pandas.core.reshape.tile',
   '/home/shivang/.local/lib/python3.10/site-packages/pandas/core/reshape/tile.py',
   'PYMODULE'),
  ('pandas.core.roperator',
   '/home/shivang/.local/lib/python3.10/site-packages/pandas/core/roperator.py',
   'PYMODULE'),
  ('pandas.core.dtypes.missing',
   '/home/shivang/.local/lib/python3.10/site-packages/pandas/core/dtypes/missing.py',
   'PYMODULE'),
  ('pandas.core.dtypes.inference',
   '/home/shivang/.local/lib/python3.10/site-packages/pandas/core/dtypes/inference.py',
   'PYMODULE'),
  ('pandas.core.dtypes.generic',
   '/home/shivang/.local/lib/python3.10/site-packages/pandas/core/dtypes/generic.py',
   'PYMODULE'),
  ('pandas.core.dtypes.common',
   '/home/shivang/.local/lib/python3.10/site-packages/pandas/core/dtypes/common.py',
   'PYMODULE'),
  ('pandas.core.dtypes.cast',
   '/home/shivang/.local/lib/python3.10/site-packages/pandas/core/dtypes/cast.py',
   'PYMODULE'),
  ('pandas.util._exceptions',
   '/home/shivang/.local/lib/python3.10/site-packages/pandas/util/_exceptions.py',
   'PYMODULE'),
  ('pandas._typing',
   '/home/shivang/.local/lib/python3.10/site-packages/pandas/_typing.py',
   'PYMODULE'),
  ('pandas._libs',
   '/home/shivang/.local/lib/python3.10/site-packages/pandas/_libs/__init__.py',
   'PYMODULE'),
  ('pandas.core.groupby',
   '/home/shivang/.local/lib/python3.10/site-packages/pandas/core/groupby/__init__.py',
   'PYMODULE'),
  ('pandas.core.groupby.numba_',
   '/home/shivang/.local/lib/python3.10/site-packages/pandas/core/groupby/numba_.py',
   'PYMODULE'),
  ('pandas.core.util.numba_',
   '/home/shivang/.local/lib/python3.10/site-packages/pandas/core/util/numba_.py',
   'PYMODULE'),
  ('pandas.core.groupby.base',
   '/home/shivang/.local/lib/python3.10/site-packages/pandas/core/groupby/base.py',
   'PYMODULE'),
  ('pandas.core.groupby.groupby',
   '/home/shivang/.local/lib/python3.10/site-packages/pandas/core/groupby/groupby.py',
   'PYMODULE'),
  ('pandas.core._numba.kernels',
   '/home/shivang/.local/lib/python3.10/site-packages/pandas/core/_numba/kernels/__init__.py',
   'PYMODULE'),
  ('pandas.core._numba.kernels.var_',
   '/home/shivang/.local/lib/python3.10/site-packages/pandas/core/_numba/kernels/var_.py',
   'PYMODULE'),
  ('pandas.core._numba.kernels.shared',
   '/home/shivang/.local/lib/python3.10/site-packages/pandas/core/_numba/kernels/shared.py',
   'PYMODULE'),
  ('pandas.core._numba.kernels.sum_',
   '/home/shivang/.local/lib/python3.10/site-packages/pandas/core/_numba/kernels/sum_.py',
   'PYMODULE'),
  ('pandas.core._numba.kernels.min_max_',
   '/home/shivang/.local/lib/python3.10/site-packages/pandas/core/_numba/kernels/min_max_.py',
   'PYMODULE'),
  ('pandas.core._numba.kernels.mean_',
   '/home/shivang/.local/lib/python3.10/site-packages/pandas/core/_numba/kernels/mean_.py',
   'PYMODULE'),
  ('pandas.core.groupby.indexing',
   '/home/shivang/.local/lib/python3.10/site-packages/pandas/core/groupby/indexing.py',
   'PYMODULE'),
  ('pandas.core._numba.executor',
   '/home/shivang/.local/lib/python3.10/site-packages/pandas/core/_numba/executor.py',
   'PYMODULE'),
  ('pandas.core._numba',
   '/home/shivang/.local/lib/python3.10/site-packages/pandas/core/_numba/__init__.py',
   'PYMODULE'),
  ('pandas.core.groupby.generic',
   '/home/shivang/.local/lib/python3.10/site-packages/pandas/core/groupby/generic.py',
   'PYMODULE'),
  ('pandas.plotting',
   '/home/shivang/.local/lib/python3.10/site-packages/pandas/plotting/__init__.py',
   'PYMODULE'),
  ('pandas.plotting._misc',
   '/home/shivang/.local/lib/python3.10/site-packages/pandas/plotting/_misc.py',
   'PYMODULE'),
  ('pandas.plotting._core',
   '/home/shivang/.local/lib/python3.10/site-packages/pandas/plotting/_core.py',
   'PYMODULE'),
  ('pandas.core.window.expanding',
   '/home/shivang/.local/lib/python3.10/site-packages/pandas/core/window/expanding.py',
   'PYMODULE'),
  ('pandas.core.window.doc',
   '/home/shivang/.local/lib/python3.10/site-packages/pandas/core/window/doc.py',
   'PYMODULE'),
  ('pandas.core.window',
   '/home/shivang/.local/lib/python3.10/site-packages/pandas/core/window/__init__.py',
   'PYMODULE'),
  ('pandas.core.window.ewm',
   '/home/shivang/.local/lib/python3.10/site-packages/pandas/core/window/ewm.py',
   'PYMODULE'),
  ('pandas.core.window.online',
   '/home/shivang/.local/lib/python3.10/site-packages/pandas/core/window/online.py',
   'PYMODULE'),
  ('pandas.core.window.numba_',
   '/home/shivang/.local/lib/python3.10/site-packages/pandas/core/window/numba_.py',
   'PYMODULE'),
  ('pandas.core.window.common',
   '/home/shivang/.local/lib/python3.10/site-packages/pandas/core/window/common.py',
   'PYMODULE'),
  ('pandas.core.window.rolling',
   '/home/shivang/.local/lib/python3.10/site-packages/pandas/core/window/rolling.py',
   'PYMODULE'),
  ('pandas.core.series',
   '/home/shivang/.local/lib/python3.10/site-packages/pandas/core/series.py',
   'PYMODULE'),
  ('pandas.core.reshape.reshape',
   '/home/shivang/.local/lib/python3.10/site-packages/pandas/core/reshape/reshape.py',
   'PYMODULE'),
  ('pandas.io.formats.info',
   '/home/shivang/.local/lib/python3.10/site-packages/pandas/io/formats/info.py',
   'PYMODULE'),
  ('pandas.core.indexes.accessors',
   '/home/shivang/.local/lib/python3.10/site-packages/pandas/core/indexes/accessors.py',
   'PYMODULE'),
  ('pandas.core.frame',
   '/home/shivang/.local/lib/python3.10/site-packages/pandas/core/frame.py',
   'PYMODULE'),
  ('pandas.core.reshape.pivot',
   '/home/shivang/.local/lib/python3.10/site-packages/pandas/core/reshape/pivot.py',
   'PYMODULE'),
  ('pandas.io.formats.xml',
   '/home/shivang/.local/lib/python3.10/site-packages/pandas/io/formats/xml.py',
   'PYMODULE'),
  ('xml.dom.minidom', '/usr/lib/python3.10/xml/dom/minidom.py', 'PYMODULE'),
  ('xml.dom.pulldom', '/usr/lib/python3.10/xml/dom/pulldom.py', 'PYMODULE'),
  ('xml.dom.expatbuilder',
   '/usr/lib/python3.10/xml/dom/expatbuilder.py',
   'PYMODULE'),
  ('xml.dom.NodeFilter',
   '/usr/lib/python3.10/xml/dom/NodeFilter.py',
   'PYMODULE'),
  ('xml.dom.xmlbuilder',
   '/usr/lib/python3.10/xml/dom/xmlbuilder.py',
   'PYMODULE'),
  ('xml.dom.minicompat',
   '/usr/lib/python3.10/xml/dom/minicompat.py',
   'PYMODULE'),
  ('xml.dom.domreg', '/usr/lib/python3.10/xml/dom/domreg.py', 'PYMODULE'),
  ('xml.dom', '/usr/lib/python3.10/xml/dom/__init__.py', 'PYMODULE'),
  ('xml.etree.ElementTree',
   '/usr/lib/python3.10/xml/etree/ElementTree.py',
   'PYMODULE'),
  ('xml.etree.cElementTree',
   '/usr/lib/python3.10/xml/etree/cElementTree.py',
   'PYMODULE'),
  ('xml.etree.ElementInclude',
   '/usr/lib/python3.10/xml/etree/ElementInclude.py',
   'PYMODULE'),
  ('xml.etree.ElementPath',
   '/usr/lib/python3.10/xml/etree/ElementPath.py',
   'PYMODULE'),
  ('xml.etree', '/usr/lib/python3.10/xml/etree/__init__.py', 'PYMODULE'),
  ('pandas.io.xml',
   '/home/shivang/.local/lib/python3.10/site-packages/pandas/io/xml.py',
   'PYMODULE'),
  ('pandas.io.parquet',
   '/home/shivang/.local/lib/python3.10/site-packages/pandas/io/parquet.py',
   'PYMODULE'),
  ('pandas.io.feather_format',
   '/home/shivang/.local/lib/python3.10/site-packages/pandas/io/feather_format.py',
   'PYMODULE'),
  ('pandas.core.reshape.melt',
   '/home/shivang/.local/lib/python3.10/site-packages/pandas/core/reshape/melt.py',
   'PYMODULE'),
  ('tqdm.gui',
   '/home/shivang/.local/lib/python3.10/site-packages/tqdm/gui.py',
   'PYMODULE'),
  ('tqdm.cli',
   '/home/shivang/.local/lib/python3.10/site-packages/tqdm/cli.py',
   'PYMODULE'),
  ('tqdm._tqdm_pandas',
   '/home/shivang/.local/lib/python3.10/site-packages/tqdm/_tqdm_pandas.py',
   'PYMODULE'),
  ('tqdm._monitor',
   '/home/shivang/.local/lib/python3.10/site-packages/tqdm/_monitor.py',
   'PYMODULE'),
  ('tracemalloc', '/usr/lib/python3.10/tracemalloc.py', 'PYMODULE'),
  ('glob', '/usr/lib/python3.10/glob.py', 'PYMODULE'),
  ('pandas',
   '/home/shivang/.local/lib/python3.10/site-packages/pandas/__init__.py',
   'PYMODULE'),
  ('pandas._version',
   '/home/shivang/.local/lib/python3.10/site-packages/pandas/_version.py',
   'PYMODULE'),
  ('pandas.util._tester',
   '/home/shivang/.local/lib/python3.10/site-packages/pandas/util/_tester.py',
   'PYMODULE'),
  ('pandas.io.api',
   '/home/shivang/.local/lib/python3.10/site-packages/pandas/io/api.py',
   'PYMODULE'),
  ('pandas.io.spss',
   '/home/shivang/.local/lib/python3.10/site-packages/pandas/io/spss.py',
   'PYMODULE'),
  ('pandas.io.sas',
   '/home/shivang/.local/lib/python3.10/site-packages/pandas/io/sas/__init__.py',
   'PYMODULE'),
  ('pandas.io.sas.sasreader',
   '/home/shivang/.local/lib/python3.10/site-packages/pandas/io/sas/sasreader.py',
   'PYMODULE'),
  ('pandas.io.sas.sas7bdat',
   '/home/shivang/.local/lib/python3.10/site-packages/pandas/io/sas/sas7bdat.py',
   'PYMODULE'),
  ('pandas.io.sas.sas_constants',
   '/home/shivang/.local/lib/python3.10/site-packages/pandas/io/sas/sas_constants.py',
   'PYMODULE'),
  ('pandas.io.sas.sas_xport',
   '/home/shivang/.local/lib/python3.10/site-packages/pandas/io/sas/sas_xport.py',
   'PYMODULE'),
  ('pandas.io.orc',
   '/home/shivang/.local/lib/python3.10/site-packages/pandas/io/orc.py',
   'PYMODULE'),
  ('pandas.io.html',
   '/home/shivang/.local/lib/python3.10/site-packages/pandas/io/html.py',
   'PYMODULE'),
  ('pandas.util._print_versions',
   '/home/shivang/.local/lib/python3.10/site-packages/pandas/util/_print_versions.py',
   'PYMODULE'),
  ('pandas.testing',
   '/home/shivang/.local/lib/python3.10/site-packages/pandas/testing.py',
   'PYMODULE'),
  ('pandas.core.reshape.api',
   '/home/shivang/.local/lib/python3.10/site-packages/pandas/core/reshape/api.py',
   'PYMODULE'),
  ('pandas.core.computation.api',
   '/home/shivang/.local/lib/python3.10/site-packages/pandas/core/computation/api.py',
   'PYMODULE'),
  ('pandas.tseries.api',
   '/home/shivang/.local/lib/python3.10/site-packages/pandas/tseries/api.py',
   'PYMODULE'),
  ('pandas.core.config_init',
   '/home/shivang/.local/lib/python3.10/site-packages/pandas/core/config_init.py',
   'PYMODULE'),
  ('numpy',
   '/home/shivang/.local/lib/python3.10/site-packages/numpy/__init__.py',
   'PYMODULE'),
  ('numpy.ctypeslib',
   '/home/shivang/.local/lib/python3.10/site-packages/numpy/ctypeslib.py',
   'PYMODULE'),
  ('numpy.random',
   '/home/shivang/.local/lib/python3.10/site-packages/numpy/random/__init__.py',
   'PYMODULE'),
  ('numpy.random._pickle',
   '/home/shivang/.local/lib/python3.10/site-packages/numpy/random/_pickle.py',
   'PYMODULE'),
  ('numpy.polynomial',
   '/home/shivang/.local/lib/python3.10/site-packages/numpy/polynomial/__init__.py',
   'PYMODULE'),
  ('numpy.polynomial._polybase',
   '/home/shivang/.local/lib/python3.10/site-packages/numpy/polynomial/_polybase.py',
   'PYMODULE'),
  ('numpy.polynomial.laguerre',
   '/home/shivang/.local/lib/python3.10/site-packages/numpy/polynomial/laguerre.py',
   'PYMODULE'),
  ('numpy.polynomial.hermite_e',
   '/home/shivang/.local/lib/python3.10/site-packages/numpy/polynomial/hermite_e.py',
   'PYMODULE'),
  ('numpy.polynomial.hermite',
   '/home/shivang/.local/lib/python3.10/site-packages/numpy/polynomial/hermite.py',
   'PYMODULE'),
  ('numpy.polynomial.legendre',
   '/home/shivang/.local/lib/python3.10/site-packages/numpy/polynomial/legendre.py',
   'PYMODULE'),
  ('numpy.polynomial.chebyshev',
   '/home/shivang/.local/lib/python3.10/site-packages/numpy/polynomial/chebyshev.py',
   'PYMODULE'),
  ('numpy.polynomial.polynomial',
   '/home/shivang/.local/lib/python3.10/site-packages/numpy/polynomial/polynomial.py',
   'PYMODULE'),
  ('numpy.polynomial.polyutils',
   '/home/shivang/.local/lib/python3.10/site-packages/numpy/polynomial/polyutils.py',
   'PYMODULE'),
  ('numpy.fft',
   '/home/shivang/.local/lib/python3.10/site-packages/numpy/fft/__init__.py',
   'PYMODULE'),
  ('numpy.fft.helper',
   '/home/shivang/.local/lib/python3.10/site-packages/numpy/fft/helper.py',
   'PYMODULE'),
  ('numpy.fft._pocketfft',
   '/home/shivang/.local/lib/python3.10/site-packages/numpy/fft/_pocketfft.py',
   'PYMODULE'),
  ('numpy._distributor_init',
   '/home/shivang/.local/lib/python3.10/site-packages/numpy/_distributor_init.py',
   'PYMODULE'),
  ('numpy.__config__',
   '/home/shivang/.local/lib/python3.10/site-packages/numpy/__config__.py',
   'PYMODULE'),
  ('os', '/usr/lib/python3.10/os.py', 'PYMODULE'),
  ('argparse', '/usr/lib/python3.10/argparse.py', 'PYMODULE'),
  ('pkg_resources',
   '/usr/lib/python3/dist-packages/pkg_resources/__init__.py',
   'PYMODULE'),
  ('packaging._structures',
   '/home/shivang/.local/lib/python3.10/site-packages/packaging/_structures.py',
   'PYMODULE'),
  ('packaging.__about__',
   '/home/shivang/.local/lib/python3.10/site-packages/packaging/__about__.py',
   'PYMODULE'),
  ('packaging._manylinux',
   '/home/shivang/.local/lib/python3.10/site-packages/packaging/_manylinux.py',
   'PYMODULE'),
  ('packaging.tags',
   '/home/shivang/.local/lib/python3.10/site-packages/packaging/tags.py',
   'PYMODULE'),
  ('packaging.specifiers',
   '/home/shivang/.local/lib/python3.10/site-packages/packaging/specifiers.py',
   'PYMODULE'),
  ('packaging._musllinux',
   '/home/shivang/.local/lib/python3.10/site-packages/packaging/_musllinux.py',
   'PYMODULE'),
  ('packaging',
   '/home/shivang/.local/lib/python3.10/site-packages/packaging/__init__.py',
   'PYMODULE'),
  ('packaging.markers',
   '/home/shivang/.local/lib/python3.10/site-packages/packaging/markers.py',
   'PYMODULE'),
  ('pyparsing',
   '/home/shivang/.local/lib/python3.10/site-packages/pyparsing/__init__.py',
   'PYMODULE'),
  ('pyparsing.common',
   '/home/shivang/.local/lib/python3.10/site-packages/pyparsing/common.py',
   'PYMODULE'),
  ('pyparsing.testing',
   '/home/shivang/.local/lib/python3.10/site-packages/pyparsing/testing.py',
   'PYMODULE'),
  ('pyparsing.unicode',
   '/home/shivang/.local/lib/python3.10/site-packages/pyparsing/unicode.py',
   'PYMODULE'),
  ('pyparsing.helpers',
   '/home/shivang/.local/lib/python3.10/site-packages/pyparsing/helpers.py',
   'PYMODULE'),
  ('pyparsing.results',
   '/home/shivang/.local/lib/python3.10/site-packages/pyparsing/results.py',
   'PYMODULE'),
  ('pyparsing.core',
   '/home/shivang/.local/lib/python3.10/site-packages/pyparsing/core.py',
   'PYMODULE'),
  ('pyparsing.diagram',
   '/home/shivang/.local/lib/python3.10/site-packages/pyparsing/diagram/__init__.py',
   'PYMODULE'),
  ('pyparsing.actions',
   '/home/shivang/.local/lib/python3.10/site-packages/pyparsing/actions.py',
   'PYMODULE'),
  ('pyparsing.exceptions',
   '/home/shivang/.local/lib/python3.10/site-packages/pyparsing/exceptions.py',
   'PYMODULE'),
  ('pyparsing.util',
   '/home/shivang/.local/lib/python3.10/site-packages/pyparsing/util.py',
   'PYMODULE'),
  ('packaging.requirements',
   '/home/shivang/.local/lib/python3.10/site-packages/packaging/requirements.py',
   'PYMODULE'),
  ('packaging.utils',
   '/home/shivang/.local/lib/python3.10/site-packages/packaging/utils.py',
   'PYMODULE'),
  ('packaging.version',
   '/home/shivang/.local/lib/python3.10/site-packages/packaging/version.py',
   'PYMODULE'),
  ('pkg_resources._vendor',
   '/usr/lib/python3/dist-packages/pkg_resources/_vendor/__init__.py',
   'PYMODULE'),
  ('pkg_resources._vendor.packaging._structures',
   '/usr/lib/python3/dist-packages/pkg_resources/_vendor/packaging/_structures.py',
   'PYMODULE'),
  ('pkg_resources._vendor.packaging.version',
   '/usr/lib/python3/dist-packages/pkg_resources/_vendor/packaging/version.py',
   'PYMODULE'),
  ('pkg_resources._vendor.packaging.specifiers',
   '/usr/lib/python3/dist-packages/pkg_resources/_vendor/packaging/specifiers.py',
   'PYMODULE'),
  ('pkg_resources._vendor.packaging.__about__',
   '/usr/lib/python3/dist-packages/pkg_resources/_vendor/packaging/__about__.py',
   'PYMODULE'),
  ('pkg_resources._vendor.packaging.requirements',
   '/usr/lib/python3/dist-packages/pkg_resources/_vendor/packaging/requirements.py',
   'PYMODULE'),
  ('pkg_resources._vendor.packaging.markers',
   '/usr/lib/python3/dist-packages/pkg_resources/_vendor/packaging/markers.py',
   'PYMODULE'),
  ('pkg_resources._vendor.packaging.utils',
   '/usr/lib/python3/dist-packages/pkg_resources/_vendor/packaging/utils.py',
   'PYMODULE'),
  ('pkg_resources._vendor.packaging.tags',
   '/usr/lib/python3/dist-packages/pkg_resources/_vendor/packaging/tags.py',
   'PYMODULE'),
  ('pkg_resources._vendor.pyparsing',
   '/usr/lib/python3/dist-packages/pkg_resources/_vendor/pyparsing.py',
   'PYMODULE'),
  ('pkg_resources._vendor.packaging',
   '/usr/lib/python3/dist-packages/pkg_resources/_vendor/packaging/__init__.py',
   'PYMODULE'),
  ('pkg_resources._vendor.appdirs',
   '/usr/lib/python3/dist-packages/pkg_resources/_vendor/appdirs.py',
   'PYMODULE'),
  ('pkg_resources._vendor.packaging._manylinux',
   '/usr/lib/python3/dist-packages/pkg_resources/_vendor/packaging/_manylinux.py',
   'PYMODULE'),
  ('pkg_resources._vendor.packaging._musllinux',
   '/usr/lib/python3/dist-packages/pkg_resources/_vendor/packaging/_musllinux.py',
   'PYMODULE'),
  ('pkg_resources.extern',
   '/usr/lib/python3/dist-packages/pkg_resources/extern/__init__.py',
   'PYMODULE'),
  ('imp', '/usr/lib/python3.10/imp.py', 'PYMODULE'),
  ('plistlib', '/usr/lib/python3.10/plistlib.py', 'PYMODULE'),
  ('subprocess', '/usr/lib/python3.10/subprocess.py', 'PYMODULE')])
